23/03/2018 23:10:05 -- 4,407368  -- 0, 0 -- Audi

23/03/2018 23:10:05 -- 4,426455  -- 0, 0 -- Audi

23/03/2018 23:10:06 -- 4,791739  -- 0, 0 -- Audi

23/03/2018 23:10:06 -- 4,844013  -- 0, 0 -- Audi

23/03/2018 23:10:06 -- 4,860334  -- 0, 0 -- Audi

23/03/2018 23:10:06 -- 4,878017  -- 0, 0 -- Audi

23/03/2018 23:10:06 -- 4,895077  -- 0, 0 -- Audi

23/03/2018 23:10:06 -- 4,910827  -- 0, 0 -- Audi

23/03/2018 23:10:06 -- 4,927858  -- 0, 0 -- Audi

23/03/2018 23:10:06 -- 4,944656  -- 0, 0 -- Audi

23/03/2018 23:10:06 -- 4,96154  -- 0, 0 -- Audi

23/03/2018 23:10:06 -- 4,979075  -- 0, 0 -- Audi

23/03/2018 23:10:06 -- 4,995123  -- 0, 0 -- Audi

23/03/2018 23:10:06 -- 5,013407  -- 0, 0 -- Audi

23/03/2018 23:10:06 -- 5,030265  -- 0, 0 -- Audi

23/03/2018 23:10:06 -- 5,047405  -- 0, 0 -- Audi

23/03/2018 23:10:06 -- 5,064846  -- 0, 0 -- Audi

23/03/2018 23:10:06 -- 5,080889  -- 0, 0 -- Audi

23/03/2018 23:10:06 -- 5,097881  -- 0, 0 -- Audi

23/03/2018 23:10:06 -- 5,115124  -- 0, 0 -- Audi

23/03/2018 23:10:06 -- 5,131252  -- 0, 0 -- Audi

23/03/2018 23:10:06 -- 5,149132  -- 0, 0 -- Audi

23/03/2018 23:10:06 -- 5,165777  -- 0, 0 -- Audi

23/03/2018 23:10:06 -- 5,181938  -- 0, 0 -- Audi

23/03/2018 23:10:06 -- 5,198785  -- 0, 0 -- Audi

23/03/2018 23:10:06 -- 5,215816  -- 0, 0 -- Audi

23/03/2018 23:10:06 -- 5,233002  -- 0, 0 -- Audi

23/03/2018 23:10:06 -- 5,249722  -- 0, 0 -- Audi

23/03/2018 23:10:06 -- 5,266703  -- 0, 0 -- Audi

23/03/2018 23:10:06 -- 5,283574  -- 0, 0 -- Audi

23/03/2018 23:10:06 -- 5,300138  -- 0, 0 -- Audi

23/03/2018 23:10:06 -- 5,31709  -- 0, 0 -- Audi

23/03/2018 23:10:06 -- 5,333471  -- 0, 0 -- Audi

23/03/2018 23:10:06 -- 5,350444  -- 0, 0 -- Audi

23/03/2018 23:10:06 -- 5,367274  -- 0, 0 -- Audi

23/03/2018 23:10:06 -- 5,384646  -- 0, 0 -- Audi

23/03/2018 23:10:06 -- 5,400958  -- 0, 0 -- Audi

23/03/2018 23:10:06 -- 5,417968  -- 0, 0 -- Audi

23/03/2018 23:10:06 -- 5,434712  -- 0, 0 -- Audi

23/03/2018 23:10:06 -- 5,451479  -- 0, 0 -- Audi

23/03/2018 23:10:06 -- 5,468441  -- 0, 0 -- Audi

23/03/2018 23:10:06 -- 5,486175  -- 0, 0 -- Audi

23/03/2018 23:10:06 -- 5,50206  -- 0, 0 -- Audi

23/03/2018 23:10:06 -- 5,51885  -- 0, 0 -- Audi

23/03/2018 23:10:06 -- 5,536201  -- 0, 0 -- Audi

23/03/2018 23:10:06 -- 5,55303  -- 0, 0 -- Audi

23/03/2018 23:10:06 -- 5,569541  -- 0, 0 -- Audi

23/03/2018 23:10:06 -- 5,586588  -- 0, 0 -- Audi

23/03/2018 23:10:06 -- 5,603184  -- 0, 0 -- Audi

23/03/2018 23:10:07 -- 5,62008  -- 0, 0 -- Audi

23/03/2018 23:10:07 -- 5,637929  -- 0, 0 -- Audi

23/03/2018 23:10:07 -- 5,6535  -- 0, 0 -- Audi

23/03/2018 23:10:07 -- 5,670619  -- 0, 0 -- Audi

23/03/2018 23:10:07 -- 5,688643  -- 0, 0 -- Audi

23/03/2018 23:10:07 -- 5,7042  -- 0, 0 -- Audi

23/03/2018 23:10:07 -- 5,721279  -- 0, 0 -- Audi

23/03/2018 23:10:07 -- 5,737943  -- 0, 0 -- Audi

23/03/2018 23:10:07 -- 5,754998  -- 0, 0 -- Audi

23/03/2018 23:10:07 -- 5,771571  -- 0, 0 -- Audi

23/03/2018 23:10:07 -- 5,788672  -- 0, 0 -- Audi

23/03/2018 23:10:07 -- 5,805664  -- 0, 0 -- Audi

23/03/2018 23:10:07 -- 5,824573  -- 0, 0 -- Audi

23/03/2018 23:10:07 -- 5,841921  -- 0, 0 -- Audi

23/03/2018 23:10:07 -- 5,858396  -- 0, 0 -- Audi

23/03/2018 23:10:07 -- 5,875004  -- 0, 0 -- Audi

23/03/2018 23:10:07 -- 5,891804  -- 0, 0 -- Audi

23/03/2018 23:10:07 -- 5,909493  -- 0, 0 -- Audi

23/03/2018 23:10:07 -- 5,925714  -- 0, 0 -- Audi

23/03/2018 23:10:07 -- 5,942449  -- 0, 0 -- Audi

23/03/2018 23:10:07 -- 5,959198  -- 0, 0 -- Audi

23/03/2018 23:10:07 -- 5,976022  -- 0, 0 -- Audi

23/03/2018 23:10:07 -- 5,99277  -- 0, 0 -- Audi

23/03/2018 23:10:07 -- 6,009785  -- 0, 0 -- Audi

23/03/2018 23:10:07 -- 6,026889  -- 0, 0 -- Audi

23/03/2018 23:10:07 -- 6,043416  -- 0, 0 -- Audi

23/03/2018 23:10:07 -- 6,060796  -- 0, 0 -- Audi

23/03/2018 23:10:07 -- 6,077128  -- 0, 0 -- Audi

23/03/2018 23:10:07 -- 6,094194  -- 0, 0 -- Audi

23/03/2018 23:10:07 -- 6,11078  -- 0, 0 -- Audi

23/03/2018 23:10:07 -- 6,12838  -- 0, 0 -- Audi

23/03/2018 23:10:07 -- 6,144431  -- 0, 0 -- Audi

23/03/2018 23:10:07 -- 6,162298  -- 0, 0 -- Audi

23/03/2018 23:10:07 -- 6,178237  -- 0, 0 -- Audi

23/03/2018 23:10:07 -- 6,195062  -- 0, 0 -- Audi

23/03/2018 23:10:07 -- 6,211818  -- 0, 0 -- Audi

23/03/2018 23:10:07 -- 6,228799  -- 0, 0 -- Audi

23/03/2018 23:10:07 -- 6,246518  -- 0, 0 -- Audi

23/03/2018 23:10:07 -- 6,262529  -- 0, 0 -- Audi

23/03/2018 23:10:07 -- 6,279262  -- 0, 0 -- Audi

23/03/2018 23:10:07 -- 6,296314  -- 0, 0 -- Audi

23/03/2018 23:10:07 -- 6,313479  -- 0, 0 -- Audi

23/03/2018 23:10:07 -- 6,33014  -- 0, 0 -- Audi

23/03/2018 23:10:07 -- 6,346685  -- 0, 0 -- Audi

23/03/2018 23:10:07 -- 6,363648  -- 0, 0 -- Audi

23/03/2018 23:10:07 -- 6,380565  -- 0, 0 -- Audi

23/03/2018 23:10:07 -- 6,397558  -- 0, 0 -- Audi

23/03/2018 23:10:07 -- 6,414597  -- 0, 0 -- Audi

23/03/2018 23:10:07 -- 6,431526  -- 0, 0 -- Audi

23/03/2018 23:10:07 -- 6,448273  -- 0, 0 -- Audi

23/03/2018 23:10:07 -- 6,465072  -- 0, 0 -- Audi

23/03/2018 23:10:07 -- 6,481439  -- 0, 0 -- Audi

23/03/2018 23:10:07 -- 6,498469  -- 0, 0 -- Audi

23/03/2018 23:10:07 -- 6,515573  -- 0, 0 -- Audi

23/03/2018 23:10:07 -- 6,532062  -- 0, 0 -- Audi

23/03/2018 23:10:07 -- 6,548937  -- 0, 0 -- Audi

23/03/2018 23:10:07 -- 6,566492  -- 0, 0 -- Audi

23/03/2018 23:10:07 -- 6,5828  -- 0, 0 -- Audi

23/03/2018 23:10:07 -- 6,600288  -- 0, 0 -- Audi

23/03/2018 23:10:08 -- 6,616392  -- 0, 0 -- Audi

23/03/2018 23:10:08 -- 6,63372  -- 0, 0 -- Audi

23/03/2018 23:10:08 -- 6,650333  -- 0, 0 -- Audi

23/03/2018 23:10:08 -- 6,666943  -- 0, 0 -- Audi

23/03/2018 23:10:08 -- 6,683791  -- 0, 0 -- Audi

23/03/2018 23:10:08 -- 6,700499  -- 0, 0 -- Audi

23/03/2018 23:10:08 -- 6,717296  -- 0, 0 -- Audi

23/03/2018 23:10:08 -- 6,734377  -- 0, 0 -- Audi

23/03/2018 23:10:08 -- 6,751114  -- 0, 0 -- Audi

23/03/2018 23:10:08 -- 6,767924  -- 0, 0 -- Audi

23/03/2018 23:10:08 -- 6,78471  -- 0, 0 -- Audi

23/03/2018 23:10:08 -- 6,801571  -- 0, 0 -- Audi

23/03/2018 23:10:08 -- 6,818409  -- 0, 0 -- Audi

23/03/2018 23:10:08 -- 6,839433  -- 0, 0 -- Audi

23/03/2018 23:10:08 -- 6,856752  -- 0, 0 -- Audi

23/03/2018 23:10:08 -- 6,872836  -- 0, 0 -- Audi

23/03/2018 23:10:08 -- 6,889901  -- 0, 0 -- Audi

23/03/2018 23:10:08 -- 6,907036  -- 0, 0 -- Audi

23/03/2018 23:10:08 -- 6,923639  -- 0, 0 -- Audi

23/03/2018 23:10:08 -- 6,940605  -- 0, 0 -- Audi

23/03/2018 23:10:08 -- 6,957366  -- 0, 0 -- Audi

23/03/2018 23:10:08 -- 6,974651  -- 0, 0 -- Audi

23/03/2018 23:10:08 -- 6,990856  -- 0, 0 -- Audi

23/03/2018 23:10:08 -- 7,007802  -- 0, 0 -- Audi

23/03/2018 23:10:08 -- 7,024929  -- 0, 0 -- Audi

23/03/2018 23:10:08 -- 7,042045  -- 0, 0 -- Audi

23/03/2018 23:10:08 -- 7,058596  -- 0, 0 -- Audi

23/03/2018 23:10:08 -- 7,07511  -- 0, 0 -- Audi

23/03/2018 23:10:08 -- 7,093994  -- 0, 0 -- Audi

23/03/2018 23:10:08 -- 7,108824  -- 0, 0 -- Audi

23/03/2018 23:10:08 -- 7,125894  -- 0, 0 -- Audi

23/03/2018 23:10:08 -- 7,142553  -- 0, 0 -- Audi

23/03/2018 23:10:08 -- 7,15955  -- 0, 0 -- Audi

23/03/2018 23:10:08 -- 7,17639  -- 0, 0 -- Audi

23/03/2018 23:10:08 -- 7,192921  -- 0, 0 -- Audi

23/03/2018 23:10:08 -- 7,210101  -- 0, 0 -- Audi

23/03/2018 23:10:08 -- 7,226883  -- 0, 0 -- Audi

23/03/2018 23:10:08 -- 7,243721  -- 0, 0 -- Audi

23/03/2018 23:10:08 -- 7,260785  -- 0, 0 -- Audi

23/03/2018 23:10:08 -- 7,277807  -- 0, 0 -- Audi

23/03/2018 23:10:08 -- 7,294116  -- 0, 0 -- Audi

23/03/2018 23:10:08 -- 7,311716  -- 0, 0 -- Audi

23/03/2018 23:10:08 -- 7,328087  -- 0, 0 -- Audi

23/03/2018 23:10:08 -- 7,344705  -- 0, 0 -- Audi

23/03/2018 23:10:08 -- 7,361576  -- 0, 0 -- Audi

23/03/2018 23:10:08 -- 7,378561  -- 0, 0 -- Audi

23/03/2018 23:10:08 -- 7,396065  -- 0, 0 -- Audi

23/03/2018 23:10:08 -- 7,413172  -- 0, 0 -- Audi

23/03/2018 23:10:08 -- 7,429476  -- 0, 0 -- Audi

23/03/2018 23:10:08 -- 7,446483  -- 0, 0 -- Audi

23/03/2018 23:10:08 -- 7,463231  -- 0, 0 -- Audi

23/03/2018 23:10:08 -- 7,480539  -- 0, 0 -- Audi

23/03/2018 23:10:08 -- 7,497018  -- 0, 0 -- Audi

23/03/2018 23:10:08 -- 7,513672  -- 0, 0 -- Audi

23/03/2018 23:10:08 -- 7,530625  -- 0, 0 -- Audi

23/03/2018 23:10:08 -- 7,547551  -- 0, 0 -- Audi

23/03/2018 23:10:08 -- 7,564568  -- 0, 0 -- Audi

23/03/2018 23:10:08 -- 7,581167  -- 0, 0 -- Audi

23/03/2018 23:10:08 -- 7,598587  -- 0, 0 -- Audi

23/03/2018 23:10:08 -- 7,615028  -- 0, 0 -- Audi

23/03/2018 23:10:09 -- 7,631743  -- 0, 0 -- Audi

23/03/2018 23:10:09 -- 7,649217  -- 0, 0 -- Audi

23/03/2018 23:10:09 -- 7,671479  -- 0, 0 -- Audi

23/03/2018 23:10:09 -- 7,68925  -- 0, 0 -- Audi

23/03/2018 23:10:09 -- 7,705709  -- 0, 0 -- Audi

23/03/2018 23:10:09 -- 7,722003  -- 0, 0 -- Audi

23/03/2018 23:10:09 -- 7,738811  -- 0, 0 -- Audi

23/03/2018 23:10:09 -- 7,755964  -- 0, 0 -- Audi

23/03/2018 23:10:09 -- 7,772317  -- 0, 0 -- Audi

23/03/2018 23:10:09 -- 7,789568  -- 0, 0 -- Audi

23/03/2018 23:10:09 -- 7,807347  -- 0, 0 -- Audi

23/03/2018 23:10:09 -- 7,823148  -- 0, 0 -- Audi

23/03/2018 23:10:09 -- 7,840086  -- 0, 0 -- Audi

23/03/2018 23:10:09 -- 7,857128  -- 0, 0 -- Audi

23/03/2018 23:10:09 -- 7,873718  -- 0, 0 -- Audi

23/03/2018 23:10:09 -- 7,891054  -- 0, 0 -- Audi

23/03/2018 23:10:09 -- 7,907296  -- 0, 0 -- Audi

23/03/2018 23:10:09 -- 7,924334  -- 0, 0 -- Audi

23/03/2018 23:10:09 -- 7,941356  -- 0, 0 -- Audi

23/03/2018 23:10:09 -- 7,957922  -- 0, 0 -- Audi

23/03/2018 23:10:09 -- 7,974792  -- 0, 0 -- Audi

23/03/2018 23:10:09 -- 7,991712  -- 0, 0 -- Audi

23/03/2018 23:10:09 -- 8,008613  -- 0, 0 -- Audi

23/03/2018 23:10:09 -- 8,025872  -- 0, 0 -- Audi

23/03/2018 23:10:09 -- 8,042324  -- 0, 0 -- Audi

23/03/2018 23:10:09 -- 8,059067  -- 0, 0 -- Audi

23/03/2018 23:10:09 -- 8,076416  -- 0, 0 -- Audi

23/03/2018 23:10:09 -- 8,093103  -- 0, 0 -- Audi

23/03/2018 23:10:09 -- 8,109885  -- 0, 0 -- Audi

23/03/2018 23:10:09 -- 8,126291  -- 0, 0 -- Audi

23/03/2018 23:10:09 -- 8,143141  -- 0, 0 -- Audi

23/03/2018 23:10:09 -- 8,159981  -- 0, 0 -- Audi

23/03/2018 23:10:09 -- 8,177063  -- 0, 0 -- Audi

23/03/2018 23:10:09 -- 8,193635  -- 0, 0 -- Audi

23/03/2018 23:10:09 -- 8,210505  -- 0, 0 -- Audi

23/03/2018 23:10:09 -- 8,227336  -- 0, 0 -- Audi

23/03/2018 23:10:09 -- 8,244516  -- 0, 0 -- Audi

23/03/2018 23:10:09 -- 8,261074  -- 0, 0 -- Audi

23/03/2018 23:10:09 -- 8,277948  -- 0, 0 -- Audi

23/03/2018 23:10:09 -- 8,294827  -- 0, 0 -- Audi

23/03/2018 23:10:09 -- 8,311499  -- 0, 0 -- Audi

23/03/2018 23:10:09 -- 8,328537  -- 0, 0 -- Audi

23/03/2018 23:10:09 -- 8,34528  -- 0, 0 -- Audi

23/03/2018 23:10:09 -- 8,362181  -- 0, 0 -- Audi

23/03/2018 23:10:09 -- 8,379121  -- 0, 0 -- Audi

23/03/2018 23:10:09 -- 8,395857  -- 0, 0 -- Audi

23/03/2018 23:10:09 -- 8,412916  -- 0, 0 -- Audi

23/03/2018 23:10:09 -- 8,430082  -- 0, 0 -- Audi

23/03/2018 23:10:09 -- 8,446372  -- 0, 0 -- Audi

23/03/2018 23:10:09 -- 8,463507  -- 0, 0 -- Audi

23/03/2018 23:10:09 -- 8,480352  -- 0, 0 -- Audi

23/03/2018 23:10:09 -- 8,497736  -- 0, 0 -- Audi

23/03/2018 23:10:09 -- 8,513765  -- 0, 0 -- Audi

23/03/2018 23:10:09 -- 8,53068  -- 0, 0 -- Audi

23/03/2018 23:10:09 -- 8,547515  -- 0, 0 -- Audi

23/03/2018 23:10:09 -- 8,565317  -- 0, 0 -- Audi

23/03/2018 23:10:09 -- 8,581253  -- 0, 0 -- Audi

23/03/2018 23:10:09 -- 8,598088  -- 0, 0 -- Audi

23/03/2018 23:10:09 -- 8,61513  -- 0, 0 -- Audi

23/03/2018 23:10:10 -- 8,63163  -- 0, 0 -- Audi

23/03/2018 23:10:10 -- 8,648716  -- 0, 0 -- Audi

23/03/2018 23:10:10 -- 8,666148  -- 0, 0 -- Audi

23/03/2018 23:10:10 -- 8,685243  -- 0, 0 -- Audi

23/03/2018 23:10:10 -- 8,701782  -- 0, 0 -- Audi

23/03/2018 23:10:10 -- 8,718636  -- 0, 0 -- Audi

23/03/2018 23:10:10 -- 8,736275  -- 0, 0 -- Audi

23/03/2018 23:10:10 -- 8,75201  -- 0, 0 -- Audi

23/03/2018 23:10:10 -- 8,769078  -- 0, 0 -- Audi

23/03/2018 23:10:10 -- 8,785949  -- 0, 0 -- Audi

23/03/2018 23:10:10 -- 8,802949  -- 0, 0 -- Audi

23/03/2018 23:10:10 -- 8,819527  -- 0, 0 -- Audi

23/03/2018 23:10:10 -- 8,836403  -- 0, 0 -- Audi

23/03/2018 23:10:10 -- 8,853293  -- 0, 0 -- Audi

23/03/2018 23:10:10 -- 8,870212  -- 0, 0 -- Audi

23/03/2018 23:10:10 -- 8,887129  -- 0, 0 -- Audi

23/03/2018 23:10:10 -- 8,904061  -- 0, 0 -- Audi

23/03/2018 23:10:10 -- 8,920669  -- 0, 0 -- Audi

23/03/2018 23:10:10 -- 8,937525  -- 0, 0 -- Audi

23/03/2018 23:10:10 -- 8,954215  -- 0, 0 -- Audi

23/03/2018 23:10:10 -- 8,971381  -- 0, 0 -- Audi

23/03/2018 23:10:10 -- 8,988041  -- 0, 0 -- Audi

23/03/2018 23:10:10 -- 9,004923  -- 0, 0 -- Audi

23/03/2018 23:10:10 -- 9,021801  -- 0, 0 -- Audi

23/03/2018 23:10:10 -- 9,038677  -- 0, 0 -- Audi

23/03/2018 23:10:10 -- 9,055666  -- 0, 0 -- Audi

23/03/2018 23:10:10 -- 9,072386  -- 0, 0 -- Audi

23/03/2018 23:10:10 -- 9,089571  -- 0, 0 -- Audi

23/03/2018 23:10:10 -- 9,10614  -- 0, 0 -- Audi

23/03/2018 23:10:10 -- 9,123279  -- 0, 0 -- Audi

23/03/2018 23:10:10 -- 9,139892  -- 0, 0 -- Audi

23/03/2018 23:10:10 -- 9,156579  -- 0, 0 -- Audi

23/03/2018 23:10:10 -- 9,174606  -- 0, 0 -- Audi

23/03/2018 23:10:10 -- 9,19032  -- 0, 0 -- Audi

23/03/2018 23:10:10 -- 9,207149  -- 0, 0 -- Audi

23/03/2018 23:10:10 -- 9,224165  -- 0, 0 -- Audi

23/03/2018 23:10:10 -- 9,241036  -- 0, 0 -- Audi

23/03/2018 23:10:10 -- 9,258458  -- 0, 0 -- Audi

23/03/2018 23:10:10 -- 9,274525  -- 0, 0 -- Audi

23/03/2018 23:10:10 -- 9,292531  -- 0, 0 -- Audi

23/03/2018 23:10:10 -- 9,308367  -- 0, 0 -- Audi

23/03/2018 23:10:10 -- 9,326198  -- 0, 0 -- Audi

23/03/2018 23:10:10 -- 9,341905  -- 0, 0 -- Audi

23/03/2018 23:10:10 -- 9,359338  -- 0, 0 -- Audi

23/03/2018 23:10:10 -- 9,37592  -- 0, 0 -- Audi

23/03/2018 23:10:10 -- 9,392302  -- 0, 0 -- Audi

23/03/2018 23:10:10 -- 9,409491  -- 0, 0 -- Audi

23/03/2018 23:10:10 -- 9,426718  -- 0, 0 -- Audi

23/03/2018 23:10:10 -- 9,443193  -- 0, 0 -- Audi

23/03/2018 23:10:10 -- 9,45993  -- 0, 0 -- Audi

23/03/2018 23:10:10 -- 9,476768  -- 0, 0 -- Audi

23/03/2018 23:10:10 -- 9,49363  -- 0, 0 -- Audi

23/03/2018 23:10:10 -- 9,510504  -- 0, 0 -- Audi

23/03/2018 23:10:10 -- 9,527456  -- 0, 0 -- Audi

23/03/2018 23:10:10 -- 9,544069  -- 0, 0 -- Audi

23/03/2018 23:10:10 -- 9,561199  -- 0, 0 -- Audi

23/03/2018 23:10:10 -- 9,57793  -- 0, 0 -- Audi

23/03/2018 23:10:10 -- 9,59472  -- 0, 0 -- Audi

23/03/2018 23:10:10 -- 9,611397  -- 0, 0 -- Audi

23/03/2018 23:10:11 -- 9,628841  -- 0, 0 -- Audi

23/03/2018 23:10:11 -- 9,646007  -- 0, 0 -- Audi

23/03/2018 23:10:11 -- 9,662045  -- 0, 0 -- Audi

23/03/2018 23:10:11 -- 9,678881  -- 0, 0 -- Audi

23/03/2018 23:10:11 -- 9,697209  -- 0, 0 -- Audi

23/03/2018 23:10:11 -- 9,71391  -- 0, 0 -- Audi

23/03/2018 23:10:11 -- 9,730822  -- 0, 0 -- Audi

23/03/2018 23:10:11 -- 9,747692  -- 0, 0 -- Audi

23/03/2018 23:10:11 -- 9,765831  -- 0, 0 -- Audi

23/03/2018 23:10:11 -- 9,781853  -- 0, 0 -- Audi

23/03/2018 23:10:11 -- 9,798335  -- 0, 0 -- Audi

23/03/2018 23:10:11 -- 9,815452  -- 0, 0 -- Audi

23/03/2018 23:10:11 -- 9,831858  -- 0, 0 -- Audi

23/03/2018 23:10:11 -- 9,84937  -- 0, 0 -- Audi

23/03/2018 23:10:11 -- 9,865824  -- 0, 0 -- Audi

23/03/2018 23:10:11 -- 9,882797  -- 0, 0 -- Audi

23/03/2018 23:10:11 -- 9,899666  -- 0, 0 -- Audi

23/03/2018 23:10:11 -- 9,916328  -- 0, 0 -- Audi

23/03/2018 23:10:11 -- 9,932954  -- 0, 0 -- Audi

23/03/2018 23:10:11 -- 9,949905  -- 0, 0 -- Audi

23/03/2018 23:10:11 -- 9,96682  -- 0, 0 -- Audi

23/03/2018 23:10:11 -- 9,983711  -- 0, 0 -- Audi

23/03/2018 23:10:11 -- 10,00056  -- 0, 0 -- Audi

23/03/2018 23:10:11 -- 10,01748  -- 0, 0 -- Audi

23/03/2018 23:10:11 -- 10,03401  -- 0, 0 -- Audi

23/03/2018 23:10:11 -- 10,0522  -- 0, 0 -- Audi

23/03/2018 23:10:11 -- 10,06784  -- 0, 0 -- Audi

23/03/2018 23:10:11 -- 10,08489  -- 0, 0 -- Audi

23/03/2018 23:10:11 -- 10,10184  -- 0, 0 -- Audi

23/03/2018 23:10:11 -- 10,11878  -- 0, 0 -- Audi

23/03/2018 23:10:11 -- 10,13562  -- 0, 0 -- Audi

23/03/2018 23:10:11 -- 10,1519  -- 0, 0 -- Audi

23/03/2018 23:10:11 -- 10,16904  -- 0, 0 -- Audi

23/03/2018 23:10:11 -- 10,18578  -- 0, 0 -- Audi

23/03/2018 23:10:11 -- 10,20271  -- 0, 0 -- Audi

23/03/2018 23:10:11 -- 10,21984  -- 0, 0 -- Audi

23/03/2018 23:10:11 -- 10,23631  -- 0, 0 -- Audi

23/03/2018 23:10:11 -- 10,25323  -- 0, 0 -- Audi

23/03/2018 23:10:11 -- 10,27016  -- 0, 0 -- Audi

23/03/2018 23:10:11 -- 10,28685  -- 0, 0 -- Audi

23/03/2018 23:10:11 -- 10,30373  -- 0, 0 -- Audi

23/03/2018 23:10:11 -- 10,32084  -- 0, 0 -- Audi

23/03/2018 23:10:11 -- 10,33833  -- 0, 0 -- Audi

23/03/2018 23:10:11 -- 10,35411  -- 0, 0 -- Audi

23/03/2018 23:10:11 -- 10,37206  -- 0, 0 -- Audi

23/03/2018 23:10:11 -- 10,38838  -- 0, 0 -- Audi

23/03/2018 23:10:11 -- 10,40483  -- 0, 0 -- Audi

23/03/2018 23:10:11 -- 10,42165  -- 0, 0 -- Audi

23/03/2018 23:10:11 -- 10,43845  -- 0, 0 -- Audi

23/03/2018 23:10:11 -- 10,45534  -- 0, 0 -- Audi

23/03/2018 23:10:11 -- 10,47205  -- 0, 0 -- Audi

23/03/2018 23:10:11 -- 10,48947  -- 0, 0 -- Audi

23/03/2018 23:10:11 -- 10,50619  -- 0, 0 -- Audi

23/03/2018 23:10:11 -- 10,52274  -- 0, 0 -- Audi

23/03/2018 23:10:11 -- 10,53962  -- 0, 0 -- Audi

23/03/2018 23:10:11 -- 10,55645  -- 0, 0 -- Audi

23/03/2018 23:10:11 -- 10,57324  -- 0, 0 -- Audi

23/03/2018 23:10:11 -- 10,59097  -- 0, 0 -- Audi

23/03/2018 23:10:11 -- 10,60711  -- 0, 0 -- Audi

23/03/2018 23:10:12 -- 10,6239  -- 0, 0 -- Audi

23/03/2018 23:10:12 -- 10,64073  -- 0, 0 -- Audi

23/03/2018 23:10:12 -- 10,65755  -- 0, 0 -- Audi

23/03/2018 23:10:12 -- 10,67424  -- 0, 0 -- Audi

23/03/2018 23:10:12 -- 10,69148  -- 0, 0 -- Audi

23/03/2018 23:10:12 -- 10,70929  -- 0, 0 -- Audi

23/03/2018 23:10:12 -- 10,72657  -- 0, 0 -- Audi

23/03/2018 23:10:12 -- 10,74303  -- 0, 0 -- Audi

23/03/2018 23:10:12 -- 10,75976  -- 0, 0 -- Audi

23/03/2018 23:10:12 -- 10,77712  -- 0, 0 -- Audi

23/03/2018 23:10:12 -- 10,79343  -- 0, 0 -- Audi

23/03/2018 23:10:12 -- 10,81121  -- 0, 0 -- Audi

23/03/2018 23:10:12 -- 10,82706  -- 0, 0 -- Audi

23/03/2018 23:10:12 -- 10,84443  -- 0, 0 -- Audi

23/03/2018 23:10:12 -- 10,86121  -- 0, 0 -- Audi

23/03/2018 23:10:12 -- 10,87781  -- 0, 0 -- Audi

23/03/2018 23:10:12 -- 10,89465  -- 0, 0 -- Audi

23/03/2018 23:10:12 -- 10,91202  -- 0, 0 -- Audi

23/03/2018 23:10:12 -- 10,92857  -- 0, 0 -- Audi

23/03/2018 23:10:12 -- 10,94554  -- 0, 0 -- Audi

23/03/2018 23:10:12 -- 10,96189  -- 0, 0 -- Audi

23/03/2018 23:10:12 -- 10,97891  -- 0, 0 -- Audi

23/03/2018 23:10:12 -- 10,99576  -- 0, 0 -- Audi

23/03/2018 23:10:12 -- 11,01269  -- 0, 0 -- Audi

23/03/2018 23:10:12 -- 11,0297  -- 0, 0 -- Audi

23/03/2018 23:10:12 -- 11,04638  -- 0, 0 -- Audi

23/03/2018 23:10:12 -- 11,06303  -- 0, 0 -- Audi

23/03/2018 23:10:12 -- 11,08011  -- 0, 0 -- Audi

23/03/2018 23:10:12 -- 11,09691  -- 0, 0 -- Audi

23/03/2018 23:10:12 -- 11,11364  -- 0, 0 -- Audi

23/03/2018 23:10:12 -- 11,1307  -- 0, 0 -- Audi

23/03/2018 23:10:12 -- 11,14729  -- 0, 0 -- Audi

23/03/2018 23:10:12 -- 11,16409  -- 0, 0 -- Audi

23/03/2018 23:10:12 -- 11,18109  -- 0, 0 -- Audi

23/03/2018 23:10:12 -- 11,19776  -- 0, 0 -- Audi

23/03/2018 23:10:12 -- 11,21558  -- 0, 0 -- Audi

23/03/2018 23:10:12 -- 11,23168  -- 0, 0 -- Audi

23/03/2018 23:10:12 -- 11,24832  -- 0, 0 -- Audi

23/03/2018 23:10:12 -- 11,26593  -- 0, 0 -- Audi

23/03/2018 23:10:12 -- 11,28212  -- 0, 0 -- Audi

23/03/2018 23:10:12 -- 11,29886  -- 0, 0 -- Audi

23/03/2018 23:10:12 -- 11,31635  -- 0, 0 -- Audi

23/03/2018 23:10:12 -- 11,33274  -- 0, 0 -- Audi

23/03/2018 23:10:12 -- 11,34949  -- 0, 0 -- Audi

23/03/2018 23:10:12 -- 11,36639  -- 0, 0 -- Audi

23/03/2018 23:10:12 -- 11,384  -- 0, 0 -- Audi

23/03/2018 23:10:12 -- 11,39992  -- 0, 0 -- Audi

23/03/2018 23:10:12 -- 11,41682  -- 0, 0 -- Audi

23/03/2018 23:10:12 -- 11,43396  -- 0, 0 -- Audi

23/03/2018 23:10:12 -- 11,45073  -- 0, 0 -- Audi

23/03/2018 23:10:12 -- 11,46758  -- 0, 0 -- Audi

23/03/2018 23:10:12 -- 11,48425  -- 0, 0 -- Audi

23/03/2018 23:10:12 -- 11,50145  -- 0, 0 -- Audi

23/03/2018 23:10:12 -- 11,51855  -- 0, 0 -- Audi

23/03/2018 23:10:12 -- 11,53502  -- 0, 0 -- Audi

23/03/2018 23:10:12 -- 11,55151  -- 0, 0 -- Audi

23/03/2018 23:10:12 -- 11,56858  -- 0, 0 -- Audi

23/03/2018 23:10:12 -- 11,58554  -- 0, 0 -- Audi

23/03/2018 23:10:12 -- 11,60212  -- 0, 0 -- Audi

23/03/2018 23:10:13 -- 11,6198  -- 0, 0 -- Audi

23/03/2018 23:10:13 -- 11,63608  -- 0, 0 -- Audi

23/03/2018 23:10:13 -- 11,65254  -- 0, 0 -- Audi

23/03/2018 23:10:13 -- 11,66993  -- 0, 0 -- Audi

23/03/2018 23:10:13 -- 11,68647  -- 0, 0 -- Audi

23/03/2018 23:10:13 -- 11,70325  -- 0, 0 -- Audi

23/03/2018 23:10:13 -- 11,72291  -- 0, 0 -- Audi

23/03/2018 23:10:13 -- 11,73942  -- 0, 0 -- Audi

23/03/2018 23:10:13 -- 11,75691  -- 0, 0 -- Audi

23/03/2018 23:10:13 -- 11,77283  -- 0, 0 -- Audi

23/03/2018 23:10:13 -- 11,79033  -- 0, 0 -- Audi

23/03/2018 23:10:13 -- 11,80712  -- 0, 0 -- Audi

23/03/2018 23:10:13 -- 11,82354  -- 0, 0 -- Audi

23/03/2018 23:10:13 -- 11,84062  -- 0, 0 -- Audi

23/03/2018 23:10:13 -- 11,85742  -- 0, 0 -- Audi

23/03/2018 23:10:13 -- 11,87394  -- 0, 0 -- Audi

23/03/2018 23:10:13 -- 11,89093  -- 0, 0 -- Audi

23/03/2018 23:10:13 -- 11,90797  -- 0, 0 -- Audi

23/03/2018 23:10:13 -- 11,92522  -- 0, 0 -- Audi

23/03/2018 23:10:13 -- 11,94152  -- 0, 0 -- Audi

23/03/2018 23:10:13 -- 11,95839  -- 0, 0 -- Audi

23/03/2018 23:10:13 -- 11,97552  -- 0, 0 -- Audi

23/03/2018 23:10:13 -- 11,99245  -- 0, 0 -- Audi

23/03/2018 23:10:13 -- 12,00919  -- 0, 0 -- Audi

23/03/2018 23:10:13 -- 12,02578  -- 0, 0 -- Audi

23/03/2018 23:10:13 -- 12,04274  -- 0, 0 -- Audi

23/03/2018 23:10:13 -- 12,05984  -- 0, 0 -- Audi

23/03/2018 23:10:13 -- 12,07643  -- 0, 0 -- Audi

23/03/2018 23:10:13 -- 12,09386  -- 0, 0 -- Audi

23/03/2018 23:10:13 -- 12,11  -- 0, 0 -- Audi

23/03/2018 23:10:13 -- 12,12714  -- 0, 0 -- Audi

23/03/2018 23:10:13 -- 12,14369  -- 0, 0 -- Audi

23/03/2018 23:10:13 -- 12,16099  -- 0, 0 -- Audi

23/03/2018 23:10:13 -- 12,17764  -- 0, 0 -- Audi

23/03/2018 23:10:13 -- 12,19418  -- 0, 0 -- Audi

23/03/2018 23:10:13 -- 12,21113  -- 0, 0 -- Audi

23/03/2018 23:10:13 -- 12,22798  -- 0, 0 -- Audi

23/03/2018 23:10:13 -- 12,24513  -- 0, 0 -- Audi

23/03/2018 23:10:13 -- 12,26192  -- 0, 0 -- Audi

23/03/2018 23:10:13 -- 12,27864  -- 0, 0 -- Audi

23/03/2018 23:10:13 -- 12,29552  -- 0, 0 -- Audi

23/03/2018 23:10:13 -- 12,31281  -- 0, 0 -- Audi

23/03/2018 23:10:13 -- 12,32979  -- 0, 0 -- Audi

23/03/2018 23:10:13 -- 12,34688  -- 0, 0 -- Audi

23/03/2018 23:10:13 -- 12,3635  -- 0, 0 -- Audi

23/03/2018 23:10:13 -- 12,38004  -- 0, 0 -- Audi

23/03/2018 23:10:13 -- 12,3969  -- 0, 0 -- Audi

23/03/2018 23:10:13 -- 12,41363  -- 0, 0 -- Audi

23/03/2018 23:10:13 -- 12,43027  -- 0, 0 -- Audi

23/03/2018 23:10:13 -- 12,44739  -- 0, 0 -- Audi

23/03/2018 23:10:13 -- 12,46387  -- 0, 0 -- Audi

23/03/2018 23:10:13 -- 12,48087  -- 0, 0 -- Audi

23/03/2018 23:10:13 -- 12,498  -- 0, 0 -- Audi

23/03/2018 23:10:13 -- 12,52263  -- 0, 0 -- Audi

23/03/2018 23:10:13 -- 12,54659  -- 0, 0 -- Audi

23/03/2018 23:10:13 -- 12,56343  -- 0, 0 -- Audi

23/03/2018 23:10:13 -- 12,58015  -- 0, 0 -- Audi

23/03/2018 23:10:13 -- 12,59699  -- 0, 0 -- Audi

23/03/2018 23:10:13 -- 12,61368  -- 0, 0 -- Audi

23/03/2018 23:10:14 -- 12,63045  -- 0, 0 -- Audi

23/03/2018 23:10:14 -- 12,64797  -- 0, 0 -- Audi

23/03/2018 23:10:14 -- 12,66444  -- 0, 0 -- Audi

23/03/2018 23:10:14 -- 12,68168  -- 0, 0 -- Audi

23/03/2018 23:10:14 -- 12,69871  -- 0, 0 -- Audi

23/03/2018 23:10:14 -- 12,71588  -- 0, 0 -- Audi

23/03/2018 23:10:14 -- 12,73227  -- 0, 0 -- Audi

23/03/2018 23:10:14 -- 12,75809  -- 0, 0 -- Audi

23/03/2018 23:10:14 -- 12,77484  -- 0, 0 -- Audi

23/03/2018 23:10:14 -- 12,79148  -- 0, 0 -- Audi

23/03/2018 23:10:14 -- 12,80839  -- 0, 0 -- Audi

23/03/2018 23:10:14 -- 12,82516  -- 0, 0 -- Audi

23/03/2018 23:10:14 -- 12,85805  -- 0, 0 -- Audi

23/03/2018 23:10:18 -- 17,16092  -- 0, 0 -- Audi

23/03/2018 23:10:20 -- 18,89765  -- 0, 0 -- Audi

23/03/2018 23:10:20 -- 18,91665  -- 0, 0 -- Audi

23/03/2018 23:10:20 -- 18,94295  -- 0, 0 -- Audi

23/03/2018 23:10:20 -- 18,96433  -- 0, 0 -- Audi

23/03/2018 23:10:20 -- 18,9812  -- 0, 0 -- Audi

23/03/2018 23:10:20 -- 18,99822  -- 0, 0 -- Audi

23/03/2018 23:10:20 -- 19,01496  -- 0, 0 -- Audi

23/03/2018 23:10:20 -- 19,03183  -- 0, 0 -- Audi

23/03/2018 23:10:20 -- 19,05315  -- 0, 0 -- Audi

23/03/2018 23:10:20 -- 19,07032  -- 0, 0 -- Audi

23/03/2018 23:10:20 -- 19,08847  -- 0, 0 -- Audi

23/03/2018 23:10:20 -- 19,56844  -- 0, 0 -- Audi

23/03/2018 23:10:21 -- 19,69158  -- 0, 0 -- Audi

23/03/2018 23:10:21 -- 19,75578  -- 0, 0 -- Audi

23/03/2018 23:10:21 -- 19,77255  -- 0, 0 -- Audi

23/03/2018 23:10:21 -- 19,80949  -- 0, 0 -- Audi

23/03/2018 23:10:21 -- 19,83213  -- 0, 0 -- Audi

23/03/2018 23:10:21 -- 19,86992  -- 0, 0 -- Audi

23/03/2018 23:10:21 -- 19,88736  -- 0, 0 -- Audi

23/03/2018 23:10:21 -- 19,90553  -- 0, 0 -- Audi

23/03/2018 23:10:21 -- 19,92749  -- 0, 0 -- Audi

23/03/2018 23:10:21 -- 19,94443  -- 0, 0 -- Audi

23/03/2018 23:10:21 -- 19,99417  -- 0, 0 -- Audi

23/03/2018 23:10:21 -- 20,01837  -- 0, 0 -- Audi

23/03/2018 23:10:21 -- 20,04507  -- 0, 0 -- Audi

23/03/2018 23:10:21 -- 20,06747  -- 0, 0 -- Audi

23/03/2018 23:10:21 -- 20,09026  -- 0, 0 -- Audi

23/03/2018 23:10:21 -- 20,10734  -- 0, 0 -- Audi

23/03/2018 23:10:21 -- 20,12386  -- 0, 0 -- Audi

23/03/2018 23:10:21 -- 20,14331  -- 0, 0 -- Audi

23/03/2018 23:10:21 -- 20,18789  -- 0, 0 -- Audi

23/03/2018 23:10:21 -- 20,21673  -- 0, 0 -- Audi

23/03/2018 23:10:21 -- 20,24232  -- 0, 0 -- Audi

23/03/2018 23:10:21 -- 20,27611  -- 0, 0 -- Audi

23/03/2018 23:10:21 -- 20,29318  -- 0, 0 -- Audi

23/03/2018 23:10:21 -- 20,31404  -- 0, 0 -- Audi

23/03/2018 23:10:21 -- 20,33184  -- 0, 0 -- Audi

23/03/2018 23:10:21 -- 20,36505  -- 0, 0 -- Audi

23/03/2018 23:10:21 -- 20,38902  -- 0, 0 -- Audi

23/03/2018 23:10:21 -- 20,41077  -- 0, 0 -- Audi

23/03/2018 23:10:21 -- 20,44223  -- 0, 0 -- Audi

23/03/2018 23:10:21 -- 20,47212  -- 0, 0 -- Audi

23/03/2018 23:10:21 -- 20,48922  -- 0, 0 -- Audi

23/03/2018 23:10:21 -- 20,50655  -- 0, 0 -- Audi

23/03/2018 23:10:21 -- 20,52751  -- 0, 0 -- Audi

23/03/2018 23:10:21 -- 20,54483  -- 0, 0 -- Audi

23/03/2018 23:10:21 -- 20,56157  -- 0, 0 -- Audi

23/03/2018 23:10:21 -- 20,5781  -- 0, 0 -- Audi

23/03/2018 23:10:21 -- 20,59509  -- 0, 0 -- Audi

23/03/2018 23:10:21 -- 20,61163  -- 0, 0 -- Audi

23/03/2018 23:10:22 -- 20,62877  -- 0, 0 -- Audi

23/03/2018 23:10:22 -- 20,64618  -- 0, 0 -- Audi

23/03/2018 23:10:22 -- 20,66252  -- 0, 0 -- Audi

23/03/2018 23:10:22 -- 20,68376  -- 0, 0 -- Audi

23/03/2018 23:10:22 -- 20,70058  -- 0, 0 -- Audi

23/03/2018 23:10:22 -- 20,71732  -- 0, 0 -- Audi

23/03/2018 23:10:22 -- 20,73407  -- 0, 0 -- Audi

23/03/2018 23:10:22 -- 20,75113  -- 0, 0 -- Audi

23/03/2018 23:10:22 -- 20,76776  -- 0, 0 -- Audi

23/03/2018 23:10:22 -- 20,78464  -- 0, 0 -- Audi

23/03/2018 23:10:22 -- 20,80148  -- 0, 0 -- Audi

23/03/2018 23:10:22 -- 20,81856  -- 0, 0 -- Audi

23/03/2018 23:10:22 -- 20,836  -- 0, 0 -- Audi

23/03/2018 23:10:22 -- 20,85198  -- 0, 0 -- Audi

23/03/2018 23:10:22 -- 20,86896  -- 0, 0 -- Audi

23/03/2018 23:10:22 -- 20,88589  -- 0, 0 -- Audi

23/03/2018 23:10:22 -- 20,90283  -- 0, 0 -- Audi

23/03/2018 23:10:22 -- 20,91942  -- 0, 0 -- Audi

23/03/2018 23:10:22 -- 20,93631  -- 0, 0 -- Audi

23/03/2018 23:10:22 -- 20,95324  -- 0, 0 -- Audi

23/03/2018 23:10:22 -- 20,9699  -- 0, 0 -- Audi

23/03/2018 23:10:22 -- 20,98711  -- 0, 0 -- Audi

23/03/2018 23:10:22 -- 21,00363  -- 0, 0 -- Audi

23/03/2018 23:10:22 -- 21,02072  -- 0, 0 -- Audi

23/03/2018 23:10:22 -- 21,03871  -- 0, 0 -- Audi

23/03/2018 23:10:22 -- 21,08636  -- 0, 0 -- Audi

23/03/2018 23:10:22 -- 21,10902  -- 0, 0 -- Audi

23/03/2018 23:10:22 -- 21,12779  -- 0, 0 -- Audi

23/03/2018 23:10:22 -- 21,14622  -- 0, 0 -- Audi

23/03/2018 23:10:22 -- 21,16119  -- 0, 0 -- Audi

23/03/2018 23:10:22 -- 21,17812  -- 0, 0 -- Audi

23/03/2018 23:10:22 -- 21,19537  -- 0, 0 -- Audi

23/03/2018 23:10:22 -- 21,21185  -- 0, 0 -- Audi

23/03/2018 23:10:22 -- 21,22929  -- 0, 0 -- Audi

23/03/2018 23:10:22 -- 21,24612  -- 0, 0 -- Audi

23/03/2018 23:10:22 -- 21,26277  -- 0, 0 -- Audi

23/03/2018 23:10:22 -- 21,27975  -- 0, 0 -- Audi

23/03/2018 23:10:22 -- 21,29648  -- 0, 0 -- Audi

23/03/2018 23:10:22 -- 21,3175  -- 0, 0 -- Audi

23/03/2018 23:10:22 -- 21,36741  -- 0, 0 -- Audi

23/03/2018 23:10:26 -- 25,23334  -- 0, 0 -- Audi

23/03/2018 23:10:27 -- 26,57886  -- 0, 0 -- Audi

23/03/2018 23:10:27 -- 26,60294  -- 0, 0 -- Audi

23/03/2018 23:10:28 -- 26,63777  -- 0, 0 -- Audi

23/03/2018 23:10:28 -- 26,65442  -- 0, 0 -- Audi

23/03/2018 23:10:28 -- 26,67138  -- 0, 0 -- Audi

23/03/2018 23:10:28 -- 26,68804  -- 0, 0 -- Audi

23/03/2018 23:10:28 -- 26,70505  -- 0, 0 -- Audi

23/03/2018 23:10:28 -- 26,72196  -- 0, 0 -- Audi

23/03/2018 23:10:28 -- 26,7433  -- 0, 0 -- Audi

23/03/2018 23:10:28 -- 26,76046  -- 0, 0 -- Audi

23/03/2018 23:10:28 -- 26,77735  -- 0, 0 -- Audi

23/03/2018 23:10:28 -- 26,79395  -- 0, 0 -- Audi

23/03/2018 23:10:28 -- 26,82421  -- 0, 0 -- Audi

23/03/2018 23:10:28 -- 26,84116  -- 0, 0 -- Audi

23/03/2018 23:10:28 -- 26,85823  -- 0, 0 -- Audi

23/03/2018 23:10:28 -- 26,87505  -- 0, 0 -- Audi

23/03/2018 23:10:28 -- 26,89159  -- 0, 0 -- Audi

23/03/2018 23:10:28 -- 26,90928  -- 0, 0 -- Audi

23/03/2018 23:10:28 -- 26,92601  -- 0, 0 -- Audi

23/03/2018 23:10:28 -- 26,94345  -- 0, 0 -- Audi

23/03/2018 23:10:28 -- 26,95975  -- 0, 0 -- Audi

23/03/2018 23:10:28 -- 26,97658  -- 0, 0 -- Audi

23/03/2018 23:10:28 -- 26,99405  -- 0, 0 -- Audi

23/03/2018 23:10:28 -- 27,01128  -- 0, 0 -- Audi

23/03/2018 23:10:28 -- 27,03578  -- 0, 0 -- Audi

23/03/2018 23:10:28 -- 27,05837  -- 0, 0 -- Audi

23/03/2018 23:10:28 -- 27,07504  -- 0, 0 -- Audi

23/03/2018 23:10:28 -- 27,0917  -- 0, 0 -- Audi

23/03/2018 23:10:28 -- 27,11587  -- 0, 0 -- Audi

23/03/2018 23:10:28 -- 27,1329  -- 0, 0 -- Audi

23/03/2018 23:10:28 -- 27,15845  -- 0, 0 -- Audi

23/03/2018 23:10:28 -- 27,17627  -- 0, 0 -- Audi

23/03/2018 23:10:28 -- 27,19219  -- 0, 0 -- Audi

23/03/2018 23:10:28 -- 27,20931  -- 0, 0 -- Audi

23/03/2018 23:10:28 -- 27,22595  -- 0, 0 -- Audi

23/03/2018 23:10:28 -- 27,24298  -- 0, 0 -- Audi

23/03/2018 23:10:28 -- 27,26014  -- 0, 0 -- Audi

23/03/2018 23:10:28 -- 27,27682  -- 0, 0 -- Audi

23/03/2018 23:10:28 -- 27,29301  -- 0, 0 -- Audi

23/03/2018 23:10:28 -- 27,31046  -- 0, 0 -- Audi

23/03/2018 23:10:28 -- 27,32704  -- 0, 0 -- Audi

23/03/2018 23:10:28 -- 27,34375  -- 0, 0 -- Audi

23/03/2018 23:10:28 -- 27,3606  -- 0, 0 -- Audi

23/03/2018 23:10:28 -- 27,37758  -- 0, 0 -- Audi

23/03/2018 23:10:28 -- 27,3945  -- 0, 0 -- Audi

23/03/2018 23:10:28 -- 27,41097  -- 0, 0 -- Audi

23/03/2018 23:10:28 -- 27,42844  -- 0, 0 -- Audi

23/03/2018 23:10:28 -- 27,445  -- 0, 0 -- Audi

23/03/2018 23:10:28 -- 27,4624  -- 0, 0 -- Audi

23/03/2018 23:10:28 -- 27,47855  -- 0, 0 -- Audi

23/03/2018 23:10:28 -- 27,49659  -- 0, 0 -- Audi

23/03/2018 23:10:28 -- 27,51293  -- 0, 0 -- Audi

23/03/2018 23:10:28 -- 27,52964  -- 0, 0 -- Audi

23/03/2018 23:10:28 -- 27,54629  -- 0, 0 -- Audi

23/03/2018 23:10:28 -- 27,56292  -- 0, 0 -- Audi

23/03/2018 23:10:28 -- 27,58005  -- 0, 0 -- Audi

23/03/2018 23:10:28 -- 27,59687  -- 0, 0 -- Audi

23/03/2018 23:10:28 -- 27,61336  -- 0, 0 -- Audi

23/03/2018 23:10:29 -- 27,63216  -- 0, 0 -- Audi

23/03/2018 23:10:29 -- 27,64799  -- 0, 0 -- Audi

23/03/2018 23:10:29 -- 27,66631  -- 0, 0 -- Audi

23/03/2018 23:10:29 -- 27,68382  -- 0, 0 -- Audi

23/03/2018 23:10:29 -- 27,69997  -- 0, 0 -- Audi

23/03/2018 23:10:29 -- 27,71689  -- 0, 0 -- Audi

23/03/2018 23:10:29 -- 27,73396  -- 0, 0 -- Audi

23/03/2018 23:10:29 -- 27,7504  -- 0, 0 -- Audi

23/03/2018 23:10:29 -- 27,76729  -- 0, 0 -- Audi

23/03/2018 23:10:29 -- 27,78497  -- 0, 0 -- Audi

23/03/2018 23:10:29 -- 27,80106  -- 0, 0 -- Audi

23/03/2018 23:10:29 -- 27,81797  -- 0, 0 -- Audi

23/03/2018 23:10:29 -- 27,83473  -- 0, 0 -- Audi

23/03/2018 23:10:29 -- 27,85209  -- 0, 0 -- Audi

23/03/2018 23:10:29 -- 27,86935  -- 0, 0 -- Audi

23/03/2018 23:10:29 -- 27,88609  -- 0, 0 -- Audi

23/03/2018 23:10:29 -- 27,90245  -- 0, 0 -- Audi

23/03/2018 23:10:29 -- 27,91895  -- 0, 0 -- Audi

23/03/2018 23:10:29 -- 27,93582  -- 0, 0 -- Audi

23/03/2018 23:10:29 -- 27,95298  -- 0, 0 -- Audi

23/03/2018 23:10:29 -- 27,96955  -- 0, 0 -- Audi

23/03/2018 23:10:29 -- 27,98639  -- 0, 0 -- Audi

23/03/2018 23:10:29 -- 28,0032  -- 0, 0 -- Audi

23/03/2018 23:10:29 -- 28,02004  -- 0, 0 -- Audi

23/03/2018 23:10:29 -- 28,03757  -- 0, 0 -- Audi

23/03/2018 23:10:29 -- 28,05372  -- 0, 0 -- Audi

23/03/2018 23:10:29 -- 28,07078  -- 0, 0 -- Audi

23/03/2018 23:10:29 -- 28,08744  -- 0, 0 -- Audi

23/03/2018 23:10:29 -- 28,1053  -- 0, 0 -- Audi

23/03/2018 23:10:29 -- 28,12157  -- 0, 0 -- Audi

23/03/2018 23:10:29 -- 28,13798  -- 0, 0 -- Audi

23/03/2018 23:10:29 -- 28,1554  -- 0, 0 -- Audi

23/03/2018 23:10:29 -- 28,17245  -- 0, 0 -- Audi

23/03/2018 23:10:29 -- 28,18905  -- 0, 0 -- Audi

23/03/2018 23:10:29 -- 28,20537  -- 0, 0 -- Audi

23/03/2018 23:10:29 -- 28,22245  -- 0, 0 -- Audi

23/03/2018 23:10:29 -- 28,23901  -- 0, 0 -- Audi

23/03/2018 23:10:29 -- 28,25615  -- 0, 0 -- Audi

23/03/2018 23:10:29 -- 28,27299  -- 0, 0 -- Audi

23/03/2018 23:10:29 -- 28,2896  -- 0, 0 -- Audi

23/03/2018 23:10:29 -- 28,30642  -- 0, 0 -- Audi

23/03/2018 23:10:29 -- 28,32329  -- 0, 0 -- Audi

23/03/2018 23:10:29 -- 28,34035  -- 0, 0 -- Audi

23/03/2018 23:10:29 -- 28,35713  -- 0, 0 -- Audi

23/03/2018 23:10:29 -- 28,37407  -- 0, 0 -- Audi

23/03/2018 23:10:29 -- 28,39047  -- 0, 0 -- Audi

23/03/2018 23:10:29 -- 28,40754  -- 0, 0 -- Audi

23/03/2018 23:10:29 -- 28,42972  -- 0, 0 -- Audi

23/03/2018 23:14:39 -- 277,8793  -- 0, 0 -- Audi

23/03/2018 23:14:39 -- 277,8984  -- 0, 0 -- Audi

23/03/2018 23:14:39 -- 277,9143  -- 0, 0 -- Audi

23/03/2018 23:14:39 -- 277,9315  -- 0, 0 -- Audi

23/03/2018 23:14:39 -- 277,948  -- 0, 0 -- Audi

23/03/2018 23:14:39 -- 277,9651  -- 0, 0 -- Audi

23/03/2018 23:14:39 -- 277,9818  -- 0, 0 -- Audi

23/03/2018 23:14:39 -- 277,9985  -- 0, 0 -- Audi

23/03/2018 23:14:39 -- 278,0157  -- 0, 0 -- Audi

23/03/2018 23:14:39 -- 278,0323  -- 0, 0 -- Audi

23/03/2018 23:14:39 -- 278,0494  -- 0, 0 -- Audi

23/03/2018 23:14:39 -- 278,066  -- 0, 0 -- Audi

23/03/2018 23:14:39 -- 278,0826  -- 0, 0 -- Audi

23/03/2018 23:14:39 -- 278,0996  -- 0, 0 -- Audi

23/03/2018 23:14:39 -- 278,1266  -- 0, 0 -- Audi

23/03/2018 23:14:39 -- 278,1434  -- 0, 0 -- Audi

23/03/2018 23:14:39 -- 278,1603  -- 0, 0 -- Audi

23/03/2018 23:14:39 -- 278,177  -- 0, 0 -- Audi

23/03/2018 23:14:39 -- 278,194  -- 0, 0 -- Audi

23/03/2018 23:14:39 -- 278,2112  -- 0, 0 -- Audi

23/03/2018 23:14:39 -- 278,2277  -- 0, 0 -- Audi

23/03/2018 23:14:39 -- 278,2463  -- 0, 0 -- Audi

23/03/2018 23:14:39 -- 278,2612  -- 0, 0 -- Audi

23/03/2018 23:14:39 -- 278,2782  -- 0, 0 -- Audi

23/03/2018 23:14:39 -- 278,2953  -- 0, 0 -- Audi

23/03/2018 23:14:39 -- 278,3128  -- 0, 0 -- Audi

23/03/2018 23:14:39 -- 278,3297  -- 0, 0 -- Audi

23/03/2018 23:14:39 -- 278,3472  -- 0, 0 -- Audi

23/03/2018 23:14:39 -- 278,3635  -- 0, 0 -- Audi

23/03/2018 23:14:39 -- 278,3802  -- 0, 0 -- Audi

23/03/2018 23:14:39 -- 278,3971  -- 0, 0 -- Audi

23/03/2018 23:14:39 -- 278,4141  -- 0, 0 -- Audi

23/03/2018 23:14:39 -- 278,4308  -- 0, 0 -- Audi

23/03/2018 23:14:39 -- 278,4478  -- 0, 0 -- Audi

23/03/2018 23:14:39 -- 278,4643  -- 0, 0 -- Audi

23/03/2018 23:14:39 -- 278,4813  -- 0, 0 -- Audi

23/03/2018 23:14:39 -- 278,4982  -- 0, 0 -- Audi

23/03/2018 23:14:39 -- 278,515  -- 0, 0 -- Audi

23/03/2018 23:14:39 -- 278,535  -- 0, 0 -- Audi

23/03/2018 23:14:39 -- 278,5489  -- 0, 0 -- Audi

23/03/2018 23:14:39 -- 278,5656  -- 0, 0 -- Audi

23/03/2018 23:14:39 -- 278,5823  -- 0, 0 -- Audi

23/03/2018 23:14:39 -- 278,5996  -- 0, 0 -- Audi

23/03/2018 23:14:40 -- 278,6163  -- 0, 0 -- Audi

23/03/2018 23:14:40 -- 278,6331  -- 0, 0 -- Audi

23/03/2018 23:14:40 -- 278,65  -- 0, 0 -- Audi

23/03/2018 23:14:40 -- 278,6668  -- 0, 0 -- Audi

23/03/2018 23:14:40 -- 278,6835  -- 0, 0 -- Audi

23/03/2018 23:14:40 -- 278,7004  -- 0, 0 -- Audi

23/03/2018 23:14:40 -- 278,7171  -- 0, 0 -- Audi

23/03/2018 23:14:40 -- 278,7367  -- 0, 0 -- Audi

23/03/2018 23:14:40 -- 278,7535  -- 0, 0 -- Audi

23/03/2018 23:14:40 -- 278,7722  -- 0, 0 -- Audi

23/03/2018 23:14:40 -- 278,7874  -- 0, 0 -- Audi

23/03/2018 23:14:40 -- 278,804  -- 0, 0 -- Audi

23/03/2018 23:14:40 -- 278,8209  -- 0, 0 -- Audi

23/03/2018 23:14:40 -- 278,8377  -- 0, 0 -- Audi

23/03/2018 23:14:40 -- 278,8547  -- 0, 0 -- Audi

23/03/2018 23:14:40 -- 278,8714  -- 0, 0 -- Audi

23/03/2018 23:14:40 -- 278,8885  -- 0, 0 -- Audi

23/03/2018 23:14:40 -- 278,9051  -- 0, 0 -- Audi

23/03/2018 23:14:40 -- 278,9219  -- 0, 0 -- Audi

23/03/2018 23:14:40 -- 278,9391  -- 0, 0 -- Audi

23/03/2018 23:14:40 -- 278,9561  -- 0, 0 -- Audi

23/03/2018 23:14:40 -- 278,9728  -- 0, 0 -- Audi

23/03/2018 23:14:40 -- 278,9894  -- 0, 0 -- Audi

23/03/2018 23:14:40 -- 279,0067  -- 0, 0 -- Audi

23/03/2018 23:14:40 -- 279,0238  -- 0, 0 -- Audi

23/03/2018 23:14:40 -- 279,0399  -- 0, 0 -- Audi

23/03/2018 23:14:40 -- 279,057  -- 0, 0 -- Audi

23/03/2018 23:14:40 -- 279,0736  -- 0, 0 -- Audi

23/03/2018 23:14:40 -- 279,0905  -- 0, 0 -- Audi

23/03/2018 23:14:40 -- 279,1077  -- 0, 0 -- Audi

23/03/2018 23:14:40 -- 279,1247  -- 0, 0 -- Audi

23/03/2018 23:14:40 -- 279,1412  -- 0, 0 -- Audi

23/03/2018 23:14:40 -- 279,1583  -- 0, 0 -- Audi

23/03/2018 23:14:40 -- 279,1755  -- 0, 0 -- Audi

23/03/2018 23:14:40 -- 279,1919  -- 0, 0 -- Audi

23/03/2018 23:14:40 -- 279,2096  -- 0, 0 -- Audi

23/03/2018 23:14:40 -- 279,2261  -- 0, 0 -- Audi

23/03/2018 23:14:40 -- 279,2423  -- 0, 0 -- Audi

23/03/2018 23:14:40 -- 279,2591  -- 0, 0 -- Audi

23/03/2018 23:14:40 -- 279,2762  -- 0, 0 -- Audi

23/03/2018 23:14:40 -- 279,2936  -- 0, 0 -- Audi

23/03/2018 23:14:40 -- 279,3096  -- 0, 0 -- Audi

23/03/2018 23:14:40 -- 279,3266  -- 0, 0 -- Audi

23/03/2018 23:14:40 -- 279,3481  -- 0, 0 -- Audi

23/03/2018 23:14:40 -- 279,367  -- 0, 0 -- Audi

23/03/2018 23:14:40 -- 279,3817  -- 0, 0 -- Audi

23/03/2018 23:14:40 -- 279,3988  -- 0, 0 -- Audi

23/03/2018 23:14:40 -- 279,4163  -- 0, 0 -- Audi

23/03/2018 23:14:40 -- 279,4333  -- 0, 0 -- Audi

23/03/2018 23:14:40 -- 279,4495  -- 0, 0 -- Audi

