24/03/2018 13:23:12 -- 4,10213  -- 0,2100151, 0,6672839 -- Audi

24/03/2018 13:23:13 -- 4,191828  -- 0,1993434, 0,6733668 -- Audi

24/03/2018 13:23:13 -- 5,073317  -- 0,1819952, 0,6714875 -- Audi

24/03/2018 13:23:14 -- 5,13739  -- 0,1814463, 0,6743317 -- Audi

24/03/2018 13:23:14 -- 5,273226  -- 0,1491558, 0,6804348 -- Audi

24/03/2018 13:23:14 -- 5,574859  -- 0,1345146, 0,6877872 -- Audi

24/03/2018 13:23:14 -- 5,737579  -- 0,141272, 0,6891561 -- Audi

24/03/2018 13:23:15 -- 6,203177  -- 0,158246, 0,7100388 -- Audi

24/03/2018 13:23:15 -- 6,359084  -- 0,161582, 0,7169051 -- Audi

24/03/2018 13:23:15 -- 6,565687  -- 0,16386, 0,7154701 -- Audi

24/03/2018 13:23:15 -- 6,906227  -- 0,1606143, 0,712708 -- Audi

24/03/2018 13:23:16 -- 7,179677  -- 0,1665107, 0,7056468 -- Audi

24/03/2018 13:23:16 -- 7,52087  -- 0,1661231, 0,6968991 -- Audi

24/03/2018 13:23:16 -- 7,736966  -- 0,1652571, 0,6963737 -- Audi

24/03/2018 13:23:16 -- 7,961658  -- 0,1654578, 0,6972204 -- Audi

24/03/2018 13:23:16 -- 8,04223  -- 0,1651984, 0,6968162 -- Audi

24/03/2018 13:23:16 -- 8,087614  -- 0,165244, 0,6965884 -- Audi

24/03/2018 13:23:17 -- 8,132061  -- 0,1652505, 0,6963894 -- Audi

24/03/2018 13:23:17 -- 8,176299  -- 0,1651239, 0,6960911 -- Audi

24/03/2018 13:23:17 -- 8,212455  -- 0,1651194, 0,6958559 -- Audi

24/03/2018 13:23:17 -- 8,241979  -- 0,1652232, 0,6957579 -- Audi

24/03/2018 13:23:17 -- 8,287972  -- 0,1651107, 0,6954192 -- Audi

24/03/2018 13:23:17 -- 8,332985  -- 0,1651048, 0,6952453 -- Audi

24/03/2018 13:23:17 -- 8,365196  -- 0,1651022, 0,6950549 -- Audi

24/03/2018 13:23:17 -- 8,40757  -- 0,1651126, 0,6949422 -- Audi

24/03/2018 13:23:17 -- 8,443643  -- 0,1650647, 0,6949099 -- Audi

24/03/2018 13:23:17 -- 8,477077  -- 0,1651401, 0,6949911 -- Audi

24/03/2018 13:23:17 -- 8,516073  -- 0,165244, 0,6950337 -- Audi

24/03/2018 13:23:17 -- 8,557594  -- 0,1655665, 0,6950996 -- Audi

24/03/2018 13:23:17 -- 8,590636  -- 0,1657844, 0,6951418 -- Audi

24/03/2018 13:23:17 -- 8,62297  -- 0,1659746, 0,695144 -- Audi

24/03/2018 13:23:17 -- 8,654049  -- 0,166112, 0,6950854 -- Audi

24/03/2018 13:23:17 -- 8,690393  -- 0,1662122, 0,6949906 -- Audi

24/03/2018 13:23:17 -- 8,725073  -- 0,1662387, 0,6948878 -- Audi

24/03/2018 13:23:17 -- 8,756213  -- 0,1662107, 0,6948414 -- Audi

24/03/2018 13:23:17 -- 8,787255  -- 0,1662052, 0,6946976 -- Audi

24/03/2018 13:23:17 -- 8,8239  -- 0,1661408, 0,6945594 -- Audi

24/03/2018 13:23:17 -- 8,844522  -- 0,1660628, 0,6944672 -- Audi

24/03/2018 13:23:17 -- 8,877507  -- 0,1659607, 0,6943176 -- Audi

24/03/2018 13:23:17 -- 8,923988  -- 0,165857, 0,6941658 -- Audi

24/03/2018 13:23:17 -- 8,957841  -- 0,1657209, 0,6940535 -- Audi

24/03/2018 13:23:17 -- 8,981076  -- 0,1655922, 0,6940412 -- Audi

24/03/2018 13:23:17 -- 9,011107  -- 0,1654629, 0,6940229 -- Audi

24/03/2018 13:23:17 -- 9,030866  -- 0,1654401, 0,6939967 -- Audi

24/03/2018 13:23:17 -- 9,055539  -- 0,1653587, 0,6940105 -- Audi

24/03/2018 13:23:17 -- 9,083124  -- 0,1653101, 0,694079 -- Audi

24/03/2018 13:23:17 -- 9,111508  -- 0,1652315, 0,6941712 -- Audi

24/03/2018 13:23:18 -- 9,142083  -- 0,165146, 0,694253 -- Audi

24/03/2018 13:23:18 -- 9,180055  -- 0,1651183, 0,6942837 -- Audi

24/03/2018 13:23:18 -- 9,212445  -- 0,1651672, 0,6943375 -- Audi

24/03/2018 13:23:18 -- 9,244223  -- 0,1652428, 0,6943066 -- Audi

24/03/2018 13:23:18 -- 9,27841  -- 0,1652716, 0,6942407 -- Audi

24/03/2018 13:23:18 -- 9,31039  -- 0,1653067, 0,6942195 -- Audi

24/03/2018 13:23:18 -- 9,357071  -- 0,165436, 0,6941016 -- Audi

24/03/2018 13:23:18 -- 9,388467  -- 0,1654956, 0,6940093 -- Audi

24/03/2018 13:23:18 -- 9,410224  -- 0,1655092, 0,6939179 -- Audi

24/03/2018 13:23:18 -- 9,444536  -- 0,1656331, 0,6938526 -- Audi

24/03/2018 13:23:18 -- 9,478096  -- 0,1657357, 0,6937637 -- Audi

24/03/2018 13:23:18 -- 9,510155  -- 0,1658356, 0,693699 -- Audi

24/03/2018 13:23:18 -- 9,544472  -- 0,1659276, 0,6935717 -- Audi

24/03/2018 13:23:18 -- 9,589674  -- 0,166051, 0,6934276 -- Audi

24/03/2018 13:23:18 -- 9,615173  -- 0,1660392, 0,6932627 -- Audi

24/03/2018 13:23:18 -- 9,643919  -- 0,166016, 0,6931452 -- Audi

24/03/2018 13:23:18 -- 9,681238  -- 0,1660194, 0,6930544 -- Audi

24/03/2018 13:23:18 -- 9,723162  -- 0,1660369, 0,6929853 -- Audi

24/03/2018 13:23:18 -- 9,752827  -- 0,1660205, 0,6930056 -- Audi

24/03/2018 13:23:18 -- 9,791413  -- 0,165932, 0,6930467 -- Audi

24/03/2018 13:23:18 -- 9,822708  -- 0,1658564, 0,6930395 -- Audi

24/03/2018 13:23:18 -- 9,856753  -- 0,1658253, 0,6929564 -- Audi

24/03/2018 13:23:18 -- 9,888047  -- 0,1657694, 0,6929401 -- Audi

24/03/2018 13:23:18 -- 9,92683  -- 0,1657364, 0,69292 -- Audi

24/03/2018 13:23:18 -- 9,956799  -- 0,1656718, 0,692893 -- Audi

24/03/2018 13:23:18 -- 9,98829  -- 0,1656464, 0,6928652 -- Audi

24/03/2018 13:23:18 -- 10,03388  -- 0,1655915, 0,6927956 -- Audi

24/03/2018 13:23:18 -- 10,06775  -- 0,1655378, 0,69277 -- Audi

24/03/2018 13:23:18 -- 10,10071  -- 0,1654509, 0,6927066 -- Audi

24/03/2018 13:23:19 -- 10,13252  -- 0,1654162, 0,6926751 -- Audi

24/03/2018 13:23:19 -- 10,16932  -- 0,1653754, 0,6926739 -- Audi

24/03/2018 13:23:19 -- 10,20599  -- 0,1654898, 0,6926476 -- Audi

24/03/2018 13:23:19 -- 10,24395  -- 0,1655887, 0,692484 -- Audi

24/03/2018 13:23:19 -- 10,27979  -- 0,1656749, 0,6923207 -- Audi

24/03/2018 13:23:19 -- 10,31262  -- 0,1657834, 0,692131 -- Audi

24/03/2018 13:23:19 -- 10,34621  -- 0,1658854, 0,691972 -- Audi

24/03/2018 13:23:19 -- 10,3767  -- 0,1660242, 0,6918297 -- Audi

24/03/2018 13:23:19 -- 10,42446  -- 0,1663646, 0,6919495 -- Audi

24/03/2018 13:23:19 -- 10,46099  -- 0,1666368, 0,6922088 -- Audi

24/03/2018 13:23:19 -- 10,48954  -- 0,1669454, 0,6923059 -- Audi

24/03/2018 13:23:19 -- 10,52323  -- 0,1672137, 0,6922246 -- Audi

24/03/2018 13:23:19 -- 10,62267  -- 0,1674772, 0,6917928 -- Audi

24/03/2018 13:23:19 -- 10,64806  -- 0,167454, 0,6915928 -- Audi

24/03/2018 13:23:19 -- 10,67749  -- 0,1676868, 0,6911099 -- Audi

24/03/2018 13:23:19 -- 10,71627  -- 0,1680711, 0,6906392 -- Audi

24/03/2018 13:23:19 -- 10,75483  -- 0,1683892, 0,6905589 -- Audi

24/03/2018 13:23:19 -- 10,80726  -- 0,1687115, 0,6907005 -- Audi

24/03/2018 13:23:19 -- 10,84818  -- 0,1689999, 0,6911077 -- Audi

24/03/2018 13:23:19 -- 10,87326  -- 0,1689417, 0,6914536 -- Audi

24/03/2018 13:23:19 -- 10,94198  -- 0,1686008, 0,6916741 -- Audi

24/03/2018 13:23:19 -- 10,95978  -- 0,1679949, 0,692194 -- Audi

24/03/2018 13:23:19 -- 10,98436  -- 0,1677733, 0,6923553 -- Audi

24/03/2018 13:23:19 -- 11,0193  -- 0,1674059, 0,6926197 -- Audi

24/03/2018 13:23:19 -- 11,05248  -- 0,1670045, 0,6929132 -- Audi

24/03/2018 13:23:19 -- 11,07607  -- 0,1667616, 0,6930283 -- Audi

24/03/2018 13:23:19 -- 11,09777  -- 0,1664423, 0,6931827 -- Audi

24/03/2018 13:23:19 -- 11,1223  -- 0,1659872, 0,6932086 -- Audi

24/03/2018 13:23:20 -- 11,14149  -- 0,1655523, 0,6932617 -- Audi

24/03/2018 13:23:20 -- 11,16239  -- 0,1650319, 0,6934241 -- Audi

24/03/2018 13:23:20 -- 11,18794  -- 0,164563, 0,6935579 -- Audi

24/03/2018 13:23:20 -- 11,2132  -- 0,1643724, 0,6938423 -- Audi

24/03/2018 13:23:20 -- 11,23347  -- 0,1642627, 0,6940445 -- Audi

24/03/2018 13:23:20 -- 11,25304  -- 0,1642833, 0,6941394 -- Audi

24/03/2018 13:23:20 -- 11,28099  -- 0,1646532, 0,6941175 -- Audi

24/03/2018 13:23:20 -- 11,30114  -- 0,165024, 0,6940669 -- Audi

24/03/2018 13:23:20 -- 11,32026  -- 0,1653411, 0,6938857 -- Audi

24/03/2018 13:23:20 -- 11,34069  -- 0,1656606, 0,6937257 -- Audi

24/03/2018 13:23:20 -- 11,36435  -- 0,1659057, 0,6935608 -- Audi

24/03/2018 13:23:20 -- 11,38831  -- 0,166092, 0,6933638 -- Audi

24/03/2018 13:23:20 -- 11,41983  -- 0,1663683, 0,6929817 -- Audi

24/03/2018 13:23:20 -- 11,4432  -- 0,1663957, 0,69271 -- Audi

24/03/2018 13:23:20 -- 11,46115  -- 0,1665545, 0,6922606 -- Audi

24/03/2018 13:23:20 -- 11,48609  -- 0,1666419, 0,6913124 -- Audi

24/03/2018 13:23:20 -- 11,50841  -- 0,1665972, 0,6905808 -- Audi

24/03/2018 13:23:20 -- 11,54073  -- 0,1665174, 0,6899717 -- Audi

24/03/2018 13:23:20 -- 11,5668  -- 0,1664676, 0,6892726 -- Audi

24/03/2018 13:23:20 -- 11,58574  -- 0,1663037, 0,6883832 -- Audi

24/03/2018 13:23:20 -- 11,60401  -- 0,1661061, 0,688233 -- Audi

24/03/2018 13:23:20 -- 11,62482  -- 0,1659633, 0,687698 -- Audi

24/03/2018 13:23:20 -- 11,65363  -- 0,1657276, 0,6872194 -- Audi

24/03/2018 13:23:20 -- 11,67505  -- 0,1654751, 0,6869847 -- Audi

24/03/2018 13:23:20 -- 11,69531  -- 0,1652896, 0,6867703 -- Audi

24/03/2018 13:23:20 -- 11,71759  -- 0,1649782, 0,6866611 -- Audi

24/03/2018 13:23:20 -- 11,74395  -- 0,164702, 0,6867155 -- Audi

24/03/2018 13:23:20 -- 11,761  -- 0,1643345, 0,6864778 -- Audi

24/03/2018 13:23:20 -- 11,78313  -- 0,1639865, 0,6863404 -- Audi

24/03/2018 13:23:20 -- 11,80481  -- 0,1633625, 0,6860811 -- Audi

24/03/2018 13:23:20 -- 11,82566  -- 0,1626417, 0,6857101 -- Audi

24/03/2018 13:23:20 -- 11,84984  -- 0,161273, 0,6851099 -- Audi

24/03/2018 13:23:20 -- 11,87075  -- 0,1605573, 0,6848863 -- Audi

24/03/2018 13:23:20 -- 11,88984  -- 0,1593338, 0,684302 -- Audi

24/03/2018 13:23:20 -- 11,91241  -- 0,1580065, 0,6838204 -- Audi

24/03/2018 13:23:20 -- 11,93328  -- 0,1566336, 0,6832366 -- Audi

24/03/2018 13:23:20 -- 11,95161  -- 0,1553587, 0,6826855 -- Audi

24/03/2018 13:23:20 -- 11,9731  -- 0,1545685, 0,6824706 -- Audi

24/03/2018 13:23:20 -- 11,99232  -- 0,1530576, 0,6818349 -- Audi

24/03/2018 13:23:20 -- 12,01886  -- 0,1516447, 0,6814013 -- Audi

24/03/2018 13:23:20 -- 12,0414  -- 0,1496208, 0,6808269 -- Audi

24/03/2018 13:23:20 -- 12,065  -- 0,1480851, 0,680495 -- Audi

24/03/2018 13:23:20 -- 12,08586  -- 0,1466131, 0,6803623 -- Audi

24/03/2018 13:23:20 -- 12,1042  -- 0,1458481, 0,6804396 -- Audi

24/03/2018 13:23:20 -- 12,12225  -- 0,1441662, 0,6801704 -- Audi

24/03/2018 13:23:21 -- 12,14179  -- 0,1425655, 0,6801049 -- Audi

24/03/2018 13:23:21 -- 12,16663  -- 0,1407561, 0,6799628 -- Audi

24/03/2018 13:23:21 -- 12,18648  -- 0,1390865, 0,6799443 -- Audi

24/03/2018 13:23:21 -- 12,20709  -- 0,1372052, 0,6798532 -- Audi

24/03/2018 13:23:21 -- 12,23014  -- 0,1350934, 0,6795368 -- Audi

24/03/2018 13:23:21 -- 12,25862  -- 0,1330835, 0,6792516 -- Audi

24/03/2018 13:23:21 -- 12,2803  -- 0,1310427, 0,6788825 -- Audi

24/03/2018 13:23:21 -- 12,29863  -- 0,1287671, 0,6783305 -- Audi

24/03/2018 13:23:21 -- 12,32063  -- 0,1267738, 0,6778532 -- Audi

24/03/2018 13:23:21 -- 12,34244  -- 0,1247824, 0,6773053 -- Audi

24/03/2018 13:23:21 -- 12,36519  -- 0,122671, 0,6766989 -- Audi

24/03/2018 13:23:21 -- 12,38657  -- 0,1207472, 0,676077 -- Audi

24/03/2018 13:23:21 -- 12,40939  -- 0,1189022, 0,6753573 -- Audi

24/03/2018 13:23:21 -- 12,43097  -- 0,1169785, 0,6746203 -- Audi

24/03/2018 13:23:21 -- 12,45795  -- 0,115375, 0,6738966 -- Audi

24/03/2018 13:23:21 -- 12,47631  -- 0,1138654, 0,673278 -- Audi

24/03/2018 13:23:21 -- 12,49616  -- 0,1122994, 0,6726246 -- Audi

24/03/2018 13:23:21 -- 12,52093  -- 0,1110835, 0,6720095 -- Audi

24/03/2018 13:23:21 -- 12,542  -- 0,110047, 0,6715955 -- Audi

24/03/2018 13:23:21 -- 12,56513  -- 0,109074, 0,6712375 -- Audi

24/03/2018 13:23:21 -- 12,5877  -- 0,1083656, 0,6710109 -- Audi

24/03/2018 13:23:21 -- 12,61167  -- 0,1078164, 0,6708679 -- Audi

24/03/2018 13:23:21 -- 12,63171  -- 0,1074558, 0,6708689 -- Audi

24/03/2018 13:23:21 -- 12,65518  -- 0,106867, 0,6707263 -- Audi

24/03/2018 13:23:21 -- 12,6793  -- 0,106493, 0,6706243 -- Audi

24/03/2018 13:23:21 -- 12,70502  -- 0,1061764, 0,6706746 -- Audi

24/03/2018 13:23:21 -- 12,72821  -- 0,1057285, 0,6706806 -- Audi

24/03/2018 13:23:21 -- 12,74682  -- 0,1053965, 0,6707261 -- Audi

24/03/2018 13:23:21 -- 12,76713  -- 0,1051607, 0,6707358 -- Audi

24/03/2018 13:23:21 -- 12,78996  -- 0,104983, 0,6707905 -- Audi

24/03/2018 13:23:21 -- 12,81378  -- 0,1051089, 0,6709005 -- Audi

24/03/2018 13:23:21 -- 12,83617  -- 0,1052001, 0,670984 -- Audi

24/03/2018 13:23:21 -- 12,85706  -- 0,1052507, 0,6710022 -- Audi

24/03/2018 13:23:21 -- 12,87638  -- 0,1053948, 0,6709491 -- Audi

24/03/2018 13:23:21 -- 12,89631  -- 0,1056771, 0,6710294 -- Audi

24/03/2018 13:23:21 -- 12,92162  -- 0,1059216, 0,671069 -- Audi

24/03/2018 13:23:21 -- 12,9421  -- 0,1061924, 0,6710509 -- Audi

24/03/2018 13:23:21 -- 12,96488  -- 0,1065149, 0,6711028 -- Audi

24/03/2018 13:23:21 -- 12,99122  -- 0,1068075, 0,6710541 -- Audi

24/03/2018 13:23:21 -- 13,01435  -- 0,1070536, 0,6710221 -- Audi

24/03/2018 13:23:21 -- 13,03277  -- 0,1073234, 0,671136 -- Audi

24/03/2018 13:23:21 -- 13,05595  -- 0,1074965, 0,6711699 -- Audi

24/03/2018 13:23:21 -- 13,0802  -- 0,1075708, 0,6712686 -- Audi

24/03/2018 13:23:21 -- 13,09882  -- 0,1076001, 0,6712758 -- Audi

24/03/2018 13:23:21 -- 13,11912  -- 0,1077484, 0,6713535 -- Audi

24/03/2018 13:23:22 -- 13,14055  -- 0,1078757, 0,6713865 -- Audi

24/03/2018 13:23:22 -- 13,16381  -- 0,1081402, 0,671585 -- Audi

24/03/2018 13:23:22 -- 13,18657  -- 0,10834, 0,6716987 -- Audi

24/03/2018 13:23:22 -- 13,21136  -- 0,108512, 0,671738 -- Audi

24/03/2018 13:23:22 -- 13,23152  -- 0,1087786, 0,671881 -- Audi

24/03/2018 13:23:22 -- 13,25265  -- 0,1090883, 0,6718935 -- Audi

24/03/2018 13:23:22 -- 13,27596  -- 0,109377, 0,6718771 -- Audi

24/03/2018 13:23:22 -- 13,29688  -- 0,1097299, 0,6720366 -- Audi

24/03/2018 13:23:22 -- 13,31926  -- 0,1100068, 0,6720258 -- Audi

24/03/2018 13:23:22 -- 13,35143  -- 0,110374, 0,6721412 -- Audi

24/03/2018 13:23:22 -- 13,37281  -- 0,1107371, 0,6722531 -- Audi

24/03/2018 13:23:22 -- 13,3938  -- 0,1110834, 0,6724621 -- Audi

24/03/2018 13:23:22 -- 13,41286  -- 0,111379, 0,6724947 -- Audi

24/03/2018 13:23:22 -- 13,43896  -- 0,1116464, 0,672532 -- Audi

24/03/2018 13:23:22 -- 13,45844  -- 0,1119753, 0,6727152 -- Audi

24/03/2018 13:23:22 -- 13,47941  -- 0,1122044, 0,6728955 -- Audi

24/03/2018 13:23:22 -- 13,50598  -- 0,1124602, 0,6730993 -- Audi

24/03/2018 13:23:22 -- 13,52606  -- 0,1125772, 0,6731155 -- Audi

24/03/2018 13:23:22 -- 13,54819  -- 0,1127215, 0,6731249 -- Audi

24/03/2018 13:23:22 -- 13,57007  -- 0,1128487, 0,6730433 -- Audi

24/03/2018 13:23:22 -- 13,5923  -- 0,1130164, 0,6731489 -- Audi

24/03/2018 13:23:22 -- 13,61397  -- 0,1130982, 0,6731609 -- Audi

24/03/2018 13:23:22 -- 13,63387  -- 0,1131887, 0,6731297 -- Audi

24/03/2018 13:23:22 -- 13,65509  -- 0,113339, 0,6731799 -- Audi

24/03/2018 13:23:22 -- 13,67448  -- 0,1134911, 0,6730915 -- Audi

24/03/2018 13:23:22 -- 13,69759  -- 0,1137051, 0,6731747 -- Audi

24/03/2018 13:23:22 -- 13,71994  -- 0,1138671, 0,6731616 -- Audi

24/03/2018 13:23:22 -- 13,7426  -- 0,1139878, 0,6731051 -- Audi

24/03/2018 13:23:22 -- 13,76238  -- 0,1141878, 0,6731275 -- Audi

24/03/2018 13:23:22 -- 13,79065  -- 0,1142853, 0,6730186 -- Audi

24/03/2018 13:23:22 -- 13,81145  -- 0,1142506, 0,6729623 -- Audi

24/03/2018 13:23:22 -- 13,83082  -- 0,1142925, 0,672933 -- Audi

24/03/2018 13:23:22 -- 13,85986  -- 0,1141033, 0,6728402 -- Audi

24/03/2018 13:23:22 -- 13,87961  -- 0,1136908, 0,6726518 -- Audi

24/03/2018 13:23:22 -- 13,90029  -- 0,1131648, 0,6723439 -- Audi

24/03/2018 13:23:22 -- 13,92075  -- 0,1126147, 0,6720163 -- Audi

24/03/2018 13:23:22 -- 13,94253  -- 0,1116539, 0,6718589 -- Audi

24/03/2018 13:23:22 -- 13,96464  -- 0,110489, 0,6712934 -- Audi

24/03/2018 13:23:22 -- 13,987  -- 0,1090656, 0,6707064 -- Audi

24/03/2018 13:23:22 -- 14,00984  -- 0,1072946, 0,6701779 -- Audi

24/03/2018 13:23:23 -- 14,19963  -- 0,09829749, 0,6637366 -- Viper

24/03/2018 13:23:23 -- 14,22124  -- 0,09775436, 0,6627984 -- Viper

24/03/2018 13:23:23 -- 14,24229  -- 0,09752887, 0,6623713 -- Viper

24/03/2018 13:23:23 -- 14,26504  -- 0,09738845, 0,6621314 -- Viper

24/03/2018 13:23:23 -- 14,28552  -- 0,09716017, 0,661605 -- Viper

24/03/2018 13:23:23 -- 14,30747  -- 0,09703072, 0,6611373 -- Viper

24/03/2018 13:23:23 -- 14,33288  -- 0,09689081, 0,6608112 -- Viper

24/03/2018 13:23:23 -- 14,35357  -- 0,09689932, 0,660669 -- Viper

24/03/2018 13:23:23 -- 14,37554  -- 0,09691881, 0,660682 -- Viper

24/03/2018 13:23:23 -- 14,39833  -- 0,09704751, 0,6606568 -- Viper

24/03/2018 13:23:23 -- 14,424  -- 0,09724496, 0,6609268 -- Viper

24/03/2018 13:23:23 -- 14,4509  -- 0,09761172, 0,6613039 -- Viper

24/03/2018 13:23:23 -- 14,47083  -- 0,09795448, 0,6616311 -- Viper

24/03/2018 13:23:23 -- 14,49077  -- 0,0983012, 0,6618887 -- Viper

24/03/2018 13:23:23 -- 14,51876  -- 0,09884745, 0,6622401 -- Viper

24/03/2018 13:23:23 -- 14,54256  -- 0,09926596, 0,6625394 -- Viper

24/03/2018 13:23:23 -- 14,78708  -- 0,1080431, 0,6669032 -- Audi

24/03/2018 13:23:23 -- 14,80772  -- 0,1091927, 0,6676203 -- Audi

24/03/2018 13:23:23 -- 14,84203  -- 0,11082, 0,668628 -- Audi

24/03/2018 13:23:23 -- 14,86489  -- 0,1117689, 0,6690738 -- Audi

24/03/2018 13:23:23 -- 14,88552  -- 0,1129035, 0,6697598 -- Audi

24/03/2018 13:23:23 -- 14,91028  -- 0,113948, 0,6703427 -- Audi

24/03/2018 13:23:23 -- 14,93136  -- 0,1148707, 0,6707608 -- Audi

24/03/2018 13:23:23 -- 14,96016  -- 0,1159035, 0,6712139 -- Audi

24/03/2018 13:23:23 -- 14,98119  -- 0,1169237, 0,6714942 -- Audi

24/03/2018 13:23:23 -- 15,0015  -- 0,1180285, 0,6718732 -- Audi

24/03/2018 13:23:23 -- 15,02218  -- 0,1192582, 0,6724635 -- Audi

24/03/2018 13:23:23 -- 15,04314  -- 0,1201517, 0,6727573 -- Audi

24/03/2018 13:23:23 -- 15,07549  -- 0,1209248, 0,6730027 -- Audi

24/03/2018 13:23:23 -- 15,09672  -- 0,1215272, 0,6732213 -- Audi

24/03/2018 13:23:23 -- 15,11809  -- 0,1223826, 0,6734912 -- Audi

24/03/2018 13:23:24 -- 15,14201  -- 0,1225353, 0,6735089 -- Audi

24/03/2018 13:23:24 -- 15,16378  -- 0,1227247, 0,6735111 -- Audi

24/03/2018 13:23:24 -- 15,1951  -- 0,1225647, 0,6732415 -- Audi

24/03/2018 13:23:24 -- 15,22175  -- 0,1222569, 0,6728388 -- Audi

24/03/2018 13:23:24 -- 15,24195  -- 0,1219887, 0,6724981 -- Audi

24/03/2018 13:23:24 -- 15,2739  -- 0,1214076, 0,6720091 -- Audi

24/03/2018 13:23:24 -- 15,30569  -- 0,1207509, 0,6714301 -- Audi

24/03/2018 13:23:24 -- 15,32852  -- 0,1199896, 0,6708577 -- Audi

24/03/2018 13:23:24 -- 15,3483  -- 0,1188531, 0,6699528 -- Audi

24/03/2018 13:23:24 -- 15,37086  -- 0,1181447, 0,6694323 -- Audi

24/03/2018 13:23:24 -- 15,39307  -- 0,1167229, 0,6683387 -- Audi

24/03/2018 13:23:24 -- 15,41937  -- 0,1155612, 0,6676037 -- Audi

24/03/2018 13:23:24 -- 15,44004  -- 0,1144534, 0,6668161 -- Audi

24/03/2018 13:23:24 -- 15,46519  -- 0,1134393, 0,6661175 -- Audi

24/03/2018 13:23:24 -- 15,48428  -- 0,1123825, 0,6653727 -- Audi

24/03/2018 13:23:24 -- 15,97472  -- 0,1092478, 0,666236 -- Audi

24/03/2018 13:23:24 -- 16,00407  -- 0,1106529, 0,6671337 -- Audi

24/03/2018 13:23:24 -- 16,02707  -- 0,1119484, 0,6677665 -- Audi

24/03/2018 13:23:24 -- 16,05203  -- 0,1134885, 0,6685635 -- Audi

24/03/2018 13:23:24 -- 16,07755  -- 0,1159413, 0,670138 -- Audi

24/03/2018 13:23:24 -- 16,1016  -- 0,1175889, 0,6710159 -- Audi

24/03/2018 13:23:24 -- 16,12472  -- 0,119335, 0,6719065 -- Audi

24/03/2018 13:23:25 -- 16,14659  -- 0,1212234, 0,672731 -- Audi

24/03/2018 13:23:25 -- 16,17682  -- 0,12328, 0,6738182 -- Audi

24/03/2018 13:23:25 -- 16,19736  -- 0,1266862, 0,6755537 -- Audi

24/03/2018 13:23:25 -- 16,21921  -- 0,1291157, 0,6768106 -- Audi

24/03/2018 13:23:25 -- 16,24075  -- 0,1317054, 0,6779639 -- Audi

24/03/2018 13:23:25 -- 16,26507  -- 0,1343594, 0,6791865 -- Audi

24/03/2018 13:23:25 -- 16,28444  -- 0,1371083, 0,6804941 -- Audi

24/03/2018 13:23:25 -- 16,31146  -- 0,1396794, 0,6816527 -- Audi

24/03/2018 13:23:25 -- 16,34352  -- 0,1434629, 0,6833547 -- Audi

24/03/2018 13:23:25 -- 16,3702  -- 0,1456603, 0,684412 -- Audi

24/03/2018 13:23:25 -- 16,39088  -- 0,1479591, 0,6854216 -- Audi

24/03/2018 13:23:25 -- 16,41274  -- 0,1511729, 0,6866207 -- Audi

24/03/2018 13:23:25 -- 16,43432  -- 0,1519835, 0,6870292 -- Audi

24/03/2018 13:23:25 -- 16,457  -- 0,15557, 0,6885809 -- Audi

24/03/2018 13:23:25 -- 16,48119  -- 0,1563022, 0,6888889 -- Audi

24/03/2018 13:23:25 -- 16,50288  -- 0,1579056, 0,689466 -- Audi

24/03/2018 13:23:25 -- 16,52413  -- 0,1597779, 0,690074 -- Audi

24/03/2018 13:23:25 -- 16,54631  -- 0,1613361, 0,6904022 -- Audi

24/03/2018 13:23:25 -- 16,56792  -- 0,1630118, 0,6907981 -- Audi

24/03/2018 13:23:25 -- 16,59286  -- 0,1651018, 0,6913624 -- Audi

24/03/2018 13:23:25 -- 16,61354  -- 0,1667452, 0,6915973 -- Audi

24/03/2018 13:23:25 -- 16,63355  -- 0,1684297, 0,6917151 -- Audi

24/03/2018 13:23:25 -- 16,66555  -- 0,1706795, 0,6920323 -- Audi

24/03/2018 13:23:25 -- 16,68524  -- 0,1731071, 0,692202 -- Audi

24/03/2018 13:23:25 -- 16,70952  -- 0,176523, 0,6921105 -- Audi

24/03/2018 13:23:25 -- 16,73001  -- 0,1789173, 0,6919855 -- Audi

24/03/2018 13:23:25 -- 16,75193  -- 0,1813904, 0,6918554 -- Audi

24/03/2018 13:23:25 -- 16,77456  -- 0,183535, 0,6915584 -- Audi

24/03/2018 13:23:25 -- 16,79818  -- 0,1856728, 0,6912997 -- Audi

24/03/2018 13:23:25 -- 16,81851  -- 0,1876998, 0,6910278 -- Audi

24/03/2018 13:23:25 -- 16,83986  -- 0,188396, 0,6907714 -- Audi

24/03/2018 13:23:25 -- 16,86464  -- 0,1894216, 0,6903902 -- Audi

24/03/2018 13:23:25 -- 16,88447  -- 0,1907212, 0,6899791 -- Audi

24/03/2018 13:23:25 -- 16,90526  -- 0,192374, 0,6892765 -- Audi

24/03/2018 13:23:25 -- 16,92926  -- 0,1945229, 0,6886125 -- Audi

24/03/2018 13:23:25 -- 16,9495  -- 0,1950192, 0,6882753 -- Audi

24/03/2018 13:23:25 -- 16,96912  -- 0,1961883, 0,6876156 -- Audi

24/03/2018 13:23:25 -- 16,99525  -- 0,1980822, 0,6865808 -- Audi

24/03/2018 13:23:25 -- 17,01552  -- 0,1987328, 0,6861417 -- Audi

24/03/2018 13:23:25 -- 17,03557  -- 0,2001145, 0,6852522 -- Audi

24/03/2018 13:23:25 -- 17,05733  -- 0,2016305, 0,6842626 -- Audi

24/03/2018 13:23:25 -- 17,07947  -- 0,2032481, 0,6830559 -- Audi

24/03/2018 13:23:25 -- 17,10474  -- 0,2047932, 0,681968 -- Audi

24/03/2018 13:23:25 -- 17,12311  -- 0,2066556, 0,6809887 -- Audi

24/03/2018 13:23:26 -- 17,1418  -- 0,2084257, 0,6803415 -- Audi

24/03/2018 13:23:26 -- 17,16168  -- 0,2101488, 0,6800206 -- Audi

24/03/2018 13:23:26 -- 17,1813  -- 0,2113615, 0,6799885 -- Audi

24/03/2018 13:23:26 -- 17,20062  -- 0,2133815, 0,679499 -- Audi

24/03/2018 13:23:26 -- 17,3838  -- 0,2246806, 0,6767113 -- Lamborguini

24/03/2018 13:23:26 -- 17,40705  -- 0,2255636, 0,6762669 -- Lamborguini

24/03/2018 13:23:26 -- 17,42566  -- 0,2260983, 0,6761881 -- Lamborguini

24/03/2018 13:23:26 -- 17,44437  -- 0,2269587, 0,6758369 -- Lamborguini

24/03/2018 13:23:26 -- 17,47121  -- 0,2277754, 0,6754713 -- Lamborguini

24/03/2018 13:23:26 -- 17,49019  -- 0,2280955, 0,6753138 -- Lamborguini

24/03/2018 13:23:26 -- 17,50898  -- 0,2293249, 0,674596 -- Lamborguini

24/03/2018 13:23:26 -- 17,52949  -- 0,2299404, 0,6741309 -- Lamborguini

24/03/2018 13:23:26 -- 17,54772  -- 0,230056, 0,674107 -- Lamborguini

24/03/2018 13:23:26 -- 17,57191  -- 0,230344, 0,6739414 -- Lamborguini

24/03/2018 13:23:26 -- 17,59195  -- 0,2304765, 0,673998 -- Lamborguini

24/03/2018 13:23:26 -- 17,61087  -- 0,2304291, 0,67388 -- Lamborguini

24/03/2018 13:23:26 -- 17,63143  -- 0,2300464, 0,6739058 -- Lamborguini

24/03/2018 13:23:26 -- 17,65575  -- 0,2297136, 0,6741371 -- Lamborguini

24/03/2018 13:23:26 -- 17,67338  -- 0,2292571, 0,6742111 -- Lamborguini

24/03/2018 13:23:26 -- 17,69711  -- 0,228866, 0,6744511 -- Lamborguini

24/03/2018 13:23:26 -- 17,71469  -- 0,2283428, 0,6745642 -- Lamborguini

24/03/2018 13:23:26 -- 17,73389  -- 0,2277963, 0,6747269 -- Lamborguini

24/03/2018 13:23:26 -- 17,75237  -- 0,2271891, 0,6749966 -- Lamborguini

24/03/2018 13:23:26 -- 17,77376  -- 0,2264256, 0,6751516 -- Lamborguini

24/03/2018 13:23:26 -- 17,79191  -- 0,2259157, 0,6752522 -- Lamborguini

24/03/2018 13:23:26 -- 17,8175  -- 0,2249348, 0,675356 -- Lamborguini

24/03/2018 13:23:26 -- 17,83682  -- 0,2238133, 0,6755174 -- Lamborguini

24/03/2018 13:23:26 -- 18,00553  -- 0,2139744, 0,6766539 -- Audi

24/03/2018 13:23:26 -- 18,03026  -- 0,2128135, 0,6765931 -- Audi

24/03/2018 13:23:26 -- 18,05688  -- 0,2122225, 0,6765507 -- Audi

24/03/2018 13:23:26 -- 18,07443  -- 0,2110903, 0,6765065 -- Audi

24/03/2018 13:23:26 -- 18,09326  -- 0,2098053, 0,6763713 -- Audi

24/03/2018 13:23:26 -- 18,11095  -- 0,2083472, 0,6762424 -- Audi

24/03/2018 13:23:26 -- 18,12971  -- 0,2068878, 0,6760619 -- Audi

24/03/2018 13:23:27 -- 18,15004  -- 0,2051802, 0,6758402 -- Audi

24/03/2018 13:23:27 -- 18,17722  -- 0,204244, 0,6757175 -- Audi

24/03/2018 13:23:27 -- 18,19419  -- 0,2025554, 0,6754933 -- Audi

24/03/2018 13:23:27 -- 18,21218  -- 0,2006426, 0,6752039 -- Audi

24/03/2018 13:23:27 -- 18,22959  -- 0,1988133, 0,6747429 -- Audi

24/03/2018 13:23:27 -- 18,25116  -- 0,1969028, 0,6743671 -- Audi

24/03/2018 13:23:27 -- 18,2692  -- 0,1963356, 0,6742854 -- Audi

24/03/2018 13:23:27 -- 18,28658  -- 0,194986, 0,6741172 -- Audi

24/03/2018 13:23:27 -- 18,3135  -- 0,1941946, 0,673971 -- Audi

24/03/2018 13:23:27 -- 18,33203  -- 0,1936936, 0,6739832 -- Audi

24/03/2018 13:23:27 -- 18,35064  -- 0,1930627, 0,6740689 -- Audi

24/03/2018 13:23:27 -- 18,3697  -- 0,1931546, 0,6741091 -- Audi

24/03/2018 13:23:27 -- 18,38769  -- 0,1926183, 0,6742294 -- Audi

24/03/2018 13:23:27 -- 18,40616  -- 0,1923533, 0,6745767 -- Audi

24/03/2018 13:23:27 -- 18,43159  -- 0,1920184, 0,6748208 -- Audi

24/03/2018 13:23:27 -- 18,44897  -- 0,1913967, 0,6752321 -- Audi

24/03/2018 13:23:27 -- 18,4672  -- 0,1906675, 0,6758147 -- Audi

24/03/2018 13:23:27 -- 18,48403  -- 0,1896863, 0,6764208 -- Audi

24/03/2018 13:23:27 -- 18,50251  -- 0,1891777, 0,6769675 -- Audi

24/03/2018 13:23:27 -- 18,52022  -- 0,1879164, 0,6777402 -- Audi

24/03/2018 13:23:27 -- 18,54021  -- 0,186873, 0,6789275 -- Audi

24/03/2018 13:23:27 -- 18,56258  -- 0,1866238, 0,6798543 -- Audi

24/03/2018 13:23:27 -- 19,02409  -- 0,1841913, 0,705209 -- Audi

24/03/2018 13:23:27 -- 19,03982  -- 0,1847399, 0,7056662 -- Audi

24/03/2018 13:23:27 -- 19,05846  -- 0,1852312, 0,7066537 -- Audi

24/03/2018 13:23:27 -- 19,07614  -- 0,186074, 0,707656 -- Audi

24/03/2018 13:23:27 -- 19,09654  -- 0,1870259, 0,7085592 -- Audi

24/03/2018 13:23:27 -- 19,11411  -- 0,1874706, 0,7088892 -- Audi

24/03/2018 13:23:28 -- 19,13134  -- 0,1883611, 0,7096924 -- Audi

24/03/2018 13:23:28 -- 19,1521  -- 0,1892708, 0,7105926 -- Audi

24/03/2018 13:23:28 -- 19,1719  -- 0,1899295, 0,7108964 -- Audi

24/03/2018 13:23:28 -- 19,19191  -- 0,1906655, 0,7114486 -- Audi

24/03/2018 13:23:28 -- 19,21457  -- 0,1913552, 0,7116936 -- Audi

24/03/2018 13:23:28 -- 19,23349  -- 0,1920654, 0,7118965 -- Audi

24/03/2018 13:23:28 -- 19,25471  -- 0,1926496, 0,7121443 -- Audi

24/03/2018 13:23:28 -- 19,27182  -- 0,1932596, 0,7121587 -- Audi

24/03/2018 13:23:28 -- 19,30179  -- 0,1936704, 0,7120659 -- Audi

24/03/2018 13:23:28 -- 19,33107  -- 0,1942113, 0,7118419 -- Audi

24/03/2018 13:23:28 -- 19,34799  -- 0,1943571, 0,7117772 -- Audi

24/03/2018 13:23:28 -- 19,36648  -- 0,1947974, 0,7116574 -- Audi

24/03/2018 13:23:28 -- 19,38529  -- 0,1952581, 0,7116462 -- Audi

24/03/2018 13:23:28 -- 19,40348  -- 0,1954394, 0,7114747 -- Audi

24/03/2018 13:23:28 -- 19,42622  -- 0,1957555, 0,7113311 -- Audi

24/03/2018 13:23:28 -- 19,44469  -- 0,1961243, 0,7109933 -- Audi

24/03/2018 13:23:28 -- 19,4641  -- 0,1965066, 0,7107183 -- Audi

24/03/2018 13:23:28 -- 19,48432  -- 0,1970201, 0,710721 -- Audi

24/03/2018 13:23:28 -- 19,50511  -- 0,1973731, 0,7107111 -- Audi

24/03/2018 13:23:28 -- 19,52551  -- 0,1978448, 0,7107971 -- Audi

24/03/2018 13:23:28 -- 19,54462  -- 0,1982332, 0,7108008 -- Audi

24/03/2018 13:23:28 -- 19,56432  -- 0,1985049, 0,7108667 -- Audi

24/03/2018 13:23:28 -- 19,58874  -- 0,1984641, 0,7110741 -- Audi

24/03/2018 13:23:28 -- 19,60649  -- 0,198376, 0,7112671 -- Audi

24/03/2018 13:23:28 -- 19,62602  -- 0,1979463, 0,7115837 -- Audi

24/03/2018 13:23:28 -- 19,64493  -- 0,1971915, 0,7119676 -- Audi

24/03/2018 13:23:28 -- 19,66981  -- 0,1961183, 0,712342 -- Audi

24/03/2018 13:23:28 -- 19,69044  -- 0,1946688, 0,7128602 -- Audi

24/03/2018 13:23:28 -- 19,70927  -- 0,1928941, 0,7133727 -- Audi

24/03/2018 13:23:28 -- 19,72995  -- 0,1906985, 0,7138445 -- Audi

24/03/2018 13:23:28 -- 19,7483  -- 0,1892161, 0,7143109 -- Audi

24/03/2018 13:23:28 -- 19,77779  -- 0,1868124, 0,7148908 -- Audi

24/03/2018 13:23:28 -- 19,79743  -- 0,1841859, 0,7154082 -- Audi

24/03/2018 13:23:28 -- 19,82204  -- 0,1805024, 0,7162717 -- Audi

24/03/2018 13:23:28 -- 19,84045  -- 0,178916, 0,7165921 -- Audi

24/03/2018 13:23:28 -- 19,8639  -- 0,1751358, 0,7174385 -- Audi

24/03/2018 13:23:28 -- 19,88555  -- 0,1726181, 0,7181405 -- Audi

24/03/2018 13:23:28 -- 19,91457  -- 0,1701436, 0,7185731 -- Audi

24/03/2018 13:23:28 -- 19,93332  -- 0,1677209, 0,7188343 -- Audi

24/03/2018 13:23:28 -- 19,952  -- 0,1652196, 0,7193188 -- Audi

24/03/2018 13:23:28 -- 19,97563  -- 0,1632915, 0,719867 -- Audi

24/03/2018 13:23:28 -- 19,99754  -- 0,1613496, 0,720274 -- Audi

24/03/2018 13:23:28 -- 20,02468  -- 0,1589709, 0,7207748 -- Audi

24/03/2018 13:23:28 -- 20,04468  -- 0,1567375, 0,7210279 -- Audi

24/03/2018 13:23:28 -- 20,06464  -- 0,1545575, 0,7211413 -- Audi

24/03/2018 13:23:28 -- 20,084  -- 0,1519755, 0,7212796 -- Audi

24/03/2018 13:23:28 -- 20,11189  -- 0,1494436, 0,7211401 -- Audi

24/03/2018 13:23:29 -- 20,13586  -- 0,1464802, 0,7208168 -- Audi

24/03/2018 13:23:29 -- 20,15551  -- 0,1432577, 0,7205652 -- Audi

24/03/2018 13:23:29 -- 20,17558  -- 0,1404434, 0,720186 -- Audi

24/03/2018 13:23:29 -- 20,19833  -- 0,1376208, 0,7196132 -- Audi

24/03/2018 13:23:29 -- 20,22046  -- 0,1346985, 0,7191385 -- Audi

24/03/2018 13:23:29 -- 20,24089  -- 0,1322611, 0,7186582 -- Audi

24/03/2018 13:23:29 -- 20,26575  -- 0,1304217, 0,7183385 -- Audi

24/03/2018 13:23:29 -- 20,29045  -- 0,128381, 0,7180859 -- Audi

24/03/2018 13:23:29 -- 20,30883  -- 0,1264445, 0,7175611 -- Audi

24/03/2018 13:23:29 -- 20,33057  -- 0,1245362, 0,7171011 -- Audi

24/03/2018 13:23:29 -- 20,35393  -- 0,1225156, 0,7167025 -- Audi

24/03/2018 13:23:29 -- 20,38113  -- 0,1210598, 0,7163368 -- Audi

24/03/2018 13:23:29 -- 20,39997  -- 0,1196076, 0,7159362 -- Audi

24/03/2018 13:23:29 -- 20,42055  -- 0,1179187, 0,7153909 -- Audi

24/03/2018 13:23:29 -- 20,44066  -- 0,1165448, 0,7148455 -- Audi

24/03/2018 13:23:29 -- 20,46469  -- 0,1151351, 0,7142416 -- Audi

24/03/2018 13:23:29 -- 20,48534  -- 0,1138396, 0,7135713 -- Audi

24/03/2018 13:23:29 -- 20,51466  -- 0,1127335, 0,7127951 -- Audi

24/03/2018 13:23:29 -- 20,53476  -- 0,1116735, 0,7118202 -- Audi

24/03/2018 13:23:29 -- 20,55459  -- 0,1107435, 0,7108568 -- Audi

24/03/2018 13:23:29 -- 20,57511  -- 0,1097877, 0,7099056 -- Audi

24/03/2018 13:23:29 -- 20,59753  -- 0,1088938, 0,7088811 -- Audi

24/03/2018 13:23:29 -- 20,62616  -- 0,1081517, 0,7074285 -- Audi

24/03/2018 13:23:30 -- 21,43008  -- 0,1078179, 0,6915631 -- Viper

24/03/2018 13:23:30 -- 21,70564  -- 0,1253364, 0,6965014 -- Audi

24/03/2018 13:23:30 -- 21,72372  -- 0,1257205, 0,6978322 -- Audi

24/03/2018 13:23:30 -- 21,74274  -- 0,1261473, 0,698957 -- Audi

24/03/2018 13:23:30 -- 21,76253  -- 0,1262375, 0,7000798 -- Audi

24/03/2018 13:23:30 -- 21,79212  -- 0,1262955, 0,7010702 -- Audi

24/03/2018 13:23:30 -- 21,81202  -- 0,1260729, 0,7020019 -- Audi

24/03/2018 13:23:30 -- 21,83336  -- 0,1258883, 0,7028297 -- Audi

24/03/2018 13:23:30 -- 21,85341  -- 0,1256452, 0,7034069 -- Audi

24/03/2018 13:23:30 -- 21,87331  -- 0,1256351, 0,7042134 -- Audi

24/03/2018 13:23:30 -- 21,90268  -- 0,12572, 0,7050386 -- Audi

24/03/2018 13:23:30 -- 21,92177  -- 0,1259223, 0,7058698 -- Audi

24/03/2018 13:23:30 -- 21,94266  -- 0,1258548, 0,7065504 -- Audi

24/03/2018 13:23:30 -- 21,96251  -- 0,1257931, 0,7070016 -- Audi

24/03/2018 13:23:30 -- 21,98934  -- 0,1258427, 0,7076631 -- Audi

24/03/2018 13:23:30 -- 22,0084  -- 0,1262451, 0,7082585 -- Audi

24/03/2018 13:23:30 -- 22,02956  -- 0,1268417, 0,7086695 -- Audi

24/03/2018 13:23:30 -- 22,05332  -- 0,1273393, 0,7090194 -- Audi

24/03/2018 13:23:30 -- 22,07326  -- 0,1280643, 0,709245 -- Audi

24/03/2018 13:23:30 -- 22,09747  -- 0,1288423, 0,7094026 -- Audi

24/03/2018 13:23:30 -- 22,1178  -- 0,1296535, 0,7097187 -- Audi

24/03/2018 13:23:31 -- 22,14812  -- 0,1306854, 0,7098984 -- Audi

24/03/2018 13:23:31 -- 22,16734  -- 0,1314015, 0,7100828 -- Audi

24/03/2018 13:23:31 -- 22,18715  -- 0,132002, 0,7103505 -- Audi

24/03/2018 13:23:31 -- 22,2063  -- 0,1325153, 0,7107396 -- Audi

24/03/2018 13:23:31 -- 22,23058  -- 0,1329961, 0,7109737 -- Audi

24/03/2018 13:23:31 -- 22,26047  -- 0,1333465, 0,7110648 -- Audi

24/03/2018 13:23:31 -- 22,28085  -- 0,1340271, 0,7110095 -- Audi

24/03/2018 13:23:31 -- 22,30049  -- 0,1348667, 0,7112163 -- Audi

24/03/2018 13:23:31 -- 22,31982  -- 0,1358289, 0,7116709 -- Audi

24/03/2018 13:23:31 -- 22,3419  -- 0,1367137, 0,7118596 -- Audi

24/03/2018 13:23:31 -- 22,3638  -- 0,1377057, 0,7121438 -- Audi

24/03/2018 13:23:31 -- 22,39005  -- 0,1391101, 0,71284 -- Audi

24/03/2018 13:23:31 -- 22,41195  -- 0,1403652, 0,7136293 -- Audi

24/03/2018 13:23:31 -- 22,43095  -- 0,1415257, 0,7139815 -- Audi

24/03/2018 13:23:31 -- 22,46136  -- 0,1427824, 0,7145203 -- Audi

24/03/2018 13:23:31 -- 22,48104  -- 0,1439066, 0,7149032 -- Audi

24/03/2018 13:23:31 -- 22,49893  -- 0,1448527, 0,7152698 -- Audi

24/03/2018 13:23:31 -- 22,51867  -- 0,1458642, 0,7158819 -- Audi

24/03/2018 13:23:31 -- 22,54179  -- 0,1466586, 0,7162427 -- Audi

24/03/2018 13:23:31 -- 22,5634  -- 0,1472633, 0,7166822 -- Audi

24/03/2018 13:23:31 -- 22,59422  -- 0,1478481, 0,7173095 -- Audi

24/03/2018 13:23:31 -- 22,61304  -- 0,1483183, 0,7173164 -- Audi

24/03/2018 13:23:31 -- 22,6318  -- 0,1488628, 0,7173768 -- Audi

24/03/2018 13:23:31 -- 22,65289  -- 0,1492683, 0,7173663 -- Audi

24/03/2018 13:23:31 -- 22,67295  -- 0,14976, 0,7176775 -- Audi

24/03/2018 13:23:31 -- 22,70451  -- 0,15016, 0,7175927 -- Audi

24/03/2018 13:23:31 -- 22,72206  -- 0,1505229, 0,7174188 -- Audi

24/03/2018 13:23:31 -- 22,74558  -- 0,1510364, 0,7175144 -- Audi

24/03/2018 13:23:31 -- 22,76555  -- 0,1514178, 0,7173502 -- Audi

24/03/2018 13:23:31 -- 22,78809  -- 0,1521254, 0,717536 -- Audi

24/03/2018 13:23:31 -- 22,81705  -- 0,1530614, 0,7174917 -- Audi

24/03/2018 13:23:31 -- 22,83629  -- 0,1545147, 0,7175123 -- Audi

24/03/2018 13:23:31 -- 22,85576  -- 0,1564658, 0,7177261 -- Audi

24/03/2018 13:23:31 -- 22,8738  -- 0,1592517, 0,7183174 -- Audi

24/03/2018 13:23:31 -- 22,8978  -- 0,1625254, 0,7186979 -- Audi

24/03/2018 13:23:31 -- 22,91399  -- 0,1646744, 0,7190138 -- Audi

24/03/2018 13:23:31 -- 22,94549  -- 0,1680968, 0,719232 -- Audi

24/03/2018 13:23:31 -- 22,96414  -- 0,171681, 0,7195296 -- Audi

24/03/2018 13:23:31 -- 22,98767  -- 0,1770774, 0,7198078 -- Audi

24/03/2018 13:23:31 -- 23,00596  -- 0,1807529, 0,7197499 -- Audi

24/03/2018 13:23:31 -- 23,03251  -- 0,183909, 0,7196475 -- Audi

24/03/2018 13:23:31 -- 23,05268  -- 0,1869155, 0,7194884 -- Audi

24/03/2018 13:23:31 -- 23,07582  -- 0,1895066, 0,7192808 -- Audi

24/03/2018 13:23:31 -- 23,09715  -- 0,1920885, 0,7189665 -- Audi

24/03/2018 13:23:31 -- 23,1127  -- 0,1934435, 0,7188346 -- Audi

24/03/2018 13:23:32 -- 23,13114  -- 0,1957996, 0,7184356 -- Audi

24/03/2018 13:23:32 -- 23,14997  -- 0,1984003, 0,7180176 -- Audi

24/03/2018 13:23:32 -- 23,18141  -- 0,2005629, 0,7175004 -- Audi

24/03/2018 13:23:32 -- 23,19957  -- 0,2025107, 0,7169367 -- Audi

24/03/2018 13:23:32 -- 23,22045  -- 0,2043761, 0,7162505 -- Audi

24/03/2018 13:23:32 -- 23,23798  -- 0,2054937, 0,7159405 -- Audi

24/03/2018 13:23:32 -- 23,256  -- 0,2075382, 0,7151452 -- Audi

24/03/2018 13:23:32 -- 23,27391  -- 0,2098626, 0,7143862 -- Audi

24/03/2018 13:23:32 -- 23,30017  -- 0,2115766, 0,7134961 -- Audi

24/03/2018 13:23:32 -- 23,31671  -- 0,2123314, 0,7131939 -- Audi

24/03/2018 13:23:32 -- 23,33718  -- 0,2138166, 0,7124982 -- Audi

24/03/2018 13:23:32 -- 23,35603  -- 0,2151908, 0,7117404 -- Audi

24/03/2018 13:23:32 -- 23,37659  -- 0,21681, 0,7110461 -- Audi

24/03/2018 13:23:32 -- 23,39921  -- 0,2181239, 0,7102264 -- Audi

24/03/2018 13:23:32 -- 23,4197  -- 0,2193903, 0,7093223 -- Audi

24/03/2018 13:23:32 -- 23,43999  -- 0,220648, 0,7086722 -- Audi

24/03/2018 13:23:32 -- 23,463  -- 0,2215553, 0,7079544 -- Audi

24/03/2018 13:23:32 -- 23,49028  -- 0,2216885, 0,7077205 -- Audi

24/03/2018 13:23:32 -- 23,50995  -- 0,2231753, 0,7069168 -- Audi

24/03/2018 13:23:32 -- 23,53024  -- 0,2238292, 0,7065173 -- Audi

24/03/2018 13:23:32 -- 23,8653  -- 0,2287042, 0,7036721 -- Lamborguini

24/03/2018 13:23:32 -- 23,90383  -- 0,2292386, 0,7030849 -- Lamborguini

24/03/2018 13:23:32 -- 23,92146  -- 0,2299603, 0,7023758 -- Lamborguini

24/03/2018 13:23:32 -- 23,94788  -- 0,2303385, 0,7018384 -- Lamborguini

24/03/2018 13:23:32 -- 23,96467  -- 0,23036, 0,7017404 -- Lamborguini

24/03/2018 13:23:32 -- 23,98484  -- 0,2307769, 0,7010586 -- Lamborguini

24/03/2018 13:23:32 -- 24,00264  -- 0,2310415, 0,7007664 -- Lamborguini

24/03/2018 13:23:32 -- 24,02189  -- 0,2314059, 0,7002397 -- Lamborguini

24/03/2018 13:23:32 -- 24,04462  -- 0,2316967, 0,6997317 -- Lamborguini

24/03/2018 13:23:32 -- 24,06411  -- 0,2319592, 0,6993783 -- Lamborguini

24/03/2018 13:23:32 -- 24,08324  -- 0,2320772, 0,6990299 -- Lamborguini

24/03/2018 13:23:32 -- 24,10791  -- 0,2321697, 0,6987906 -- Lamborguini

24/03/2018 13:23:33 -- 24,13655  -- 0,2323117, 0,6985344 -- Lamborguini

24/03/2018 13:23:33 -- 24,15467  -- 0,2323794, 0,6984206 -- Lamborguini

24/03/2018 13:23:33 -- 24,17403  -- 0,2324205, 0,6982359 -- Lamborguini

24/03/2018 13:23:33 -- 24,19147  -- 0,2322813, 0,698338 -- Lamborguini

24/03/2018 13:23:33 -- 24,20976  -- 0,2320961, 0,6983104 -- Lamborguini

24/03/2018 13:23:33 -- 24,22873  -- 0,2317612, 0,698571 -- Lamborguini

24/03/2018 13:23:33 -- 24,26099  -- 0,231219, 0,6989645 -- Lamborguini

24/03/2018 13:23:33 -- 24,27812  -- 0,2309249, 0,6991606 -- Lamborguini

24/03/2018 13:23:33 -- 24,29584  -- 0,2303355, 0,6994624 -- Lamborguini

24/03/2018 13:23:33 -- 24,31684  -- 0,2297094, 0,6996779 -- Lamborguini

24/03/2018 13:23:33 -- 24,6853  -- 0,2207603, 0,7002452 -- Audi

24/03/2018 13:23:33 -- 24,70374  -- 0,2205254, 0,7000551 -- Audi

24/03/2018 13:23:33 -- 24,72157  -- 0,2200486, 0,6997617 -- Audi

24/03/2018 13:23:33 -- 24,74277  -- 0,2194052, 0,6993608 -- Audi

24/03/2018 13:23:33 -- 24,76274  -- 0,218828, 0,6989165 -- Audi

24/03/2018 13:23:33 -- 24,78605  -- 0,2184185, 0,6984143 -- Audi

24/03/2018 13:23:33 -- 24,80283  -- 0,2181798, 0,6980876 -- Audi

24/03/2018 13:23:33 -- 24,82077  -- 0,2177977, 0,6975864 -- Audi

24/03/2018 13:23:33 -- 24,84091  -- 0,2173095, 0,6969235 -- Audi

24/03/2018 13:23:33 -- 24,86983  -- 0,2173341, 0,6967191 -- Audi

24/03/2018 13:23:33 -- 24,88817  -- 0,2170808, 0,6961966 -- Audi

24/03/2018 13:23:33 -- 24,90603  -- 0,2163898, 0,6951836 -- Audi

24/03/2018 13:23:33 -- 24,92774  -- 0,2161281, 0,6947396 -- Audi

24/03/2018 13:23:33 -- 24,95303  -- 0,2159228, 0,6943653 -- Audi

24/03/2018 13:23:33 -- 24,97493  -- 0,2156614, 0,6937647 -- Audi

24/03/2018 13:23:33 -- 24,99281  -- 0,2157011, 0,693697 -- Audi

24/03/2018 13:23:33 -- 25,01224  -- 0,2153479, 0,6931219 -- Audi

24/03/2018 13:23:33 -- 25,03045  -- 0,2152206, 0,6928042 -- Audi

24/03/2018 13:23:33 -- 25,0628  -- 0,2152298, 0,6924959 -- Audi

24/03/2018 13:23:33 -- 25,08214  -- 0,2153355, 0,6925568 -- Audi

24/03/2018 13:23:33 -- 25,10117  -- 0,2149696, 0,6918675 -- Audi

24/03/2018 13:23:33 -- 25,11977  -- 0,214859, 0,6917446 -- Audi

24/03/2018 13:23:34 -- 25,14083  -- 0,2145283, 0,6914611 -- Audi

24/03/2018 13:23:34 -- 25,15965  -- 0,2145144, 0,6915481 -- Audi

24/03/2018 13:23:34 -- 25,18151  -- 0,2141259, 0,6912296 -- Audi

24/03/2018 13:23:34 -- 25,20007  -- 0,2139212, 0,691213 -- Audi

24/03/2018 13:23:34 -- 25,22104  -- 0,2134891, 0,6910354 -- Audi

24/03/2018 13:23:34 -- 25,23872  -- 0,2131705, 0,6911783 -- Audi

24/03/2018 13:23:34 -- 25,26205  -- 0,2129385, 0,691238 -- Audi

24/03/2018 13:23:34 -- 25,28109  -- 0,2127746, 0,691165 -- Audi

24/03/2018 13:23:34 -- 25,30019  -- 0,2126596, 0,6912497 -- Audi

24/03/2018 13:23:34 -- 25,31921  -- 0,2125354, 0,6913522 -- Audi

24/03/2018 13:23:34 -- 25,34915  -- 0,2122056, 0,6912813 -- Audi

24/03/2018 13:23:34 -- 25,36898  -- 0,2121436, 0,6912994 -- Audi

24/03/2018 13:23:34 -- 25,38775  -- 0,2120765, 0,6911904 -- Audi

24/03/2018 13:23:34 -- 25,40638  -- 0,2117887, 0,6909992 -- Audi

24/03/2018 13:23:34 -- 25,431  -- 0,2118877, 0,691013 -- Audi

24/03/2018 13:23:34 -- 25,44987  -- 0,2116394, 0,6907175 -- Audi

24/03/2018 13:23:34 -- 25,46934  -- 0,2116732, 0,690558 -- Audi

24/03/2018 13:23:34 -- 25,48932  -- 0,2117377, 0,6904114 -- Audi

24/03/2018 13:23:34 -- 25,50786  -- 0,2115642, 0,6901674 -- Audi

24/03/2018 13:23:34 -- 25,53353  -- 0,2115932, 0,6897845 -- Audi

24/03/2018 13:23:34 -- 25,55087  -- 0,2116813, 0,6894803 -- Audi

24/03/2018 13:23:34 -- 25,57074  -- 0,2114404, 0,6890305 -- Audi

24/03/2018 13:23:34 -- 25,5907  -- 0,2114551, 0,6885853 -- Audi

24/03/2018 13:23:34 -- 25,61637  -- 0,2112498, 0,6881491 -- Audi

24/03/2018 13:23:34 -- 25,63581  -- 0,2112423, 0,6876936 -- Audi

24/03/2018 13:23:34 -- 25,65538  -- 0,2112334, 0,687149 -- Audi

24/03/2018 13:23:34 -- 25,67467  -- 0,2110024, 0,6864127 -- Audi

24/03/2018 13:23:34 -- 25,69562  -- 0,2110194, 0,6855571 -- Audi

24/03/2018 13:23:34 -- 25,71431  -- 0,2108878, 0,6850567 -- Audi

24/03/2018 13:23:37 -- 28,82205  -- 0,215877, 0,6984967 -- Lamborguini

24/03/2018 13:23:37 -- 28,84188  -- 0,2170236, 0,698983 -- Lamborguini

24/03/2018 13:23:37 -- 28,8649  -- 0,2182441, 0,6993044 -- Lamborguini

24/03/2018 13:23:37 -- 28,88252  -- 0,2188558, 0,699362 -- Lamborguini

24/03/2018 13:23:37 -- 28,91062  -- 0,2201977, 0,6997316 -- Lamborguini

24/03/2018 13:23:37 -- 28,92949  -- 0,2221974, 0,7000611 -- Lamborguini

24/03/2018 13:23:37 -- 28,94787  -- 0,2236675, 0,7002427 -- Lamborguini

24/03/2018 13:23:37 -- 28,96652  -- 0,2252395, 0,7003815 -- Lamborguini

24/03/2018 13:23:37 -- 28,9858  -- 0,2265257, 0,7003421 -- Lamborguini

24/03/2018 13:23:37 -- 29,00657  -- 0,2278513, 0,7003103 -- Lamborguini

24/03/2018 13:23:37 -- 29,0258  -- 0,2283705, 0,7000763 -- Lamborguini

24/03/2018 13:23:37 -- 29,049  -- 0,229557, 0,6997716 -- Lamborguini

24/03/2018 13:23:37 -- 29,06744  -- 0,2307943, 0,6996014 -- Lamborguini

24/03/2018 13:23:37 -- 29,08899  -- 0,2315929, 0,699469 -- Lamborguini

24/03/2018 13:23:37 -- 29,10757  -- 0,232392, 0,6993017 -- Lamborguini

24/03/2018 13:23:37 -- 29,12461  -- 0,2324613, 0,6990399 -- Lamborguini

24/03/2018 13:23:38 -- 29,14656  -- 0,2333674, 0,6987067 -- Lamborguini

24/03/2018 13:23:38 -- 29,16576  -- 0,2338309, 0,6980791 -- Lamborguini

24/03/2018 13:23:38 -- 29,18515  -- 0,2342033, 0,6976095 -- Lamborguini

24/03/2018 13:23:38 -- 29,20183  -- 0,2342941, 0,6974984 -- Lamborguini

24/03/2018 13:23:38 -- 29,22004  -- 0,2344644, 0,697193 -- Lamborguini

24/03/2018 13:23:38 -- 29,23962  -- 0,2346988, 0,696977 -- Lamborguini

24/03/2018 13:23:38 -- 29,25959  -- 0,2344153, 0,696885 -- Lamborguini

24/03/2018 13:23:38 -- 29,27781  -- 0,2341454, 0,6968408 -- Lamborguini

24/03/2018 13:23:38 -- 29,30038  -- 0,2339637, 0,6968152 -- Lamborguini

24/03/2018 13:23:38 -- 29,31918  -- 0,2331731, 0,6969423 -- Lamborguini

24/03/2018 13:23:38 -- 29,33999  -- 0,2325432, 0,6970475 -- Lamborguini

24/03/2018 13:23:38 -- 29,35994  -- 0,231856, 0,6973308 -- Lamborguini

24/03/2018 13:23:38 -- 29,37746  -- 0,2308379, 0,6977241 -- Lamborguini

24/03/2018 13:23:38 -- 29,39557  -- 0,2298965, 0,6979944 -- Lamborguini

24/03/2018 13:23:38 -- 29,42097  -- 0,2291428, 0,698352 -- Lamborguini

24/03/2018 13:23:38 -- 29,43691  -- 0,228353, 0,6984915 -- Lamborguini

24/03/2018 13:23:38 -- 29,45576  -- 0,2275414, 0,6988199 -- Lamborguini

24/03/2018 13:23:38 -- 29,47523  -- 0,2268724, 0,6989857 -- Lamborguini

24/03/2018 13:23:38 -- 29,49412  -- 0,2263683, 0,6993193 -- Lamborguini

24/03/2018 13:23:38 -- 29,51309  -- 0,2253169, 0,6999147 -- Lamborguini

24/03/2018 13:23:38 -- 29,63827  -- 0,2187034, 0,7028006 -- Audi

24/03/2018 13:23:38 -- 29,66399  -- 0,2174387, 0,7033852 -- Audi

24/03/2018 13:23:38 -- 29,68316  -- 0,2169747, 0,7038929 -- Audi

24/03/2018 13:23:38 -- 29,70198  -- 0,2161367, 0,7041266 -- Audi

24/03/2018 13:23:38 -- 29,72046  -- 0,2154882, 0,7046047 -- Audi

24/03/2018 13:23:38 -- 29,74467  -- 0,2149668, 0,7047362 -- Audi

24/03/2018 13:23:38 -- 29,76268  -- 0,2148311, 0,7050669 -- Audi

24/03/2018 13:23:38 -- 29,78607  -- 0,2141689, 0,7054402 -- Audi

24/03/2018 13:23:38 -- 29,80186  -- 0,2140153, 0,7054351 -- Audi

24/03/2018 13:23:38 -- 29,82523  -- 0,2136584, 0,7056193 -- Audi

24/03/2018 13:23:38 -- 29,84275  -- 0,2134701, 0,7055527 -- Audi

24/03/2018 13:23:38 -- 29,86227  -- 0,2133834, 0,7055995 -- Audi

24/03/2018 13:23:38 -- 29,88105  -- 0,2134275, 0,7056729 -- Audi

24/03/2018 13:23:38 -- 29,89928  -- 0,2134495, 0,7055453 -- Audi

24/03/2018 13:23:38 -- 29,91782  -- 0,2137321, 0,7054124 -- Audi

24/03/2018 13:23:38 -- 29,93581  -- 0,2141569, 0,7051815 -- Audi

24/03/2018 13:23:38 -- 29,95569  -- 0,2147208, 0,7049532 -- Audi

24/03/2018 13:23:38 -- 29,97408  -- 0,2153435, 0,7045877 -- Audi

24/03/2018 13:23:38 -- 29,99072  -- 0,215827, 0,7044138 -- Audi

24/03/2018 13:23:38 -- 30,00973  -- 0,2168091, 0,7039275 -- Audi

24/03/2018 13:23:38 -- 30,03128  -- 0,2178919, 0,7035023 -- Audi

24/03/2018 13:23:38 -- 30,05305  -- 0,2190352, 0,7030398 -- Audi

24/03/2018 13:23:39 -- 30,18588  -- 0,2250957, 0,7003536 -- Lamborguini

24/03/2018 13:23:39 -- 30,20314  -- 0,2256652, 0,7000396 -- Lamborguini

24/03/2018 13:23:39 -- 30,22711  -- 0,2267073, 0,6995091 -- Lamborguini

24/03/2018 13:23:39 -- 30,24441  -- 0,2277382, 0,6989498 -- Lamborguini

24/03/2018 13:23:39 -- 30,26301  -- 0,2285797, 0,6985627 -- Lamborguini

24/03/2018 13:23:39 -- 30,28049  -- 0,2288592, 0,6984158 -- Lamborguini

24/03/2018 13:23:39 -- 30,30183  -- 0,2296127, 0,6979303 -- Lamborguini

24/03/2018 13:23:39 -- 30,31988  -- 0,2305141, 0,6972153 -- Lamborguini

24/03/2018 13:23:39 -- 30,3411  -- 0,231917, 0,6962028 -- Lamborguini

24/03/2018 13:23:39 -- 30,35956  -- 0,2327187, 0,695629 -- Lamborguini

24/03/2018 13:23:39 -- 30,37761  -- 0,2339603, 0,6947373 -- Lamborguini

24/03/2018 13:23:39 -- 30,39538  -- 0,2350315, 0,6940129 -- Lamborguini

24/03/2018 13:23:39 -- 30,41996  -- 0,2354866, 0,6937538 -- Lamborguini

24/03/2018 13:23:39 -- 30,43508  -- 0,2364901, 0,6930876 -- Lamborguini

24/03/2018 13:23:39 -- 30,45418  -- 0,2373315, 0,6925221 -- Lamborguini

24/03/2018 13:23:39 -- 30,47521  -- 0,2381319, 0,6920267 -- Lamborguini

24/03/2018 13:23:39 -- 30,49566  -- 0,2384003, 0,6918442 -- Lamborguini

24/03/2018 13:23:39 -- 30,51857  -- 0,2384531, 0,6917726 -- Lamborguini

24/03/2018 13:23:39 -- 30,54618  -- 0,2382452, 0,6919242 -- Lamborguini

24/03/2018 13:23:39 -- 30,56231  -- 0,2378358, 0,691938 -- Lamborguini

24/03/2018 13:23:39 -- 30,57979  -- 0,2374256, 0,6919688 -- Lamborguini

24/03/2018 13:23:39 -- 30,5971  -- 0,2369862, 0,6921531 -- Lamborguini

24/03/2018 13:23:39 -- 30,61852  -- 0,2362226, 0,6923481 -- Lamborguini

24/03/2018 13:23:39 -- 30,63579  -- 0,2358296, 0,6924924 -- Lamborguini

24/03/2018 13:23:39 -- 30,65747  -- 0,2351546, 0,6925844 -- Lamborguini

24/03/2018 13:23:39 -- 30,67705  -- 0,2344821, 0,692829 -- Lamborguini

24/03/2018 13:23:39 -- 30,6963  -- 0,2336022, 0,6929868 -- Lamborguini

24/03/2018 13:23:39 -- 30,71355  -- 0,2331233, 0,6931182 -- Lamborguini

24/03/2018 13:23:39 -- 30,731  -- 0,2324708, 0,6932871 -- Lamborguini

24/03/2018 13:23:39 -- 30,75156  -- 0,2318262, 0,693441 -- Lamborguini

24/03/2018 13:23:39 -- 30,77457  -- 0,2313223, 0,693561 -- Lamborguini

24/03/2018 13:23:39 -- 30,79869  -- 0,2309579, 0,6937079 -- Lamborguini

24/03/2018 13:23:39 -- 30,81794  -- 0,2297429, 0,6941797 -- Lamborguini

24/03/2018 13:23:39 -- 30,83513  -- 0,2290269, 0,694483 -- Lamborguini

24/03/2018 13:23:39 -- 30,8532  -- 0,2278752, 0,694959 -- Lamborguini

24/03/2018 13:23:39 -- 30,9802  -- 0,2206521, 0,6978827 -- Audi

24/03/2018 13:23:39 -- 30,99775  -- 0,219445, 0,6985631 -- Audi

24/03/2018 13:23:39 -- 31,01677  -- 0,2184501, 0,6991017 -- Audi

24/03/2018 13:23:39 -- 31,03998  -- 0,2175266, 0,6993821 -- Audi

24/03/2018 13:23:39 -- 31,05746  -- 0,2173254, 0,6995816 -- Audi

24/03/2018 13:23:39 -- 31,07516  -- 0,216605, 0,6997744 -- Audi

24/03/2018 13:23:39 -- 31,10411  -- 0,2161007, 0,6999344 -- Audi

24/03/2018 13:23:39 -- 31,12176  -- 0,2159427, 0,699908 -- Audi

24/03/2018 13:23:40 -- 31,14106  -- 0,2149035, 0,7001551 -- Audi

24/03/2018 13:23:40 -- 31,15966  -- 0,2147817, 0,7001992 -- Audi

24/03/2018 13:23:40 -- 31,18321  -- 0,2144173, 0,7002822 -- Audi

24/03/2018 13:23:40 -- 31,20234  -- 0,2140358, 0,7003898 -- Audi

24/03/2018 13:23:40 -- 31,22143  -- 0,2138092, 0,7004184 -- Audi

24/03/2018 13:23:40 -- 31,24  -- 0,213596, 0,7005 -- Audi

24/03/2018 13:23:40 -- 31,26294  -- 0,2137699, 0,7004409 -- Audi

24/03/2018 13:23:40 -- 31,28258  -- 0,2140467, 0,7003761 -- Audi

24/03/2018 13:23:40 -- 31,30476  -- 0,2141754, 0,7003396 -- Audi

24/03/2018 13:23:40 -- 31,32365  -- 0,2145085, 0,7002243 -- Audi

24/03/2018 13:23:40 -- 31,34295  -- 0,2149573, 0,7000518 -- Audi

24/03/2018 13:23:40 -- 31,3613  -- 0,2153492, 0,6999416 -- Audi

24/03/2018 13:23:40 -- 31,3905  -- 0,2159451, 0,6998038 -- Audi

24/03/2018 13:23:40 -- 31,4092  -- 0,2162316, 0,6997333 -- Audi

24/03/2018 13:23:40 -- 31,42772  -- 0,2171724, 0,6994332 -- Audi

24/03/2018 13:23:40 -- 31,44655  -- 0,2179398, 0,6990975 -- Audi

24/03/2018 13:23:40 -- 31,55205  -- 0,2250248, 0,6958632 -- Lamborguini

24/03/2018 13:23:40 -- 31,57362  -- 0,2260944, 0,6953236 -- Lamborguini

24/03/2018 13:23:40 -- 31,5933  -- 0,2267585, 0,6949819 -- Lamborguini

24/03/2018 13:23:40 -- 31,6126  -- 0,2277771, 0,6944287 -- Lamborguini

24/03/2018 13:23:40 -- 31,63128  -- 0,2285739, 0,6940783 -- Lamborguini

24/03/2018 13:23:40 -- 31,65528  -- 0,2291197, 0,6937872 -- Lamborguini

24/03/2018 13:23:40 -- 31,67649  -- 0,2295168, 0,6936239 -- Lamborguini

24/03/2018 13:23:40 -- 31,6957  -- 0,2298209, 0,6934569 -- Lamborguini

24/03/2018 13:23:40 -- 31,71495  -- 0,2299216, 0,693327 -- Lamborguini

24/03/2018 13:23:40 -- 31,73509  -- 0,2303201, 0,693136 -- Lamborguini

24/03/2018 13:23:40 -- 31,75667  -- 0,2304553, 0,6929598 -- Lamborguini

24/03/2018 13:23:40 -- 31,77554  -- 0,2305458, 0,6928323 -- Lamborguini

24/03/2018 13:23:40 -- 31,79486  -- 0,2306651, 0,6927444 -- Lamborguini

24/03/2018 13:23:40 -- 31,82205  -- 0,2303366, 0,6927875 -- Lamborguini

24/03/2018 13:23:40 -- 31,8401  -- 0,2296523, 0,6930338 -- Lamborguini

24/03/2018 13:23:40 -- 31,85905  -- 0,2289626, 0,6932871 -- Lamborguini

24/03/2018 13:23:40 -- 31,92997  -- 0,2230843, 0,6955597 -- Audi

24/03/2018 13:23:40 -- 31,94831  -- 0,2216019, 0,6959978 -- Audi

24/03/2018 13:23:40 -- 31,96686  -- 0,2192615, 0,6968409 -- Audi

24/03/2018 13:23:40 -- 31,98642  -- 0,2165941, 0,6975764 -- Audi

24/03/2018 13:23:40 -- 32,0075  -- 0,2139303, 0,6983916 -- Audi

24/03/2018 13:23:40 -- 32,02533  -- 0,2122122, 0,698833 -- Audi

24/03/2018 13:23:40 -- 32,04618  -- 0,2090501, 0,699504 -- Audi

24/03/2018 13:23:40 -- 32,06374  -- 0,2059733, 0,7002348 -- Audi

24/03/2018 13:23:40 -- 32,08352  -- 0,2028664, 0,7008178 -- Audi

24/03/2018 13:23:40 -- 32,11584  -- 0,2000673, 0,7013967 -- Audi

24/03/2018 13:23:41 -- 32,13263  -- 0,1989812, 0,7014479 -- Audi

24/03/2018 13:23:41 -- 32,1508  -- 0,1953156, 0,7019149 -- Audi

24/03/2018 13:23:41 -- 32,1689  -- 0,1943537, 0,7019882 -- Audi

24/03/2018 13:23:41 -- 32,18626  -- 0,1924831, 0,7019596 -- Audi

24/03/2018 13:23:41 -- 32,20679  -- 0,1907067, 0,7019895 -- Audi

24/03/2018 13:23:41 -- 32,22514  -- 0,1902607, 0,7018754 -- Audi

24/03/2018 13:23:41 -- 32,24835  -- 0,1892045, 0,7018348 -- Audi

24/03/2018 13:23:41 -- 32,26493  -- 0,1879994, 0,702094 -- Audi

24/03/2018 13:23:41 -- 32,28418  -- 0,1871141, 0,7024027 -- Audi

24/03/2018 13:23:41 -- 32,30759  -- 0,186318, 0,7029862 -- Audi

24/03/2018 13:23:41 -- 32,32622  -- 0,1863164, 0,7033077 -- Audi

24/03/2018 13:23:41 -- 32,35324  -- 0,1859281, 0,7038706 -- Audi

24/03/2018 13:23:41 -- 32,3726  -- 0,185491, 0,7044617 -- Audi

24/03/2018 13:23:41 -- 32,39148  -- 0,1854424, 0,7049903 -- Audi

24/03/2018 13:23:41 -- 32,41345  -- 0,1854704, 0,7055305 -- Audi

24/03/2018 13:23:41 -- 32,43193  -- 0,185235, 0,7060827 -- Audi

24/03/2018 13:23:41 -- 32,45451  -- 0,1852955, 0,7065606 -- Audi

24/03/2018 13:23:41 -- 32,47439  -- 0,1852261, 0,7067965 -- Audi

24/03/2018 13:23:41 -- 32,49688  -- 0,1851375, 0,7074825 -- Audi

24/03/2018 13:23:41 -- 32,51669  -- 0,1851704, 0,7077162 -- Audi

24/03/2018 13:23:41 -- 32,53725  -- 0,1846335, 0,708222 -- Audi

24/03/2018 13:23:41 -- 32,5556  -- 0,1840495, 0,708684 -- Audi

24/03/2018 13:23:41 -- 32,57501  -- 0,1834531, 0,7090935 -- Audi

24/03/2018 13:23:41 -- 32,60201  -- 0,1826029, 0,7097385 -- Audi

24/03/2018 13:23:41 -- 32,62051  -- 0,181817, 0,7104025 -- Audi

24/03/2018 13:23:41 -- 32,64079  -- 0,1807463, 0,7111353 -- Audi

24/03/2018 13:23:41 -- 32,6644  -- 0,1794235, 0,7120876 -- Audi

24/03/2018 13:23:41 -- 32,68459  -- 0,1789131, 0,7124714 -- Audi

24/03/2018 13:23:41 -- 32,71138  -- 0,1779247, 0,7134164 -- Audi

24/03/2018 13:23:41 -- 32,73219  -- 0,1764075, 0,7148396 -- Audi

24/03/2018 13:23:41 -- 32,75158  -- 0,1755047, 0,7160374 -- Audi

24/03/2018 13:23:41 -- 32,77588  -- 0,1746766, 0,7170916 -- Audi

24/03/2018 13:23:41 -- 32,79734  -- 0,1739844, 0,7179455 -- Audi

24/03/2018 13:23:41 -- 32,8185  -- 0,1730811, 0,7187141 -- Audi

24/03/2018 13:23:41 -- 32,84449  -- 0,1720155, 0,7193953 -- Audi

24/03/2018 13:23:41 -- 32,86418  -- 0,1709955, 0,720201 -- Audi

24/03/2018 13:23:41 -- 32,88555  -- 0,1703011, 0,7208539 -- Audi

24/03/2018 13:23:41 -- 32,91246  -- 0,1699211, 0,7212257 -- Audi

24/03/2018 13:23:41 -- 32,93324  -- 0,1692263, 0,721715 -- Audi

24/03/2018 13:23:41 -- 32,95475  -- 0,1688975, 0,7220269 -- Audi

24/03/2018 13:23:41 -- 32,97583  -- 0,167902, 0,7222469 -- Audi

24/03/2018 13:23:41 -- 32,99666  -- 0,1674653, 0,722301 -- Audi

24/03/2018 13:23:41 -- 33,01991  -- 0,1672104, 0,7224075 -- Audi

24/03/2018 13:23:41 -- 33,04237  -- 0,1670419, 0,7223139 -- Audi

24/03/2018 13:23:41 -- 33,06833  -- 0,1668086, 0,7223897 -- Audi

24/03/2018 13:23:41 -- 33,09258  -- 0,1663739, 0,7223314 -- Audi

24/03/2018 13:23:41 -- 33,11341  -- 0,1654642, 0,7224165 -- Audi

24/03/2018 13:23:42 -- 33,1376  -- 0,1643426, 0,7226056 -- Audi

24/03/2018 13:23:42 -- 33,15687  -- 0,1634159, 0,7228844 -- Audi

24/03/2018 13:23:42 -- 33,18149  -- 0,1627375, 0,723418 -- Audi

24/03/2018 13:23:42 -- 33,20443  -- 0,1622364, 0,723633 -- Audi

24/03/2018 13:23:42 -- 33,22651  -- 0,1617876, 0,7235743 -- Audi

24/03/2018 13:23:42 -- 33,24697  -- 0,1611894, 0,723408 -- Audi

24/03/2018 13:23:42 -- 33,26799  -- 0,1608838, 0,723245 -- Audi

24/03/2018 13:23:42 -- 33,28907  -- 0,1605228, 0,7231264 -- Audi

24/03/2018 13:23:42 -- 33,31942  -- 0,160079, 0,7224737 -- Audi

24/03/2018 13:23:42 -- 33,34204  -- 0,160071, 0,7220578 -- Audi

24/03/2018 13:23:42 -- 33,36412  -- 0,1599754, 0,7212375 -- Audi

24/03/2018 13:23:42 -- 33,38596  -- 0,159635, 0,7211441 -- Audi

24/03/2018 13:23:42 -- 33,41282  -- 0,1592645, 0,7217152 -- Audi

24/03/2018 13:23:42 -- 33,44328  -- 0,1588988, 0,7222967 -- Audi

24/03/2018 13:23:42 -- 33,46711  -- 0,1581006, 0,7228451 -- Audi

24/03/2018 13:23:42 -- 33,49022  -- 0,1571175, 0,7238888 -- Audi

24/03/2018 13:23:42 -- 33,51036  -- 0,1561773, 0,7251431 -- Audi

24/03/2018 13:23:42 -- 33,5403  -- 0,1548996, 0,7265105 -- Audi

24/03/2018 13:23:42 -- 33,56108  -- 0,1532625, 0,7275927 -- Audi

24/03/2018 13:23:42 -- 33,58514  -- 0,1517797, 0,72838 -- Audi

24/03/2018 13:23:42 -- 33,60864  -- 0,1496964, 0,7293661 -- Audi

24/03/2018 13:23:42 -- 33,6313  -- 0,1484156, 0,7299871 -- Audi

24/03/2018 13:23:42 -- 33,65998  -- 0,147443, 0,7303023 -- Audi

24/03/2018 13:23:42 -- 33,68642  -- 0,1465728, 0,731001 -- Audi

24/03/2018 13:23:42 -- 33,70975  -- 0,1467298, 0,7313805 -- Audi

24/03/2018 13:23:42 -- 33,73635  -- 0,1468554, 0,7316027 -- Audi

24/03/2018 13:23:42 -- 33,75885  -- 0,147564, 0,7319281 -- Audi

24/03/2018 13:23:42 -- 33,77969  -- 0,1482273, 0,7324638 -- Audi

24/03/2018 13:23:42 -- 33,80006  -- 0,1490252, 0,733079 -- Audi

24/03/2018 13:23:42 -- 33,82207  -- 0,1499973, 0,7339809 -- Audi

24/03/2018 13:23:42 -- 33,84282  -- 0,1509805, 0,7355679 -- Audi

24/03/2018 13:23:42 -- 33,87104  -- 0,1511294, 0,7371397 -- Audi

24/03/2018 13:23:42 -- 33,89276  -- 0,1513851, 0,7394286 -- Audi

24/03/2018 13:23:42 -- 33,91489  -- 0,1518198, 0,7417786 -- Audi

24/03/2018 13:23:42 -- 33,93722  -- 0,1522662, 0,7442353 -- Audi

24/03/2018 13:23:42 -- 33,95717  -- 0,1517254, 0,7448945 -- Audi

24/03/2018 13:23:42 -- 33,97926  -- 0,1504347, 0,7434534 -- Audi

24/03/2018 13:23:42 -- 34,00433  -- 0,1497369, 0,7410605 -- Audi

24/03/2018 13:23:42 -- 34,0252  -- 0,1493931, 0,738545 -- Audi

24/03/2018 13:23:42 -- 34,04568  -- 0,1491714, 0,7358854 -- Audi

