26/03/2018 15:16:48;4,772156;-0,02057843;0,04986439;VideoAudi

26/03/2018 15:16:50;7,179022;0,004998105;0,04299352;VideoAudi

26/03/2018 15:16:51;7,281251;0,004909681;0,04370533;VideoAudi

26/03/2018 15:16:59;16,15549;0,01026858;0,06480521;VideoAudi

26/03/2018 15:16:59;16,17485;0,01330976;0,06106537;VideoAudi

26/03/2018 15:16:59;16,20595;0,01540487;0,0579151;VideoAudi

26/03/2018 15:17:00;16,24505;0,01315672;0,05094432;VideoAudi

26/03/2018 15:17:00;16,28054;0,01093669;0,04430595;VideoAudi

