26/03/2018 02:31:29;4,66142;0,1670603;1,069233;VideoAudi

26/03/2018 02:31:29;4,912059;0,08768526;0,9734684;Audi

26/03/2018 02:31:30;5,774115;0,03310901;0,912015;VideoAudi

26/03/2018 02:31:30;5,887747;0,0557596;0,8984828;VideoAudi

26/03/2018 02:31:31;6,649111;0,2426953;0,8875488;VideoAudi

26/03/2018 02:31:31;6,738557;0,2531617;0,8937548;VideoAudi

26/03/2018 02:31:31;6,772532;0,2561263;0,8959669;VideoAudi

26/03/2018 02:31:31;6,805613;0,2578115;0,8974947;VideoAudi

26/03/2018 02:31:40;15,55647;15,24711;19,42202;Lamborguini

26/03/2018 02:31:40;15,56719;15,24705;19,42182;Lamborguini

26/03/2018 02:31:40;15,5794;15,24695;19,42166;Lamborguini

26/03/2018 02:31:40;15,59073;15,24688;19,42147;Lamborguini

26/03/2018 02:31:40;15,60215;15,24679;19,42129;Lamborguini

26/03/2018 02:31:40;15,61566;15,2467;19,42107;Lamborguini

26/03/2018 02:31:40;15,62743;15,2466;19,42089;Lamborguini

26/03/2018 02:31:40;15,64004;15,24649;19,42064;Lamborguini

26/03/2018 02:31:40;15,6507;15,24637;19,42044;Lamborguini

26/03/2018 02:31:40;15,66417;15,24624;19,42025;Lamborguini

26/03/2018 02:31:40;15,6749;15,2461;19,42004;Lamborguini

26/03/2018 02:31:40;15,68999;15,24584;19,4195;Lamborguini

26/03/2018 02:31:40;15,70087;15,24569;19,41929;Lamborguini

26/03/2018 02:31:40;15,71243;15,24558;19,41894;Lamborguini

26/03/2018 02:31:40;15,72371;15,24542;19,41873;Lamborguini

26/03/2018 02:31:40;15,73572;15,24524;19,41854;Lamborguini

26/03/2018 02:31:40;15,75033;15,24514;19,41819;Lamborguini

26/03/2018 02:31:40;15,76283;15,245;19,41802;Lamborguini

26/03/2018 02:31:40;15,77334;15,24487;19,41788;Lamborguini

26/03/2018 02:31:40;15,82351;15,24443;19,417;Lamborguini

26/03/2018 02:31:40;15,87866;15,24428;19,4167;Lamborguini

26/03/2018 02:31:40;15,89089;15,24428;19,41682;Lamborguini

26/03/2018 02:31:40;15,90215;15,24423;19,41707;Lamborguini

26/03/2018 02:31:40;15,91635;15,24436;19,41721;Lamborguini

26/03/2018 02:31:40;15,92813;15,24438;19,4176;Lamborguini

26/03/2018 02:31:40;15,94129;15,2444;19,41809;Lamborguini

26/03/2018 02:31:40;15,95197;15,2445;19,41851;Lamborguini

26/03/2018 02:31:40;15,96414;15,24452;19,41908;Lamborguini

26/03/2018 02:31:40;15,97522;15,24458;19,41958;Lamborguini

26/03/2018 02:31:40;15,9899;15,24462;19,4207;Lamborguini

26/03/2018 02:31:40;16,00186;15,24466;19,42139;Lamborguini

26/03/2018 02:31:40;16,01454;15,24469;19,42202;Lamborguini

26/03/2018 02:31:40;16,02635;15,24468;19,42286;Lamborguini

26/03/2018 02:31:40;16,03906;15,24465;19,42379;Lamborguini

26/03/2018 02:31:40;16,05039;15,24466;19,42467;Lamborguini

26/03/2018 02:31:40;16,06369;15,24457;19,42568;Lamborguini

26/03/2018 02:31:40;16,07482;15,24449;19,42659;Lamborguini

26/03/2018 02:31:40;16,08694;15,24439;19,42757;Lamborguini

26/03/2018 02:32:34;69,43152;25,57152;9,618054;Ferrari458

26/03/2018 02:32:34;69,46131;25,57178;9,61764;Ferrari458

26/03/2018 02:32:34;69,56189;25,57114;9,619308;Ferrari458

26/03/2018 02:32:34;69,57928;25,57108;9,619645;Ferrari458

26/03/2018 02:32:34;69,59473;25,57102;9,619619;Ferrari458

26/03/2018 02:32:34;69,61208;25,57091;9,61974;Ferrari458

26/03/2018 02:32:34;69,62749;25,57074;9,619856;Ferrari458

26/03/2018 02:32:34;69,65086;25,57043;9,619996;Ferrari458

26/03/2018 02:32:34;69,66744;25,57001;9,620318;Ferrari458

26/03/2018 02:32:34;69,68377;25,56952;9,620577;Ferrari458

26/03/2018 02:32:34;69,70091;25,56922;9,620894;Ferrari458

26/03/2018 02:32:34;69,71723;25,56875;9,620962;Ferrari458

26/03/2018 02:32:34;69,7364;25,56681;9,61982;Ferrari458

26/03/2018 02:32:34;69,75226;25,56609;9,620411;Ferrari458

26/03/2018 02:32:34;69,77177;25,56548;9,620564;Ferrari458

26/03/2018 02:32:34;69,83889;25,5638;9,621777;Ferrari458

26/03/2018 02:32:34;69,90977;25,56088;9,624206;Ferrari458

26/03/2018 02:32:34;69,93147;25,55999;9,625062;Ferrari458

26/03/2018 02:32:34;69,95145;25,5593;9,625685;Ferrari458

26/03/2018 02:32:34;69,97272;25,55872;9,626379;Ferrari458

26/03/2018 02:32:34;69,99547;25,55816;9,627251;Ferrari458

26/03/2018 02:32:34;70,01286;25,55799;9,627567;Ferrari458

26/03/2018 02:32:34;70,02907;25,55744;9,628447;Ferrari458

26/03/2018 02:32:34;70,05043;25,55691;9,62937;Ferrari458

26/03/2018 02:32:34;70,07298;25,55629;9,630409;Ferrari458

26/03/2018 02:32:34;70,09637;25,55567;9,631445;Ferrari458

26/03/2018 02:32:34;70,11679;25,55501;9,632545;Ferrari458

26/03/2018 02:32:34;70,13489;25,55463;9,633141;Ferrari458

26/03/2018 02:32:34;70,15324;25,55388;9,634315;Ferrari458

26/03/2018 02:32:34;70,16888;25,55335;9,635052;Ferrari458

26/03/2018 02:32:34;70,18503;25,55219;9,636624;Ferrari458

