24/03/2018 00:51:03 -- 2,337775  -- 0, 0 -- Audi

24/03/2018 00:51:03 -- 2,356645  -- 0, 0 -- Audi

24/03/2018 00:51:04 -- 3,121384  -- 0, 0 -- Audi

24/03/2018 00:51:04 -- 3,376349  -- 0, 0 -- Audi

24/03/2018 00:51:04 -- 3,39294  -- 0, 0 -- Audi

24/03/2018 00:51:04 -- 3,409774  -- 0, 0 -- Audi

24/03/2018 00:51:04 -- 3,426903  -- 0, 0 -- Audi

24/03/2018 00:51:04 -- 3,443573  -- 0, 0 -- Audi

24/03/2018 00:51:04 -- 3,460198  -- 0, 0 -- Audi

24/03/2018 00:51:04 -- 3,477328  -- 0, 0 -- Audi

24/03/2018 00:51:04 -- 3,496862  -- 0, 0 -- Audi

24/03/2018 00:51:04 -- 3,512892  -- 0, 0 -- Audi

24/03/2018 00:51:04 -- 3,529361  -- 0, 0 -- Audi

24/03/2018 00:51:04 -- 3,548589  -- 0, 0 -- Audi

24/03/2018 00:51:04 -- 3,565486  -- 0, 0 -- Audi

24/03/2018 00:51:04 -- 3,582353  -- 0, 0 -- Audi

24/03/2018 00:51:04 -- 3,598841  -- 0, 0 -- Audi

24/03/2018 00:51:04 -- 3,616091  -- 0, 0 -- Audi

24/03/2018 00:51:04 -- 3,632854  -- 0, 0 -- Audi

24/03/2018 00:51:04 -- 3,649873  -- 0, 0 -- Audi

24/03/2018 00:51:04 -- 3,666479  -- 0, 0 -- Audi

24/03/2018 00:51:04 -- 3,683689  -- 0, 0 -- Audi

24/03/2018 00:51:04 -- 3,700395  -- 0, 0 -- Audi

24/03/2018 00:51:04 -- 3,717509  -- 0, 0 -- Audi

24/03/2018 00:51:04 -- 3,733705  -- 0, 0 -- Audi

