24/03/2018 02:40:14 -- 2,170092  -- 0, 0 -- Audi

24/03/2018 02:40:14 -- 2,241933  -- 0, 0 -- Audi

24/03/2018 02:40:14 -- 2,532242  -- 0, 0 -- Audi

24/03/2018 02:40:14 -- 2,604006  -- 0, 0 -- Audi

24/03/2018 02:40:14 -- 2,629993  -- 0, 0 -- Audi

24/03/2018 02:40:14 -- 2,649401  -- 0, 0 -- Audi

24/03/2018 02:40:14 -- 2,666149  -- 0, 0 -- Audi

24/03/2018 02:40:14 -- 2,682362  -- 0, 0 -- Audi

24/03/2018 02:40:14 -- 2,699353  -- 0, 0 -- Audi

24/03/2018 02:40:14 -- 2,716079  -- 0, 0 -- Audi

24/03/2018 02:40:14 -- 2,733928  -- 0, 0 -- Audi

24/03/2018 02:40:14 -- 2,749785  -- 0, 0 -- Audi

24/03/2018 02:40:14 -- 2,767252  -- 0, 0 -- Audi

24/03/2018 02:40:14 -- 2,783713  -- 0, 0 -- Audi

24/03/2018 02:40:14 -- 2,800319  -- 0, 0 -- Audi

24/03/2018 02:40:14 -- 2,817191  -- 0, 0 -- Audi

24/03/2018 02:40:14 -- 2,834039  -- 0, 0 -- Audi

24/03/2018 02:40:14 -- 2,850805  -- 0, 0 -- Audi

24/03/2018 02:40:14 -- 2,867814  -- 0, 0 -- Audi

24/03/2018 02:40:14 -- 2,88461  -- 0, 0 -- Audi

24/03/2018 02:40:14 -- 2,901401  -- 0, 0 -- Audi

24/03/2018 02:40:15 -- 2,918494  -- 0, 0 -- Audi

24/03/2018 02:40:15 -- 2,935403  -- 0, 0 -- Audi

24/03/2018 02:40:15 -- 2,953208  -- 0, 0 -- Audi

24/03/2018 02:40:15 -- 2,970119  -- 0, 0 -- Audi

24/03/2018 02:40:15 -- 2,987103  -- 0, 0 -- Audi

24/03/2018 02:40:15 -- 3,005076  -- 0, 0 -- Audi

24/03/2018 02:40:15 -- 3,021134  -- 0, 0 -- Audi

24/03/2018 02:40:15 -- 3,037994  -- 0, 0 -- Audi

24/03/2018 02:40:15 -- 3,054468  -- 0, 0 -- Audi

24/03/2018 02:40:15 -- 3,071676  -- 0, 0 -- Audi

24/03/2018 02:40:15 -- 3,088403  -- 0, 0 -- Audi

24/03/2018 02:40:15 -- 3,105461  -- 0, 0 -- Audi

24/03/2018 02:40:15 -- 3,122175  -- 0, 0 -- Audi

24/03/2018 02:40:15 -- 3,140015  -- 0, 0 -- Audi

24/03/2018 02:40:15 -- 3,155649  -- 0, 0 -- Audi

24/03/2018 02:40:15 -- 3,1727  -- 0, 0 -- Audi

24/03/2018 02:40:15 -- 3,189932  -- 0, 0 -- Audi

24/03/2018 02:40:15 -- 3,206316  -- 0, 0 -- Audi

24/03/2018 02:40:15 -- 3,223743  -- 0, 0 -- Audi

24/03/2018 02:40:15 -- 3,240126  -- 0, 0 -- Audi

24/03/2018 02:40:15 -- 3,257242  -- 0, 0 -- Audi

24/03/2018 02:40:15 -- 3,274398  -- 0, 0 -- Audi

24/03/2018 02:40:15 -- 3,291123  -- 0, 0 -- Audi

24/03/2018 02:40:15 -- 3,308115  -- 0, 0 -- Audi

24/03/2018 02:40:15 -- 3,324737  -- 0, 0 -- Audi

24/03/2018 02:40:15 -- 3,342284  -- 0, 0 -- Audi

24/03/2018 02:40:15 -- 3,35927  -- 0, 0 -- Audi

24/03/2018 02:40:15 -- 3,375911  -- 0, 0 -- Audi

24/03/2018 02:40:15 -- 3,392976  -- 0, 0 -- Audi

24/03/2018 02:40:15 -- 3,410197  -- 0, 0 -- Audi

24/03/2018 02:40:15 -- 3,426521  -- 0, 0 -- Audi

24/03/2018 02:40:15 -- 3,443519  -- 0, 0 -- Audi

24/03/2018 02:40:15 -- 3,460176  -- 0, 0 -- Audi

24/03/2018 02:40:15 -- 3,477099  -- 0, 0 -- Audi

24/03/2018 02:40:15 -- 3,494014  -- 0, 0 -- Audi

24/03/2018 02:40:15 -- 3,511127  -- 0, 0 -- Audi

24/03/2018 02:40:15 -- 3,527645  -- 0, 0 -- Audi

24/03/2018 02:40:15 -- 3,544684  -- 0, 0 -- Audi

24/03/2018 02:40:15 -- 3,561721  -- 0, 0 -- Audi

24/03/2018 02:40:15 -- 3,579261  -- 0, 0 -- Audi

24/03/2018 02:40:15 -- 3,595006  -- 0, 0 -- Audi

24/03/2018 02:40:15 -- 3,612212  -- 0, 0 -- Audi

24/03/2018 02:40:15 -- 3,629625  -- 0, 0 -- Audi

24/03/2018 02:40:15 -- 3,645849  -- 0, 0 -- Audi

24/03/2018 02:40:15 -- 3,662577  -- 0, 0 -- Audi

24/03/2018 02:40:15 -- 3,680042  -- 0, 0 -- Audi

24/03/2018 02:40:15 -- 3,695952  -- 0, 0 -- Audi

24/03/2018 02:40:15 -- 3,71319  -- 0, 0 -- Audi

24/03/2018 02:40:15 -- 3,729965  -- 0, 0 -- Audi

24/03/2018 02:40:15 -- 3,746722  -- 0, 0 -- Audi

24/03/2018 02:40:15 -- 3,763546  -- 0, 0 -- Audi

24/03/2018 02:40:15 -- 3,781117  -- 0, 0 -- Audi

24/03/2018 02:40:15 -- 3,797579  -- 0, 0 -- Audi

24/03/2018 02:40:15 -- 3,813927  -- 0, 0 -- Audi

24/03/2018 02:40:15 -- 3,831112  -- 0, 0 -- Audi

24/03/2018 02:40:15 -- 3,848407  -- 0, 0 -- Audi

24/03/2018 02:40:15 -- 3,864568  -- 0, 0 -- Audi

24/03/2018 02:40:15 -- 3,881419  -- 0, 0 -- Audi

24/03/2018 02:40:15 -- 3,898609  -- 0, 0 -- Audi

24/03/2018 02:40:16 -- 3,914955  -- 0, 0 -- Audi

24/03/2018 02:40:16 -- 3,9326  -- 0, 0 -- Audi

24/03/2018 02:40:16 -- 3,949001  -- 0, 0 -- Audi

24/03/2018 02:40:16 -- 3,965746  -- 0, 0 -- Audi

24/03/2018 02:40:16 -- 3,982476  -- 0, 0 -- Audi

24/03/2018 02:40:16 -- 3,999365  -- 0, 0 -- Audi

24/03/2018 02:40:16 -- 4,017976  -- 0, 0 -- Audi

24/03/2018 02:40:16 -- 4,033127  -- 0, 0 -- Audi

24/03/2018 02:40:16 -- 4,050191  -- 0, 0 -- Audi

24/03/2018 02:40:16 -- 4,066763  -- 0, 0 -- Audi

24/03/2018 02:40:16 -- 4,08421  -- 0, 0 -- Audi

24/03/2018 02:40:16 -- 4,10084  -- 0, 0 -- Audi

24/03/2018 02:40:16 -- 4,117687  -- 0, 0 -- Audi

24/03/2018 02:40:16 -- 4,134669  -- 0, 0 -- Audi

24/03/2018 02:40:16 -- 4,15146  -- 0, 0 -- Audi

24/03/2018 02:40:16 -- 4,168137  -- 0, 0 -- Audi

24/03/2018 02:40:16 -- 4,185022  -- 0, 0 -- Audi

24/03/2018 02:40:16 -- 4,201753  -- 0, 0 -- Audi

24/03/2018 02:40:16 -- 4,219902  -- 0, 0 -- Audi

24/03/2018 02:40:16 -- 4,235255  -- 0, 0 -- Audi

24/03/2018 02:40:16 -- 4,252419  -- 0, 0 -- Audi

24/03/2018 02:40:16 -- 4,269257  -- 0, 0 -- Audi

24/03/2018 02:40:16 -- 4,286307  -- 0, 0 -- Audi

24/03/2018 02:40:16 -- 4,302832  -- 0, 0 -- Audi

24/03/2018 02:40:16 -- 4,319577  -- 0, 0 -- Audi

24/03/2018 02:40:16 -- 4,336651  -- 0, 0 -- Audi

24/03/2018 02:40:16 -- 4,353867  -- 0, 0 -- Audi

24/03/2018 02:40:16 -- 4,370642  -- 0, 0 -- Audi

24/03/2018 02:40:16 -- 4,387018  -- 0, 0 -- Audi

24/03/2018 02:40:16 -- 4,403922  -- 0, 0 -- Audi

24/03/2018 02:40:16 -- 4,420959  -- 0, 0 -- Audi

24/03/2018 02:40:16 -- 4,437601  -- 0, 0 -- Audi

24/03/2018 02:40:16 -- 4,454757  -- 0, 0 -- Audi

24/03/2018 02:40:16 -- 4,471622  -- 0, 0 -- Audi

24/03/2018 02:40:16 -- 4,488183  -- 0, 0 -- Audi

24/03/2018 02:40:16 -- 4,504972  -- 0, 0 -- Audi

24/03/2018 02:40:16 -- 4,521896  -- 0, 0 -- Audi

24/03/2018 02:40:16 -- 4,539279  -- 0, 0 -- Audi

24/03/2018 02:40:16 -- 4,555523  -- 0, 0 -- Audi

24/03/2018 02:40:16 -- 4,572682  -- 0, 0 -- Audi

24/03/2018 02:40:16 -- 4,589321  -- 0, 0 -- Audi

24/03/2018 02:40:16 -- 4,606216  -- 0, 0 -- Audi

24/03/2018 02:40:16 -- 4,623699  -- 0, 0 -- Audi

24/03/2018 02:40:16 -- 4,639942  -- 0, 0 -- Audi

24/03/2018 02:40:16 -- 4,657041  -- 0, 0 -- Audi

24/03/2018 02:40:16 -- 4,673503  -- 0, 0 -- Audi

24/03/2018 02:40:16 -- 4,690395  -- 0, 0 -- Audi

24/03/2018 02:40:16 -- 4,707243  -- 0, 0 -- Audi

24/03/2018 02:40:16 -- 4,723958  -- 0, 0 -- Audi

24/03/2018 02:40:16 -- 4,74098  -- 0, 0 -- Audi

24/03/2018 02:40:16 -- 4,757859  -- 0, 0 -- Audi

24/03/2018 02:40:16 -- 4,774493  -- 0, 0 -- Audi

24/03/2018 02:40:16 -- 4,792145  -- 0, 0 -- Audi

24/03/2018 02:40:16 -- 4,80894  -- 0, 0 -- Audi

24/03/2018 02:40:16 -- 4,82536  -- 0, 0 -- Audi

24/03/2018 02:40:16 -- 4,842035  -- 0, 0 -- Audi

24/03/2018 02:40:16 -- 4,859086  -- 0, 0 -- Audi

24/03/2018 02:40:16 -- 4,876256  -- 0, 0 -- Audi

24/03/2018 02:40:16 -- 4,892851  -- 0, 0 -- Audi

24/03/2018 02:40:17 -- 4,909506  -- 0, 0 -- Audi

24/03/2018 02:40:17 -- 4,927088  -- 0, 0 -- Audi

24/03/2018 02:40:17 -- 4,943011  -- 0, 0 -- Audi

24/03/2018 02:40:17 -- 4,959804  -- 0, 0 -- Audi

24/03/2018 02:40:17 -- 4,977192  -- 0, 0 -- Audi

24/03/2018 02:40:17 -- 4,993583  -- 0, 0 -- Audi

24/03/2018 02:40:17 -- 5,010595  -- 0, 0 -- Audi

24/03/2018 02:40:17 -- 5,027523  -- 0, 0 -- Audi

24/03/2018 02:40:17 -- 5,04422  -- 0, 0 -- Audi

24/03/2018 02:40:17 -- 5,061015  -- 0, 0 -- Audi

24/03/2018 02:40:17 -- 5,077951  -- 0, 0 -- Audi

24/03/2018 02:40:17 -- 5,094965  -- 0, 0 -- Audi

24/03/2018 02:40:17 -- 5,111575  -- 0, 0 -- Audi

24/03/2018 02:40:17 -- 5,128269  -- 0, 0 -- Audi

24/03/2018 02:40:17 -- 5,145162  -- 0, 0 -- Audi

24/03/2018 02:40:17 -- 5,162505  -- 0, 0 -- Audi

24/03/2018 02:40:17 -- 5,179606  -- 0, 0 -- Audi

24/03/2018 02:40:17 -- 5,195599  -- 0, 0 -- Audi

24/03/2018 02:40:17 -- 5,213251  -- 0, 0 -- Audi

24/03/2018 02:40:17 -- 5,231593  -- 0, 0 -- Audi

24/03/2018 02:40:17 -- 5,248366  -- 0, 0 -- Audi

24/03/2018 02:40:17 -- 5,265523  -- 0, 0 -- Audi

24/03/2018 02:40:17 -- 5,282011  -- 0, 0 -- Audi

24/03/2018 02:40:17 -- 5,298984  -- 0, 0 -- Audi

24/03/2018 02:40:17 -- 5,316818  -- 0, 0 -- Audi

24/03/2018 02:40:17 -- 5,332942  -- 0, 0 -- Audi

24/03/2018 02:40:17 -- 5,349505  -- 0, 0 -- Audi

24/03/2018 02:40:17 -- 5,36663  -- 0, 0 -- Audi

24/03/2018 02:40:17 -- 5,38322  -- 0, 0 -- Audi

24/03/2018 02:40:17 -- 5,400068  -- 0, 0 -- Audi

24/03/2018 02:40:17 -- 5,417326  -- 0, 0 -- Audi

24/03/2018 02:40:17 -- 5,433728  -- 0, 0 -- Audi

24/03/2018 02:40:17 -- 5,451027  -- 0, 0 -- Audi

24/03/2018 02:40:17 -- 5,467971  -- 0, 0 -- Audi

24/03/2018 02:40:17 -- 5,484464  -- 0, 0 -- Audi

24/03/2018 02:40:17 -- 5,501947  -- 0, 0 -- Audi

24/03/2018 02:40:17 -- 5,518199  -- 0, 0 -- Audi

24/03/2018 02:40:17 -- 5,535141  -- 0, 0 -- Audi

24/03/2018 02:40:17 -- 5,55244  -- 0, 0 -- Audi

24/03/2018 02:40:17 -- 5,577217  -- 0, 0 -- Audi

24/03/2018 02:40:17 -- 5,592747  -- 0, 0 -- Audi

24/03/2018 02:40:17 -- 5,617812  -- 0, 0 -- Audi

24/03/2018 02:40:17 -- 5,634377  -- 0, 0 -- Audi

24/03/2018 02:40:17 -- 5,651002  -- 0, 0 -- Audi

24/03/2018 02:40:17 -- 5,668238  -- 0, 0 -- Audi

24/03/2018 02:40:17 -- 5,684736  -- 0, 0 -- Audi

24/03/2018 02:40:17 -- 5,701593  -- 0, 0 -- Audi

24/03/2018 02:40:17 -- 5,718532  -- 0, 0 -- Audi

24/03/2018 02:40:17 -- 5,737945  -- 0, 0 -- Audi

24/03/2018 02:40:17 -- 5,75481  -- 0, 0 -- Audi

24/03/2018 02:40:17 -- 5,772045  -- 0, 0 -- Audi

24/03/2018 02:40:17 -- 5,788642  -- 0, 0 -- Audi

24/03/2018 02:40:17 -- 5,805407  -- 0, 0 -- Audi

24/03/2018 02:40:17 -- 5,823176  -- 0, 0 -- Audi

24/03/2018 02:40:17 -- 5,839323  -- 0, 0 -- Audi

24/03/2018 02:40:17 -- 5,856514  -- 0, 0 -- Audi

24/03/2018 02:40:17 -- 5,872707  -- 0, 0 -- Audi

24/03/2018 02:40:17 -- 5,889815  -- 0, 0 -- Audi

24/03/2018 02:40:17 -- 5,907192  -- 0, 0 -- Audi

24/03/2018 02:40:18 -- 5,923445  -- 0, 0 -- Audi

24/03/2018 02:40:18 -- 5,940278  -- 0, 0 -- Audi

24/03/2018 02:40:18 -- 5,957418  -- 0, 0 -- Audi

24/03/2018 02:40:18 -- 5,973977  -- 0, 0 -- Audi

24/03/2018 02:40:18 -- 5,990921  -- 0, 0 -- Audi

24/03/2018 02:40:18 -- 6,008492  -- 0, 0 -- Audi

24/03/2018 02:40:18 -- 6,024973  -- 0, 0 -- Audi

24/03/2018 02:40:18 -- 6,04982  -- 0, 0 -- Audi

24/03/2018 02:40:18 -- 6,063699  -- 0, 0 -- Audi

24/03/2018 02:40:18 -- 6,080545  -- 0, 0 -- Audi

24/03/2018 02:40:18 -- 6,09728  -- 0, 0 -- Audi

24/03/2018 02:40:18 -- 6,114039  -- 0, 0 -- Audi

24/03/2018 02:40:18 -- 6,131603  -- 0, 0 -- Audi

24/03/2018 02:40:18 -- 6,147923  -- 0, 0 -- Audi

24/03/2018 02:40:18 -- 6,164901  -- 0, 0 -- Audi

24/03/2018 02:40:18 -- 6,181983  -- 0, 0 -- Audi

24/03/2018 02:40:18 -- 6,198417  -- 0, 0 -- Audi

24/03/2018 02:40:18 -- 6,215088  -- 0, 0 -- Audi

24/03/2018 02:40:18 -- 6,232188  -- 0, 0 -- Audi

24/03/2018 02:40:18 -- 6,249771  -- 0, 0 -- Audi

24/03/2018 02:40:18 -- 6,265814  -- 0, 0 -- Audi

24/03/2018 02:40:18 -- 6,28265  -- 0, 0 -- Audi

24/03/2018 02:40:18 -- 6,299506  -- 0, 0 -- Audi

24/03/2018 02:40:18 -- 6,316153  -- 0, 0 -- Audi

24/03/2018 02:40:18 -- 6,333924  -- 0, 0 -- Audi

24/03/2018 02:40:18 -- 6,350028  -- 0, 0 -- Audi

24/03/2018 02:40:18 -- 6,367235  -- 0, 0 -- Audi

24/03/2018 02:40:18 -- 6,384503  -- 0, 0 -- Audi

24/03/2018 02:40:18 -- 6,400537  -- 0, 0 -- Audi

24/03/2018 02:40:18 -- 6,417469  -- 0, 0 -- Audi

24/03/2018 02:40:18 -- 6,434079  -- 0, 0 -- Audi

24/03/2018 02:40:18 -- 6,451089  -- 0, 0 -- Audi

24/03/2018 02:40:18 -- 6,468146  -- 0, 0 -- Audi

24/03/2018 02:40:18 -- 6,485339  -- 0, 0 -- Audi

24/03/2018 02:40:18 -- 6,503368  -- 0, 0 -- Audi

24/03/2018 02:40:18 -- 6,520252  -- 0, 0 -- Audi

24/03/2018 02:40:18 -- 6,537673  -- 0, 0 -- Audi

24/03/2018 02:40:18 -- 6,55408  -- 0, 0 -- Audi

24/03/2018 02:40:18 -- 6,571183  -- 0, 0 -- Audi

24/03/2018 02:40:18 -- 6,587869  -- 0, 0 -- Audi

24/03/2018 02:40:18 -- 6,604475  -- 0, 0 -- Audi

24/03/2018 02:40:18 -- 6,621342  -- 0, 0 -- Audi

24/03/2018 02:40:18 -- 6,63809  -- 0, 0 -- Audi

24/03/2018 02:40:18 -- 6,65548  -- 0, 0 -- Audi

24/03/2018 02:40:18 -- 6,671768  -- 0, 0 -- Audi

24/03/2018 02:40:18 -- 6,689626  -- 0, 0 -- Audi

24/03/2018 02:40:18 -- 6,706745  -- 0, 0 -- Audi

24/03/2018 02:40:18 -- 6,72452  -- 0, 0 -- Audi

24/03/2018 02:40:18 -- 6,744088  -- 0, 0 -- Audi

24/03/2018 02:40:18 -- 6,761091  -- 0, 0 -- Audi

24/03/2018 02:40:18 -- 6,777751  -- 0, 0 -- Audi

24/03/2018 02:40:18 -- 6,794593  -- 0, 0 -- Audi

24/03/2018 02:40:18 -- 6,811564  -- 0, 0 -- Audi

24/03/2018 02:40:18 -- 6,828658  -- 0, 0 -- Audi

24/03/2018 02:40:18 -- 6,845549  -- 0, 0 -- Audi

24/03/2018 02:40:18 -- 6,862429  -- 0, 0 -- Audi

24/03/2018 02:40:18 -- 6,878987  -- 0, 0 -- Audi

24/03/2018 02:40:18 -- 6,895734  -- 0, 0 -- Audi

24/03/2018 02:40:19 -- 6,91257  -- 0, 0 -- Audi

24/03/2018 02:40:19 -- 6,929393  -- 0, 0 -- Audi

24/03/2018 02:40:19 -- 6,946237  -- 0, 0 -- Audi

24/03/2018 02:40:19 -- 6,963044  -- 0, 0 -- Audi

24/03/2018 02:40:19 -- 6,980171  -- 0, 0 -- Audi

24/03/2018 02:40:19 -- 6,999078  -- 0, 0 -- Audi

24/03/2018 02:40:19 -- 7,015855  -- 0, 0 -- Audi

24/03/2018 02:40:19 -- 7,032878  -- 0, 0 -- Audi

24/03/2018 02:40:19 -- 7,049811  -- 0, 0 -- Audi

24/03/2018 02:40:19 -- 7,067522  -- 0, 0 -- Audi

24/03/2018 02:40:19 -- 7,084504  -- 0, 0 -- Audi

24/03/2018 02:40:19 -- 7,10146  -- 0, 0 -- Audi

24/03/2018 02:40:19 -- 7,117905  -- 0, 0 -- Audi

24/03/2018 02:40:19 -- 7,13467  -- 0, 0 -- Audi

24/03/2018 02:40:19 -- 7,151608  -- 0, 0 -- Audi

24/03/2018 02:40:19 -- 7,178388  -- 0, 0 -- Audi

24/03/2018 02:40:19 -- 7,194516  -- 0, 0 -- Audi

24/03/2018 02:40:19 -- 7,21206  -- 0, 0 -- Audi

24/03/2018 02:40:19 -- 7,23183  -- 0, 0 -- Audi

24/03/2018 02:40:19 -- 7,249013  -- 0, 0 -- Audi

24/03/2018 02:40:19 -- 7,265329  -- 0, 0 -- Audi

24/03/2018 02:40:19 -- 7,282018  -- 0, 0 -- Audi

