24/03/2018 23:06:32 -- 1,972816  -- 0, 0 -- Audi

24/03/2018 23:06:32 -- 2,000494  -- 0, 0 -- Audi

24/03/2018 23:06:32 -- 2,39848  -- 0, 0 -- Audi

24/03/2018 23:06:32 -- 2,493752  -- 0, 0 -- Audi

24/03/2018 23:06:32 -- 2,523164  -- 0, 0 -- Audi

24/03/2018 23:06:33 -- 2,541392  -- 0, 0 -- Audi

24/03/2018 23:06:33 -- 2,559393  -- 0, 0 -- Audi

24/03/2018 23:06:33 -- 2,577069  -- 0, 0 -- Audi

24/03/2018 23:06:33 -- 2,593386  -- 0, 0 -- Audi

24/03/2018 23:06:33 -- 2,609924  -- 0, 0 -- Audi

24/03/2018 23:06:33 -- 2,677547  -- 0, 0 -- Audi

24/03/2018 23:06:33 -- 2,708334  -- 0, 0 -- Audi

24/03/2018 23:06:33 -- 2,730718  -- 0, 0 -- Audi

24/03/2018 23:06:33 -- 2,747659  -- 0, 0 -- Audi

24/03/2018 23:06:33 -- 2,764191  -- 0, 0 -- Audi

24/03/2018 23:06:33 -- 2,781439  -- 0, 0 -- Audi

24/03/2018 23:06:33 -- 2,798104  -- 0, 0 -- Audi

24/03/2018 23:06:33 -- 2,814812  -- 0, 0 -- Audi

24/03/2018 23:06:33 -- 2,831651  -- 0, 0 -- Audi

24/03/2018 23:06:33 -- 2,849281  -- 0, 0 -- Audi

24/03/2018 23:06:33 -- 2,865434  -- 0, 0 -- Audi

24/03/2018 23:06:33 -- 2,882593  -- 0, 0 -- Audi

24/03/2018 23:06:33 -- 2,89971  -- 0, 0 -- Audi

24/03/2018 23:06:33 -- 2,915885  -- 0, 0 -- Audi

24/03/2018 23:06:33 -- 2,933113  -- 0, 0 -- Audi

24/03/2018 23:06:33 -- 2,94955  -- 0, 0 -- Audi

24/03/2018 23:06:33 -- 2,966374  -- 0, 0 -- Audi

24/03/2018 23:06:33 -- 2,983301  -- 0, 0 -- Audi

24/03/2018 23:06:33 -- 2,999907  -- 0, 0 -- Audi

24/03/2018 23:06:33 -- 3,017795  -- 0, 0 -- Audi

24/03/2018 23:06:33 -- 3,03386  -- 0, 0 -- Audi

24/03/2018 23:06:33 -- 3,050678  -- 0, 0 -- Audi

24/03/2018 23:06:33 -- 3,070467  -- 0, 0 -- Audi

24/03/2018 23:06:33 -- 3,08487  -- 0, 0 -- Audi

24/03/2018 23:06:33 -- 3,101782  -- 0, 0 -- Audi

24/03/2018 23:06:33 -- 3,11871  -- 0, 0 -- Audi

24/03/2018 23:06:33 -- 3,136154  -- 0, 0 -- Audi

24/03/2018 23:06:33 -- 3,152576  -- 0, 0 -- Audi

24/03/2018 23:06:33 -- 3,169002  -- 0, 0 -- Audi

24/03/2018 23:06:33 -- 3,185984  -- 0, 0 -- Audi

24/03/2018 23:06:33 -- 3,202649  -- 0, 0 -- Audi

24/03/2018 23:06:34 -- 3,815573  -- 0, 0 -- Audi

24/03/2018 23:06:34 -- 3,832268  -- 0, 0 -- Audi

24/03/2018 23:06:34 -- 3,84958  -- 0, 0 -- Audi

24/03/2018 23:06:34 -- 3,87657  -- 0, 0 -- Audi

24/03/2018 23:06:34 -- 3,896774  -- 0, 0 -- Audi

24/03/2018 23:06:34 -- 3,919672  -- 0, 0 -- Audi

24/03/2018 23:06:34 -- 3,936503  -- 0, 0 -- Audi

24/03/2018 23:06:34 -- 3,953444  -- 0, 0 -- Audi

24/03/2018 23:06:34 -- 3,970642  -- 0, 0 -- Audi

24/03/2018 23:06:34 -- 3,987302  -- 0, 0 -- Audi

24/03/2018 23:06:34 -- 4,003992  -- 0, 0 -- Audi

24/03/2018 23:06:34 -- 4,020781  -- 0, 0 -- Audi

24/03/2018 23:06:34 -- 4,037565  -- 0, 0 -- Audi

24/03/2018 23:06:34 -- 4,054476  -- 0, 0 -- Audi

24/03/2018 23:06:34 -- 4,071407  -- 0, 0 -- Audi

24/03/2018 23:06:34 -- 4,088996  -- 0, 0 -- Audi

24/03/2018 23:06:34 -- 4,105247  -- 0, 0 -- Audi

24/03/2018 23:06:34 -- 4,122487  -- 0, 0 -- Audi

24/03/2018 23:06:34 -- 4,138585  -- 0, 0 -- Audi

24/03/2018 23:06:34 -- 4,155621  -- 0, 0 -- Audi

24/03/2018 23:06:34 -- 4,172379  -- 0, 0 -- Audi

24/03/2018 23:06:34 -- 4,189386  -- 0, 0 -- Audi

24/03/2018 23:06:34 -- 4,206142  -- 0, 0 -- Audi

24/03/2018 23:06:34 -- 4,222965  -- 0, 0 -- Audi

24/03/2018 23:06:34 -- 4,240259  -- 0, 0 -- Audi

24/03/2018 23:06:35 -- 4,537539  -- 0, 0 -- Audi

24/03/2018 23:06:35 -- 4,553656  -- 0, 0 -- Audi

24/03/2018 23:06:35 -- 4,806699  -- 0, 0 -- Audi

24/03/2018 23:06:35 -- 4,823112  -- 0, 0 -- Audi

24/03/2018 23:06:35 -- 4,839933  -- 0, 0 -- Audi

24/03/2018 23:06:35 -- 4,856901  -- 0, 0 -- Audi

24/03/2018 23:06:35 -- 4,874249  -- 0, 0 -- Audi

24/03/2018 23:06:35 -- 4,890682  -- 0, 0 -- Audi

24/03/2018 23:06:35 -- 4,91579  -- 0, 0 -- Audi

24/03/2018 23:06:35 -- 4,932476  -- 0, 0 -- Audi

24/03/2018 23:06:35 -- 4,949219  -- 0, 0 -- Audi

24/03/2018 23:06:35 -- 4,966095  -- 0, 0 -- Audi

24/03/2018 23:06:35 -- 4,983011  -- 0, 0 -- Audi

24/03/2018 23:06:35 -- 4,999981  -- 0, 0 -- Audi

24/03/2018 23:06:35 -- 5,016633  -- 0, 0 -- Audi

24/03/2018 23:06:35 -- 5,033539  -- 0, 0 -- Audi

24/03/2018 23:06:35 -- 5,050259  -- 0, 0 -- Audi

24/03/2018 23:06:35 -- 5,06728  -- 0, 0 -- Audi

24/03/2018 23:06:35 -- 5,084299  -- 0, 0 -- Audi

24/03/2018 23:06:35 -- 5,101295  -- 0, 0 -- Audi

24/03/2018 23:06:35 -- 5,117982  -- 0, 0 -- Audi

24/03/2018 23:06:35 -- 5,134754  -- 0, 0 -- Audi

24/03/2018 23:06:35 -- 5,151858  -- 0, 0 -- Audi

24/03/2018 23:06:35 -- 5,168348  -- 0, 0 -- Audi

24/03/2018 23:06:35 -- 5,185364  -- 0, 0 -- Audi

24/03/2018 23:06:35 -- 5,201971  -- 0, 0 -- Audi

24/03/2018 23:06:35 -- 5,218722  -- 0, 0 -- Audi

24/03/2018 23:06:35 -- 5,235843  -- 0, 0 -- Audi

24/03/2018 23:06:35 -- 5,252866  -- 0, 0 -- Audi

24/03/2018 23:06:35 -- 5,269606  -- 0, 0 -- Audi

24/03/2018 23:06:35 -- 5,286194  -- 0, 0 -- Audi

24/03/2018 23:06:35 -- 5,30316  -- 0, 0 -- Audi

24/03/2018 23:06:35 -- 5,32036  -- 0, 0 -- Audi

24/03/2018 23:06:35 -- 5,337566  -- 0, 0 -- Audi

24/03/2018 23:06:35 -- 5,353621  -- 0, 0 -- Audi

24/03/2018 23:06:35 -- 5,370507  -- 0, 0 -- Audi

24/03/2018 23:06:35 -- 5,387276  -- 0, 0 -- Audi

24/03/2018 23:06:35 -- 5,404156  -- 0, 0 -- Audi

24/03/2018 23:06:35 -- 5,421602  -- 0, 0 -- Audi

24/03/2018 23:06:35 -- 5,437815  -- 0, 0 -- Audi

24/03/2018 23:06:35 -- 5,454783  -- 0, 0 -- Audi

24/03/2018 23:06:35 -- 5,471582  -- 0, 0 -- Audi

24/03/2018 23:06:35 -- 5,488509  -- 0, 0 -- Audi

24/03/2018 23:06:35 -- 5,505905  -- 0, 0 -- Audi

24/03/2018 23:06:35 -- 5,522259  -- 0, 0 -- Audi

24/03/2018 23:06:36 -- 5,538903  -- 0, 0 -- Audi

24/03/2018 23:06:36 -- 5,555948  -- 0, 0 -- Audi

24/03/2018 23:06:36 -- 5,57263  -- 0, 0 -- Audi

24/03/2018 23:06:36 -- 5,590454  -- 0, 0 -- Audi

24/03/2018 23:06:36 -- 5,606327  -- 0, 0 -- Audi

24/03/2018 23:06:36 -- 5,623161  -- 0, 0 -- Audi

24/03/2018 23:06:36 -- 5,640454  -- 0, 0 -- Audi

24/03/2018 23:06:36 -- 5,657099  -- 0, 0 -- Audi

24/03/2018 23:06:36 -- 5,673782  -- 0, 0 -- Audi

24/03/2018 23:06:36 -- 5,690563  -- 0, 0 -- Audi

24/03/2018 23:06:36 -- 5,707508  -- 0, 0 -- Audi

24/03/2018 23:06:36 -- 5,732756  -- 0, 0 -- Audi

24/03/2018 23:06:36 -- 5,757478  -- 0, 0 -- Audi

24/03/2018 23:06:36 -- 5,774777  -- 0, 0 -- Audi

24/03/2018 23:06:36 -- 5,79156  -- 0, 0 -- Audi

24/03/2018 23:06:36 -- 5,808511  -- 0, 0 -- Audi

24/03/2018 23:06:36 -- 5,825548  -- 0, 0 -- Audi

24/03/2018 23:06:36 -- 5,84256  -- 0, 0 -- Audi

24/03/2018 23:06:36 -- 5,858933  -- 0, 0 -- Audi

24/03/2018 23:06:36 -- 5,876176  -- 0, 0 -- Audi

24/03/2018 23:06:36 -- 5,892684  -- 0, 0 -- Audi

24/03/2018 23:06:36 -- 5,909697  -- 0, 0 -- Audi

24/03/2018 23:06:36 -- 5,926394  -- 0, 0 -- Audi

24/03/2018 23:06:36 -- 5,943427  -- 0, 0 -- Audi

24/03/2018 23:06:36 -- 5,959957  -- 0, 0 -- Audi

24/03/2018 23:06:36 -- 5,976859  -- 0, 0 -- Audi

24/03/2018 23:06:36 -- 5,994054  -- 0, 0 -- Audi

24/03/2018 23:06:36 -- 6,011439  -- 0, 0 -- Audi

24/03/2018 23:06:36 -- 6,027585  -- 0, 0 -- Audi

24/03/2018 23:06:36 -- 6,044391  -- 0, 0 -- Audi

24/03/2018 23:06:36 -- 6,061011  -- 0, 0 -- Audi

24/03/2018 23:06:36 -- 6,111745  -- 0, 0 -- Audi

24/03/2018 23:06:36 -- 6,129522  -- 0, 0 -- Audi

24/03/2018 23:06:36 -- 6,145562  -- 0, 0 -- Audi

24/03/2018 23:06:36 -- 6,164256  -- 0, 0 -- Audi

24/03/2018 23:06:36 -- 6,182777  -- 0, 0 -- Audi

24/03/2018 23:06:36 -- 6,199242  -- 0, 0 -- Audi

24/03/2018 23:06:36 -- 6,216512  -- 0, 0 -- Audi

24/03/2018 23:06:36 -- 6,233292  -- 0, 0 -- Audi

24/03/2018 23:06:36 -- 6,250283  -- 0, 0 -- Audi

24/03/2018 23:06:36 -- 6,266764  -- 0, 0 -- Audi

24/03/2018 23:06:36 -- 6,283639  -- 0, 0 -- Audi

24/03/2018 23:06:36 -- 6,300586  -- 0, 0 -- Audi

24/03/2018 23:06:36 -- 6,317337  -- 0, 0 -- Audi

24/03/2018 23:06:36 -- 6,334536  -- 0, 0 -- Audi

24/03/2018 23:06:36 -- 6,351134  -- 0, 0 -- Audi

24/03/2018 23:06:36 -- 6,367927  -- 0, 0 -- Audi

24/03/2018 23:06:36 -- 6,38572  -- 0, 0 -- Audi

24/03/2018 23:06:36 -- 6,401643  -- 0, 0 -- Audi

24/03/2018 23:06:36 -- 6,418772  -- 0, 0 -- Audi

24/03/2018 23:06:36 -- 6,435309  -- 0, 0 -- Audi

24/03/2018 23:06:36 -- 6,452198  -- 0, 0 -- Audi

24/03/2018 23:06:36 -- 6,469582  -- 0, 0 -- Audi

24/03/2018 23:06:36 -- 6,486233  -- 0, 0 -- Audi

24/03/2018 23:06:36 -- 6,502858  -- 0, 0 -- Audi

24/03/2018 23:06:36 -- 6,52022  -- 0, 0 -- Audi

24/03/2018 23:06:37 -- 6,536675  -- 0, 0 -- Audi

24/03/2018 23:06:37 -- 6,553505  -- 0, 0 -- Audi

24/03/2018 23:06:37 -- 6,570451  -- 0, 0 -- Audi

24/03/2018 23:06:37 -- 6,58732  -- 0, 0 -- Audi

24/03/2018 23:06:37 -- 6,604447  -- 0, 0 -- Audi

24/03/2018 23:06:37 -- 6,620741  -- 0, 0 -- Audi

24/03/2018 23:06:37 -- 6,637504  -- 0, 0 -- Audi

24/03/2018 23:06:37 -- 6,654393  -- 0, 0 -- Audi

24/03/2018 23:06:37 -- 6,671472  -- 0, 0 -- Audi

24/03/2018 23:06:37 -- 6,688076  -- 0, 0 -- Audi

24/03/2018 23:06:37 -- 6,705498  -- 0, 0 -- Audi

24/03/2018 23:06:37 -- 6,722404  -- 0, 0 -- Audi

24/03/2018 23:06:37 -- 6,738521  -- 0, 0 -- Audi

24/03/2018 23:06:37 -- 6,763825  -- 0, 0 -- Audi

24/03/2018 23:06:37 -- 6,78265  -- 0, 0 -- Audi

24/03/2018 23:06:37 -- 6,800342  -- 0, 0 -- Audi

24/03/2018 23:06:37 -- 6,817549  -- 0, 0 -- Audi

24/03/2018 23:06:37 -- 6,834408  -- 0, 0 -- Audi

24/03/2018 23:06:37 -- 6,85147  -- 0, 0 -- Audi

24/03/2018 23:06:37 -- 6,867727  -- 0, 0 -- Audi

24/03/2018 23:06:37 -- 6,884637  -- 0, 0 -- Audi

24/03/2018 23:06:37 -- 6,901578  -- 0, 0 -- Audi

24/03/2018 23:06:37 -- 6,918363  -- 0, 0 -- Audi

24/03/2018 23:06:37 -- 6,935573  -- 0, 0 -- Audi

24/03/2018 23:06:37 -- 6,952115  -- 0, 0 -- Audi

24/03/2018 23:06:37 -- 6,96926  -- 0, 0 -- Audi

24/03/2018 23:06:37 -- 6,9863  -- 0, 0 -- Audi

24/03/2018 23:06:37 -- 7,004556  -- 0, 0 -- Audi

24/03/2018 23:06:37 -- 7,021025  -- 0, 0 -- Audi

24/03/2018 23:06:37 -- 7,038237  -- 0, 0 -- Audi

24/03/2018 23:06:37 -- 7,055202  -- 0, 0 -- Audi

24/03/2018 23:06:37 -- 7,071671  -- 0, 0 -- Audi

24/03/2018 23:06:37 -- 7,088613  -- 0, 0 -- Audi

24/03/2018 23:06:37 -- 7,107339  -- 0, 0 -- Audi

24/03/2018 23:06:37 -- 7,122239  -- 0, 0 -- Audi

24/03/2018 23:06:37 -- 7,138946  -- 0, 0 -- Audi

24/03/2018 23:06:37 -- 7,156157  -- 0, 0 -- Audi

24/03/2018 23:06:37 -- 7,17312  -- 0, 0 -- Audi

24/03/2018 23:06:37 -- 7,189694  -- 0, 0 -- Audi

24/03/2018 23:06:37 -- 7,206597  -- 0, 0 -- Audi

24/03/2018 23:06:37 -- 7,223494  -- 0, 0 -- Audi

24/03/2018 23:06:37 -- 7,240071  -- 0, 0 -- Audi

24/03/2018 23:06:37 -- 7,257066  -- 0, 0 -- Audi

24/03/2018 23:06:37 -- 7,273848  -- 0, 0 -- Audi

24/03/2018 23:06:37 -- 7,290698  -- 0, 0 -- Audi

24/03/2018 23:06:37 -- 7,307864  -- 0, 0 -- Audi

24/03/2018 23:06:37 -- 7,324457  -- 0, 0 -- Audi

24/03/2018 23:06:37 -- 7,341277  -- 0, 0 -- Audi

24/03/2018 23:06:37 -- 7,358481  -- 0, 0 -- Audi

