26/03/2018 17:23:27;4,27755;0,009402055;0,04692443;VideoAudi

26/03/2018 17:23:27;4,346499;0,02024895;0,06385543;VideoAudi

26/03/2018 17:23:29;5,998903;0,06385453;0,04723071;Lamborguini

26/03/2018 17:23:29;6,022646;0,06482106;0,04351361;Lamborguini

26/03/2018 17:23:29;6,033185;0,06518663;0,04230573;Lamborguini

26/03/2018 17:23:29;6,044197;0,06549317;0,04121546;Lamborguini

26/03/2018 17:23:29;6,321371;0,06338933;0,03569507;Lamborguini

26/03/2018 17:23:29;6,333324;0,0628721;0,03615094;Lamborguini

26/03/2018 17:23:29;6,34481;0,06250837;0,03667296;Lamborguini

26/03/2018 17:23:29;6,356426;0,06223706;0,0372251;Lamborguini

26/03/2018 17:23:29;6,366935;0,06171505;0,03767658;Lamborguini

26/03/2018 17:23:29;6,378443;0,06096407;0,03819796;Lamborguini

26/03/2018 17:23:29;6,40053;0,05920459;0,03978736;Lamborguini

26/03/2018 17:23:29;6,421494;0,05688307;0,04172978;Lamborguini

26/03/2018 17:23:29;6,433229;0,05571032;0,04267356;Lamborguini

26/03/2018 17:23:29;6,445927;0,05410998;0,04407659;Lamborguini

26/03/2018 17:23:29;6,459194;0,05232604;0,04545298;Lamborguini

26/03/2018 17:23:29;6,473831;0,05036477;0,04684456;Lamborguini

26/03/2018 17:23:29;6,625553;0,0160041;0,06223595;VideoAudi

26/03/2018 17:23:29;6,640997;0,01466238;0,06286125;VideoAudi

26/03/2018 17:23:29;6,658712;0,0118905;0,06387734;VideoAudi

26/03/2018 17:23:29;6,67261;0,01088793;0,06437021;VideoAudi

26/03/2018 17:23:29;6,691751;0,00896016;0,06518836;VideoAudi

26/03/2018 17:23:30;6,705628;0,008323338;0,06548436;VideoAudi

26/03/2018 17:23:30;6,721149;0,007971328;0,06586404;VideoAudi

26/03/2018 17:23:30;6,735793;0,006876267;0,06610727;Audi

26/03/2018 17:23:30;6,750477;0,006829971;0,06658121;Audi

26/03/2018 17:23:30;6,768952;0,00630136;0,0672084;Audi

26/03/2018 17:23:30;6,784207;0,00621447;0,06726328;Audi

26/03/2018 17:23:30;6,80265;0,005710799;0,06765687;Audi

26/03/2018 17:23:30;6,824919;0,005510629;0,06785788;Audi

26/03/2018 17:23:30;6,847327;0,005625878;0,06828709;Audi

26/03/2018 17:23:30;6,862245;0,005682001;0,06853393;Audi

26/03/2018 17:23:30;6,880826;0,005707894;0,06898925;Audi

26/03/2018 17:23:30;6,894808;0,005730445;0,06924;Audi

26/03/2018 17:23:30;6,915282;0,005678687;0,06983896;Audi

26/03/2018 17:23:30;6,929385;0,005852416;0,06994857;Audi

26/03/2018 17:23:30;6,947224;0,006084279;0,0699314;Audi

26/03/2018 17:23:30;6,962066;0,005864428;0,06977078;Audi

26/03/2018 17:23:30;6,981235;0,005213003;0,06974202;Audi

26/03/2018 17:23:30;6,995413;0,004701266;0,06978562;Audi

26/03/2018 17:23:30;7,013842;0,003443154;0,06982699;Audi

26/03/2018 17:23:30;7,028823;0,002207946;0,06968649;Audi

26/03/2018 17:23:30;7,047394;0,000287802;0,06925976;Audi

26/03/2018 17:23:30;7,06196;-0,001110564;0,06871101;Audi

26/03/2018 17:23:30;7,080662;-0,003697576;0,06790301;Audi

26/03/2018 17:23:30;7,095376;-0,005269253;0,06764684;Audi

26/03/2018 17:23:30;7,114019;-0,008352158;0,06684601;Audi

26/03/2018 17:23:30;7,12893;-0,009912156;0,06640635;Audi

26/03/2018 17:23:30;7,14817;-0,01264934;0,06540434;Audi

26/03/2018 17:23:30;7,162531;-0,01389355;0,06483346;VideoAudi

26/03/2018 17:23:30;7,180823;-0,01621378;0,0636381;VideoAudi

26/03/2018 17:23:30;7,19608;-0,01724578;0,0630164;VideoAudi

26/03/2018 17:23:30;7,215167;-0,01895877;0,06182782;VideoAudi

26/03/2018 17:23:30;7,230402;-0,01940415;0,06123489;VideoAudi

26/03/2018 17:23:30;7,247579;-0,02047059;0,06000122;VideoAudi

26/03/2018 17:23:30;7,270131;-0,02068209;0,05897786;VideoAudi

26/03/2018 17:23:30;7,285162;-0,02036683;0,05852032;VideoAudi

26/03/2018 17:23:30;7,302989;-0,02028152;0,05687316;VideoAudi

26/03/2018 17:23:30;7,318581;-0,01977558;0,05646211;VideoAudi

26/03/2018 17:23:30;7,335895;-0,01913328;0,05568172;VideoAudi

26/03/2018 17:23:30;7,352914;-0,01809287;0,05587885;VideoAudi

26/03/2018 17:23:30;7,369567;-0,01652011;0,05581784;VideoAudi

26/03/2018 17:23:30;7,385246;-0,01507594;0,05625875;VideoAudi

26/03/2018 17:23:30;7,403397;-0,01295618;0,05671095;VideoAudi

26/03/2018 17:23:30;7,417862;-0,01171125;0,05713244;VideoAudi

26/03/2018 17:23:30;7,436281;-0,009959876;0,05755061;VideoAudi

26/03/2018 17:23:30;7,451563;-0,009395394;0,05780929;VideoAudi

26/03/2018 17:23:30;7,471209;-0,008008414;0,05818143;VideoAudi

26/03/2018 17:23:30;7,485656;-0,007268925;0,05847259;VideoAudi

26/03/2018 17:23:30;7,502532;-0,005687692;0,05894248;VideoAudi

26/03/2018 17:23:30;7,517052;-0,004853396;0,05928559;VideoAudi

26/03/2018 17:23:30;7,536353;-0,003299693;0,05998853;VideoAudi

26/03/2018 17:23:30;7,551297;-0,002744452;0,06048629;VideoAudi

26/03/2018 17:23:30;7,56946;-0,00142209;0,06137097;VideoAudi

26/03/2018 17:23:30;7,584451;-0,0005593495;0,06197549;VideoAudi

26/03/2018 17:23:30;7,602583;0,001111127;0,06298772;VideoAudi

26/03/2018 17:23:30;7,616317;0,001581119;0,06357525;VideoAudi

26/03/2018 17:23:30;7,635861;0,002545027;0,06442714;VideoAudi

26/03/2018 17:23:30;7,650946;0,003104414;0,06477635;VideoAudi

26/03/2018 17:23:30;7,669094;0,004415948;0,06557021;VideoAudi

26/03/2018 17:23:30;7,68412;0,005025652;0,06603348;Audi

26/03/2018 17:23:31;7,702441;0,00560332;0,06676718;Audi

26/03/2018 17:23:31;7,717061;0,005620955;0,06702158;Audi

26/03/2018 17:23:31;7,736227;0,005784109;0,06757873;Audi

26/03/2018 17:23:31;7,751693;0,005717369;0,06793188;Audi

26/03/2018 17:23:31;7,769112;0,005918801;0,06873703;Audi

26/03/2018 17:23:31;7,784736;0,005919038;0,06917904;Audi

26/03/2018 17:23:31;7,802607;0,005709994;0,06952967;Audi

26/03/2018 17:23:31;7,817499;0,005625454;0,07025877;Audi

26/03/2018 17:23:31;7,836805;0,005352495;0,07059406;Audi

26/03/2018 17:23:31;7,851718;0,00510265;0,07120241;Audi

26/03/2018 17:23:31;7,868498;0,004890908;0,07128215;Audi

26/03/2018 17:23:31;7,891565;0,00428879;0,0716514;Audi

26/03/2018 17:23:31;7,905965;0,004041346;0,07179704;Audi

26/03/2018 17:23:31;7,924529;0,003728435;0,07218499;Audi

26/03/2018 17:23:31;7,938209;0,003674814;0,07238522;Audi

26/03/2018 17:23:31;7,9584;0,003551289;0,07271385;Audi

26/03/2018 17:23:31;7,972513;0,003444044;0,07284184;Audi

26/03/2018 17:23:31;7,992775;0,0032852;0,07316701;Audi

26/03/2018 17:23:31;8,006738;0,003270772;0,07337114;Audi

26/03/2018 17:23:31;8,024996;0,003234971;0,07372923;Audi

26/03/2018 17:23:31;8,039929;0,0032171;0,07384193;Audi

26/03/2018 17:23:31;8,058354;0,003115466;0,07394312;Audi

26/03/2018 17:23:31;8,07387;0,003104646;0,07390803;Audi

26/03/2018 17:23:31;8,091292;0,003031769;0,07401042;Audi

26/03/2018 17:23:31;8,106773;0,002990678;0,07412239;Audi

26/03/2018 17:23:31;8,12519;0,002967034;0,07435544;Audi

26/03/2018 17:23:31;8,139923;0,002939448;0,07445852;Audi

26/03/2018 17:23:31;8,158124;0,002938344;0,07469819;Audi

26/03/2018 17:23:31;8,173106;0,003022156;0,07487718;Audi

26/03/2018 17:23:31;8,191556;0,003122758;0,07518903;Audi

26/03/2018 17:23:31;8,206053;0,003199887;0,07533894;Audi

26/03/2018 17:23:31;8,225186;0,003245132;0,07555991;Audi

26/03/2018 17:23:31;8,23991;0,003250229;0,07563448;Audi

26/03/2018 17:23:31;8,258182;0,003340182;0,07583579;Audi

26/03/2018 17:23:31;8,272449;0,00343414;0,07594842;Audi

26/03/2018 17:23:31;8,291875;0,003501703;0,07619838;Audi

26/03/2018 17:23:31;8,306447;0,003556028;0,0762831;Audi

26/03/2018 17:23:31;8,324459;0,003671484;0,0762127;Audi

26/03/2018 17:23:31;8,339591;0,003713424;0,07633619;Audi

26/03/2018 17:23:31;8,358356;0,003925885;0,07662795;Audi

26/03/2018 17:23:31;8,3729;0,004124331;0,0767874;Audi

26/03/2018 17:23:31;8,391522;0,004448311;0,07693438;Audi

26/03/2018 17:23:31;8,406529;0,004594486;0,07699846;Audi

26/03/2018 17:23:31;8,42517;0,004838129;0,07720351;Audi

26/03/2018 17:23:31;8,439848;0,004952263;0,07724415;Audi

26/03/2018 17:23:31;8,458855;0,005166374;0,07735178;Audi

26/03/2018 17:23:31;8,472975;0,005284768;0,07741638;Audi

26/03/2018 17:23:31;8,491023;0,005512108;0,07747431;Audi

26/03/2018 17:23:31;8,506018;0,005681004;0,07758269;Audi

26/03/2018 17:23:31;8,526182;0,006186531;0,07782895;Audi

26/03/2018 17:23:31;8,54082;0,006522568;0,07796334;Audi

26/03/2018 17:23:31;8,558047;0,007329679;0,07822136;Audi

26/03/2018 17:23:31;8,571889;0,00793469;0,07837366;Audi

26/03/2018 17:23:32;9,666708;0,06790914;0,04064378;Lamborguini

26/03/2018 17:23:32;9,677957;0,06808802;0,03919683;Lamborguini

26/03/2018 17:23:32;9,689353;0,06820674;0,03768201;Lamborguini

26/03/2018 17:23:33;9,732944;0,0676071;0,03264354;Lamborguini

26/03/2018 17:23:33;9,75669;0,06702031;0,03028774;Lamborguini

26/03/2018 17:23:33;9,767894;0,06672597;0,0289008;Lamborguini

26/03/2018 17:23:37;13,89329;0,01670728;0,07740268;BannerAudi

26/03/2018 17:23:37;13,9086;0,01673669;0,07707316;BannerAudi

26/03/2018 17:23:37;13,92487;0,01660194;0,0766401;BannerAudi

26/03/2018 17:23:37;13,94007;0,01656596;0,07644512;BannerAudi

26/03/2018 17:23:37;13,95784;0,01639504;0,07608385;BannerAudi

26/03/2018 17:23:37;13,97315;0,01641594;0,07585618;BannerAudi

26/03/2018 17:23:37;13,99152;0,01672726;0,07550738;BannerAudi

26/03/2018 17:23:37;14,00677;0,01683162;0,07545713;BannerAudi

26/03/2018 17:23:40;17,60308;0,01191766;0,05487264;VideoAudi

26/03/2018 17:23:40;17,61783;0,01295557;0,05668858;VideoAudi

26/03/2018 17:23:40;17,63616;0,01326694;0,0589495;VideoAudi

26/03/2018 17:23:40;17,65777;0,01245927;0,05927963;VideoAudi

26/03/2018 17:23:40;17,67244;0,01210297;0,06128739;VideoAudi

26/03/2018 17:23:40;17,69172;0,01227917;0,06372321;VideoAudi

26/03/2018 17:23:41;17,70669;0,01280411;0,06485125;VideoAudi

26/03/2018 17:23:41;17,72521;0,01307448;0,06580138;Audi

26/03/2018 17:23:41;17,74016;0,01293227;0,06597633;Audi

26/03/2018 17:23:41;17,75832;0,01275313;0,06690463;Audi

26/03/2018 17:23:41;17,77332;0,01284032;0,06748874;Audi

26/03/2018 17:23:41;17,79419;0,0130784;0,06831033;Audi

26/03/2018 17:23:41;17,81354;0,01312386;0,06897742;Audi

26/03/2018 17:23:41;17,83676;0,01338353;0,06980444;Audi

26/03/2018 17:23:41;17,852;0,01340939;0,06998839;Audi

26/03/2018 17:23:41;17,86945;0,01343836;0,07048418;Audi

26/03/2018 17:23:41;17,8845;0,01345907;0,07071681;Audi

26/03/2018 17:23:41;17,90288;0,01341043;0,07161349;Audi

26/03/2018 17:23:41;17,91793;0,01328602;0,07237995;Audi

26/03/2018 17:23:41;17,93642;0,01329101;0,07365977;Audi

26/03/2018 17:23:41;17,95108;0,01345434;0,07429516;Audi

26/03/2018 17:23:41;17,9701;0,01328783;0,07514162;Audi

26/03/2018 17:23:41;17,98469;0,0129539;0,07549766;Audi

26/03/2018 17:23:41;18,00311;0,01247387;0,07633351;Audi

26/03/2018 17:23:41;18,02569;0,01245566;0,07720426;Audi

26/03/2018 17:23:41;18,04101;0,0124826;0,07746999;Audi

26/03/2018 17:23:41;18,05845;0,01229974;0,07801738;Audi

