3/21/2018 2:27:54 AM -- 2.701611  -- 0, 0.09768402 -- Audi

3/21/2018 2:27:54 AM -- 2.72036  -- 0, 0.09768402 -- Audi

3/21/2018 2:27:55 AM -- 3.337847  -- 0, 0.09768402 -- Audi

3/21/2018 2:27:55 AM -- 3.386629  -- 0, 0.09768402 -- Audi

3/21/2018 2:27:55 AM -- 3.725071  -- 0, 0.09768402 -- Audi

3/21/2018 2:27:55 AM -- 3.798671  -- 0, 0.09768402 -- Audi

3/21/2018 2:27:55 AM -- 3.876559  -- 0, 0.09768402 -- Audi

3/21/2018 2:27:55 AM -- 3.961564  -- 0, 0.09768402 -- Audi

3/21/2018 2:27:55 AM -- 4.041723  -- 0, 0.09768402 -- Audi

3/21/2018 2:27:55 AM -- 4.122596  -- 0, 0.09768402 -- Audi

3/21/2018 2:27:55 AM -- 4.204105  -- 0, 0.09768402 -- Audi

3/21/2018 2:27:56 AM -- 4.295901  -- 0, 0.09768402 -- Audi

3/21/2018 2:27:56 AM -- 4.374189  -- 0, 0.09768402 -- Audi

3/21/2018 2:27:56 AM -- 4.460033  -- 0, 0.09768402 -- Audi

3/21/2018 2:27:56 AM -- 4.523791  -- 0, 0.09768402 -- Audi

3/21/2018 2:27:56 AM -- 4.595889  -- 0, 0.09768402 -- Audi

3/21/2018 2:27:56 AM -- 4.690958  -- 0, 0.09768402 -- Audi

3/21/2018 2:27:56 AM -- 4.77849  -- 0, 0.09768402 -- Audi

3/21/2018 2:27:56 AM -- 4.87588  -- 0, 0.09768402 -- Audi

3/21/2018 2:27:56 AM -- 4.957699  -- 0, 0.09768402 -- Audi

3/21/2018 2:27:56 AM -- 5.04946  -- 0, 0.09768402 -- Audi

3/21/2018 2:27:56 AM -- 5.151079  -- 0, 0.09768402 -- Audi

3/21/2018 2:27:56 AM -- 5.245555  -- 0, 0.09768402 -- Audi

3/21/2018 2:27:57 AM -- 5.34147  -- 0, 0.09768402 -- Audi

3/21/2018 2:27:57 AM -- 5.449456  -- 0, 0.09768402 -- Audi

3/21/2018 2:27:57 AM -- 5.547189  -- 0, 0.09768402 -- Audi

3/21/2018 2:27:57 AM -- 5.650763  -- 0, 0.09768402 -- Audi

3/21/2018 2:27:57 AM -- 5.744475  -- 0, 0.09768402 -- Audi

3/21/2018 2:27:57 AM -- 5.843896  -- 0, 0.09768402 -- Audi

3/21/2018 2:27:57 AM -- 5.945225  -- 0, 0.09768402 -- Audi

3/21/2018 2:27:57 AM -- 6.043338  -- 0, 0.09768402 -- Audi

3/21/2018 2:27:57 AM -- 6.093042  -- 0, 0.09768402 -- Audi

3/21/2018 2:27:57 AM -- 6.142234  -- 0, 0.09768402 -- Audi

3/21/2018 2:27:57 AM -- 6.208853  -- 0, 0.09768402 -- Audi

3/21/2018 2:27:58 AM -- 6.276302  -- 0, 0.09768402 -- Audi

3/21/2018 2:27:58 AM -- 6.35879  -- 0, 0.09768402 -- Audi

3/21/2018 2:27:58 AM -- 6.425695  -- 0, 0.09768402 -- Audi

3/21/2018 2:27:58 AM -- 6.513768  -- 0, 0.09768402 -- Audi

3/21/2018 2:27:58 AM -- 6.576972  -- 0, 0.09768402 -- Audi

3/21/2018 2:27:58 AM -- 6.642614  -- 0, 0.09768402 -- Audi

3/21/2018 2:27:58 AM -- 6.71019  -- 0, 0.09768402 -- Audi

3/21/2018 2:27:58 AM -- 6.758796  -- 0, 0.09768402 -- Audi

3/21/2018 2:27:58 AM -- 6.843458  -- 0, 0.09768402 -- Audi

3/21/2018 2:27:58 AM -- 6.9261  -- 0, 0.09768402 -- Audi

3/21/2018 2:27:58 AM -- 6.992232  -- 0, 0.09768402 -- Audi

3/21/2018 2:27:58 AM -- 7.06039  -- 0, 0.09768402 -- Audi

3/21/2018 2:27:58 AM -- 7.109414  -- 0, 0.09768402 -- Audi

3/21/2018 2:27:58 AM -- 7.192513  -- 0, 0.09768402 -- Audi

3/21/2018 2:27:58 AM -- 7.243259  -- 0, 0.09768402 -- Audi

3/21/2018 2:27:59 AM -- 7.310795  -- 0, 0.09768402 -- Audi

3/21/2018 2:27:59 AM -- 7.359529  -- 0, 0.09768402 -- Audi

3/21/2018 2:27:59 AM -- 7.410895  -- 0, 0.09768402 -- Audi

3/21/2018 2:27:59 AM -- 7.477139  -- 0, 0.09768402 -- Audi

3/21/2018 2:27:59 AM -- 7.528694  -- 0, 0.09768402 -- Audi

3/21/2018 2:27:59 AM -- 7.614673  -- 0, 0.09768402 -- Audi

3/21/2018 2:27:59 AM -- 7.694993  -- 0, 0.09768402 -- Audi

3/21/2018 2:27:59 AM -- 7.779318  -- 0, 0.09768402 -- Audi

3/21/2018 2:27:59 AM -- 7.861557  -- 0, 0.09768402 -- Audi

3/21/2018 2:27:59 AM -- 7.911154  -- 0, 0.09768402 -- Audi

3/21/2018 2:27:59 AM -- 8.001368  -- 0, 0.09768402 -- Audi

3/21/2018 2:27:59 AM -- 8.061498  -- 0, 0.09768402 -- Audi

3/21/2018 2:27:59 AM -- 8.148561  -- 0, 0.09768402 -- Audi

3/21/2018 2:27:59 AM -- 8.194324  -- 0, 0.09768402 -- Audi

3/21/2018 2:27:59 AM -- 8.24515  -- 0, 0.09768402 -- Audi

3/21/2018 2:28:00 AM -- 8.312921  -- 0, 0.09768402 -- Audi

3/21/2018 2:28:00 AM -- 8.393886  -- 0, 0.09768402 -- Audi

3/21/2018 2:28:00 AM -- 8.480354  -- 0, 0.09768402 -- Audi

3/21/2018 2:28:00 AM -- 8.544256  -- 0, 0.09768402 -- Audi

3/21/2018 2:28:00 AM -- 8.636615  -- 0, 0.09768402 -- Audi

3/21/2018 2:28:00 AM -- 8.825895  -- 0, 0.09768402 -- Audi

3/21/2018 2:28:00 AM -- 8.904994  -- 0, 0.09768402 -- Audi

3/21/2018 2:28:00 AM -- 8.943619  -- 0, 0.09768402 -- Audi

3/21/2018 2:28:00 AM -- 8.976232  -- 0, 0.09768402 -- Audi

3/21/2018 2:28:00 AM -- 9.009732  -- 0, 0.09768402 -- Audi

3/21/2018 2:28:00 AM -- 9.043907  -- 0, 0.09768402 -- Audi

3/21/2018 2:28:00 AM -- 9.093119  -- 0, 0.09768402 -- Audi

3/21/2018 2:28:00 AM -- 9.142838  -- 0, 0.09768402 -- Audi

3/21/2018 2:28:00 AM -- 9.176907  -- 0, 0.09768402 -- Audi

3/21/2018 2:28:00 AM -- 9.227384  -- 0, 0.09768402 -- Audi

3/21/2018 2:28:01 AM -- 9.260663  -- 0, 0.09768402 -- Audi

3/21/2018 2:28:01 AM -- 9.309774  -- 0, 0.09768402 -- Audi

3/21/2018 2:28:01 AM -- 9.356406  -- 0, 0.09768402 -- Audi

3/21/2018 2:28:01 AM -- 9.403411  -- 0, 0.09768402 -- Audi

3/21/2018 2:28:01 AM -- 9.451875  -- 0, 0.09768402 -- Audi

3/21/2018 2:28:01 AM -- 9.494687  -- 0, 0.09768402 -- Audi

3/21/2018 2:28:01 AM -- 9.544337  -- 0, 0.09768402 -- Audi

3/21/2018 2:28:01 AM -- 9.593577  -- 0, 0.09768402 -- Audi

3/21/2018 2:28:01 AM -- 9.627596  -- 0, 0.09768402 -- Audi

3/21/2018 2:28:01 AM -- 9.677886  -- 0, 0.09768402 -- Audi

3/21/2018 2:28:01 AM -- 9.735052  -- 0, 0.09768402 -- Audi

3/21/2018 2:28:01 AM -- 9.777018  -- 0, 0.09768402 -- Audi

3/21/2018 2:28:01 AM -- 9.816875  -- 0, 0.09768402 -- Audi

3/21/2018 2:28:01 AM -- 9.860539  -- 0, 0.09768402 -- Audi

3/21/2018 2:28:01 AM -- 9.89688  -- 0, 0.09768402 -- Audi

3/21/2018 2:28:01 AM -- 9.926883  -- 0, 0.09768402 -- Audi

3/21/2018 2:28:01 AM -- 9.978079  -- 0, 0.09768402 -- Audi

3/21/2018 2:28:01 AM -- 10.02736  -- 0, 0.09768402 -- Audi

3/21/2018 2:28:01 AM -- 10.06685  -- 0, 0.09768402 -- Audi

3/21/2018 2:28:01 AM -- 10.11128  -- 0, 0.09768402 -- Audi

3/21/2018 2:28:01 AM -- 10.14657  -- 0, 0.09768402 -- Audi

3/21/2018 2:28:01 AM -- 10.19404  -- 0, 0.09768402 -- Audi

3/21/2018 2:28:01 AM -- 10.22773  -- 0, 0.09768402 -- Audi

3/21/2018 2:28:02 AM -- 10.26161  -- 0, 0.09768402 -- Audi

3/21/2018 2:28:02 AM -- 10.31067  -- 0, 0.09768402 -- Audi

3/21/2018 2:28:02 AM -- 10.34452  -- 0, 0.09768402 -- Audi

3/21/2018 2:28:02 AM -- 10.46723  -- 0, 0.09768402 -- Audi

3/21/2018 2:28:02 AM -- 10.54676  -- 0, 0.09768402 -- Audi

3/21/2018 2:28:02 AM -- 10.58454  -- 0, 0.09768402 -- Audi

3/21/2018 2:28:02 AM -- 10.62918  -- 0, 0.09768402 -- Audi

3/21/2018 2:28:02 AM -- 10.6625  -- 0, 0.09768402 -- Audi

3/21/2018 2:28:02 AM -- 10.71119  -- 0, 0.09768402 -- Audi

3/21/2018 2:28:02 AM -- 10.7449  -- 0, 0.09768402 -- Audi

3/21/2018 2:28:02 AM -- 10.78853  -- 0, 0.09768402 -- Audi

3/21/2018 2:28:02 AM -- 10.82842  -- 0, 0.09768402 -- Audi

3/21/2018 2:28:02 AM -- 10.86132  -- 0, 0.09768402 -- Audi

3/21/2018 2:28:02 AM -- 10.89538  -- 0, 0.09768402 -- Audi

3/21/2018 2:28:02 AM -- 10.92841  -- 0, 0.09768402 -- Audi

3/21/2018 2:28:02 AM -- 10.96249  -- 0, 0.09768402 -- Audi

3/21/2018 2:28:02 AM -- 10.99535  -- 0, 0.09768402 -- Audi

3/21/2018 2:28:02 AM -- 11.02889  -- 0, 0.09768402 -- Audi

3/21/2018 2:28:02 AM -- 11.08024  -- 0, 0.09768402 -- Audi

3/21/2018 2:28:02 AM -- 11.11284  -- 0, 0.09768402 -- Audi

3/21/2018 2:28:02 AM -- 11.14602  -- 0, 0.09768402 -- Audi

3/21/2018 2:28:02 AM -- 11.19582  -- 0, 0.09768402 -- Audi

3/21/2018 2:28:02 AM -- 11.23029  -- 0, 0.09768402 -- Audi

3/21/2018 2:28:03 AM -- 11.26325  -- 0, 0.09768402 -- Audi

3/21/2018 2:28:03 AM -- 11.2964  -- 0, 0.09768402 -- Audi

3/21/2018 2:28:03 AM -- 11.32885  -- 0, 0.09768402 -- Audi

3/21/2018 2:28:03 AM -- 11.38382  -- 0, 0.09768402 -- Audi

3/21/2018 2:28:03 AM -- 11.4298  -- 0, 0.09768402 -- Audi

3/21/2018 2:28:03 AM -- 11.46272  -- 0, 0.09768402 -- Audi

3/21/2018 2:28:03 AM -- 11.51522  -- 0, 0.09768402 -- Audi

3/21/2018 2:28:03 AM -- 11.56295  -- 0, 0.09768402 -- Audi

3/21/2018 2:28:03 AM -- 11.59664  -- 0, 0.09768402 -- Audi

3/21/2018 2:28:03 AM -- 11.63443  -- 0, 0.09768402 -- Audi

3/21/2018 2:28:03 AM -- 11.68017  -- 0, 0.09768402 -- Audi

3/21/2018 2:28:03 AM -- 11.71371  -- 0, 0.09768402 -- Audi

3/21/2018 2:28:03 AM -- 11.74648  -- 0, 0.09768402 -- Audi

3/21/2018 2:28:03 AM -- 11.79649  -- 0, 0.09768402 -- Audi

3/21/2018 2:28:03 AM -- 11.83064  -- 0, 0.09768402 -- Audi

3/21/2018 2:28:03 AM -- 11.86515  -- 0, 0.09768402 -- Audi

3/21/2018 2:28:03 AM -- 11.89717  -- 0, 0.09768402 -- Audi

3/21/2018 2:28:03 AM -- 11.95336  -- 0, 0.09768402 -- Audi

3/21/2018 2:28:03 AM -- 11.99785  -- 0, 0.09768402 -- Audi

3/21/2018 2:28:03 AM -- 12.03362  -- 0, 0.09768402 -- Audi

3/21/2018 2:28:03 AM -- 12.0841  -- 0, 0.09768402 -- Audi

3/21/2018 2:28:03 AM -- 12.13539  -- 0, 0.09768402 -- Audi

3/21/2018 2:28:03 AM -- 12.18229  -- 0, 0.09768402 -- Audi

3/21/2018 2:28:03 AM -- 12.23403  -- 0, 0.09768402 -- Audi

3/21/2018 2:28:04 AM -- 12.26359  -- 0, 0.09768402 -- Audi

3/21/2018 2:28:04 AM -- 12.31872  -- 0, 0.09768402 -- Audi

3/21/2018 2:28:04 AM -- 12.36393  -- 0, 0.09768402 -- Audi

3/21/2018 2:28:04 AM -- 12.39687  -- 0, 0.09768402 -- Audi

3/21/2018 2:28:04 AM -- 12.43249  -- 0, 0.09768402 -- Audi

3/21/2018 2:28:04 AM -- 12.48276  -- 0, 0.09768402 -- Audi

3/21/2018 2:28:04 AM -- 12.51562  -- 0, 0.09768402 -- Audi

3/21/2018 2:28:04 AM -- 12.57106  -- 0, 0.09768402 -- Audi

3/21/2018 2:28:04 AM -- 12.61711  -- 0, 0.09768402 -- Audi

3/21/2018 2:28:04 AM -- 12.65021  -- 0, 0.09768402 -- Audi

3/21/2018 2:28:04 AM -- 12.68022  -- 0, 0.09768402 -- Audi

3/21/2018 2:28:04 AM -- 12.71823  -- 0, 0.09768402 -- Audi

3/21/2018 2:28:04 AM -- 12.74833  -- 0, 0.09768402 -- Audi

3/21/2018 2:28:04 AM -- 12.79828  -- 0, 0.09768402 -- Audi

3/21/2018 2:28:04 AM -- 12.84968  -- 0, 0.09768402 -- Audi

3/21/2018 2:28:04 AM -- 12.89723  -- 0, 0.09768402 -- Audi

3/21/2018 2:28:04 AM -- 12.93098  -- 0, 0.09768402 -- Audi

3/21/2018 2:28:04 AM -- 12.96507  -- 0, 0.09768402 -- Audi

3/21/2018 2:28:04 AM -- 12.99698  -- 0, 0.09768402 -- Audi

3/21/2018 2:28:04 AM -- 13.03037  -- 0, 0.09768402 -- Audi

3/21/2018 2:28:04 AM -- 13.06454  -- 0, 0.09768402 -- Audi

3/21/2018 2:28:04 AM -- 13.09881  -- 0, 0.09768402 -- Audi

3/21/2018 2:28:04 AM -- 13.1321  -- 0, 0.09768402 -- Audi

3/21/2018 2:28:04 AM -- 13.1656  -- 0, 0.09768402 -- Audi

3/21/2018 2:28:04 AM -- 13.21585  -- 0, 0.09768402 -- Audi

3/21/2018 2:28:05 AM -- 13.26615  -- 0, 0.09768402 -- Audi

3/21/2018 2:28:05 AM -- 13.29921  -- 0, 0.09768402 -- Audi

3/21/2018 2:28:05 AM -- 13.34924  -- 0, 0.09768402 -- Audi

3/21/2018 2:28:05 AM -- 13.38218  -- 0, 0.09768402 -- Audi

3/21/2018 2:28:05 AM -- 13.41632  -- 0, 0.09768402 -- Audi

3/21/2018 2:28:05 AM -- 13.46577  -- 0, 0.09768402 -- Audi

3/21/2018 2:28:05 AM -- 13.50107  -- 0, 0.09768402 -- Audi

3/21/2018 2:28:05 AM -- 13.5488  -- 0, 0.09768402 -- Audi

3/21/2018 2:28:05 AM -- 13.60771  -- 0, 0.09768402 -- Audi

3/21/2018 2:28:05 AM -- 13.64865  -- 0, 0.09768402 -- Audi

3/21/2018 2:28:05 AM -- 13.68057  -- 0, 0.09768402 -- Audi

3/21/2018 2:28:05 AM -- 13.71617  -- 0, 0.09768402 -- Audi

3/21/2018 2:28:05 AM -- 13.76755  -- 0, 0.09768402 -- Audi

3/21/2018 2:28:05 AM -- 13.79739  -- 0, 0.09768402 -- Audi

3/21/2018 2:28:05 AM -- 13.84954  -- 0, 0.09768402 -- Audi

3/21/2018 2:28:05 AM -- 13.88098  -- 0, 0.09768402 -- Audi

3/21/2018 2:28:05 AM -- 13.9157  -- 0, 0.09768402 -- Audi

3/21/2018 2:28:05 AM -- 13.96608  -- 0, 0.09768402 -- Audi

3/21/2018 2:28:05 AM -- 13.99805  -- 0, 0.09768402 -- Audi

3/21/2018 2:28:05 AM -- 14.03262  -- 0, 0.09768402 -- Audi

3/21/2018 2:28:05 AM -- 14.08248  -- 0, 0.09768402 -- Audi

3/21/2018 2:28:05 AM -- 14.11612  -- 0, 0.09768402 -- Audi

3/21/2018 2:28:05 AM -- 14.16765  -- 0, 0.09768402 -- Audi

3/21/2018 2:28:05 AM -- 14.21727  -- 0, 0.09768402 -- Audi

3/21/2018 2:28:06 AM -- 14.26879  -- 0, 0.09768402 -- Audi

3/21/2018 2:28:06 AM -- 14.31603  -- 0, 0.09768402 -- Audi

3/21/2018 2:28:06 AM -- 14.37945  -- 0, 0.09768402 -- Audi

3/21/2018 2:28:06 AM -- 14.41902  -- 0, 0.09768402 -- Audi

3/21/2018 2:28:06 AM -- 14.4677  -- 0, 0.09768402 -- Audi

3/21/2018 2:28:06 AM -- 14.49918  -- 0, 0.09768402 -- Audi

3/21/2018 2:28:06 AM -- 14.53475  -- 0, 0.09768402 -- Audi

3/21/2018 2:28:06 AM -- 14.58282  -- 0, 0.09768402 -- Audi

3/21/2018 2:28:06 AM -- 14.61626  -- 0, 0.09768402 -- Audi

3/21/2018 2:28:06 AM -- 14.66653  -- 0, 0.09768402 -- Audi

3/21/2018 2:28:06 AM -- 14.71598  -- 0, 0.09768402 -- Audi

3/21/2018 2:28:06 AM -- 14.75025  -- 0, 0.09768402 -- Audi

3/21/2018 2:28:06 AM -- 14.78437  -- 0, 0.09768402 -- Audi

3/21/2018 2:28:06 AM -- 14.8331  -- 0, 0.09768402 -- Audi

3/21/2018 2:28:06 AM -- 14.86636  -- 0, 0.09768402 -- Audi

3/21/2018 2:28:06 AM -- 14.90004  -- 0, 0.09768402 -- Audi

3/21/2018 2:28:06 AM -- 14.94953  -- 0, 0.09768402 -- Audi

3/21/2018 2:28:06 AM -- 14.99983  -- 0, 0.09768402 -- Audi

3/21/2018 2:28:06 AM -- 15.05045  -- 0, 0.09768402 -- Audi

3/21/2018 2:28:06 AM -- 15.10119  -- 0, 0.09768402 -- Audi

3/21/2018 2:28:06 AM -- 15.13979  -- 0, 0.09768402 -- Audi

3/21/2018 2:28:06 AM -- 15.18389  -- 0, 0.09768402 -- Audi

3/21/2018 2:28:06 AM -- 15.23423  -- 0, 0.09768402 -- Audi

3/21/2018 2:28:07 AM -- 15.27707  -- 0, 0.09768402 -- Audi

3/21/2018 2:28:07 AM -- 15.30292  -- 0, 0.09768402 -- Audi

3/21/2018 2:28:07 AM -- 15.33514  -- 0, 0.09768402 -- Audi

3/21/2018 2:28:07 AM -- 15.37674  -- 0, 0.09768402 -- Audi

3/21/2018 2:28:07 AM -- 15.40101  -- 0, 0.09768402 -- Audi

3/21/2018 2:28:07 AM -- 15.43478  -- 0, 0.09768402 -- Audi

3/21/2018 2:28:07 AM -- 15.46786  -- 0, 0.09768402 -- Audi

3/21/2018 2:28:07 AM -- 15.50521  -- 0, 0.09768402 -- Audi

3/21/2018 2:28:07 AM -- 15.53526  -- 0, 0.09768402 -- Audi

3/21/2018 2:28:07 AM -- 15.57031  -- 0, 0.09768402 -- Audi

3/21/2018 2:28:07 AM -- 15.60128  -- 0, 0.09768402 -- Audi

3/21/2018 2:28:07 AM -- 15.64247  -- 0, 0.09768402 -- Audi

3/21/2018 2:28:07 AM -- 15.67045  -- 0, 0.09768402 -- Audi

3/21/2018 2:28:07 AM -- 15.70309  -- 0, 0.09768402 -- Audi

3/21/2018 2:28:07 AM -- 15.74566  -- 0, 0.09768402 -- Audi

3/21/2018 2:28:07 AM -- 15.77454  -- 0, 0.09768402 -- Audi

3/21/2018 2:28:07 AM -- 15.80078  -- 0, 0.09768402 -- Audi

3/21/2018 2:28:07 AM -- 15.83662  -- 0, 0.09768402 -- Audi

3/21/2018 2:28:07 AM -- 15.87665  -- 0, 0.09768402 -- Audi

3/21/2018 2:28:07 AM -- 15.90204  -- 0, 0.09768402 -- Audi

3/21/2018 2:28:07 AM -- 15.93471  -- 0, 0.09768402 -- Audi

3/21/2018 2:28:07 AM -- 15.9688  -- 0, 0.09768402 -- Audi

3/21/2018 2:28:07 AM -- 16.00291  -- 0, 0.09768402 -- Audi

3/21/2018 2:28:07 AM -- 16.03436  -- 0, 0.09768402 -- Audi

3/21/2018 2:28:07 AM -- 16.06973  -- 0, 0.09768402 -- Audi

3/21/2018 2:28:07 AM -- 16.11114  -- 0, 0.09768402 -- Audi

3/21/2018 2:28:07 AM -- 16.13463  -- 0, 0.09768402 -- Audi

3/21/2018 2:28:07 AM -- 16.16952  -- 0, 0.09768402 -- Audi

3/21/2018 2:28:07 AM -- 16.20152  -- 0, 0.09768402 -- Audi

3/21/2018 2:28:07 AM -- 16.23425  -- 0, 0.09768402 -- Audi

3/21/2018 2:28:08 AM -- 16.26829  -- 0, 0.09768402 -- Audi

3/21/2018 2:28:08 AM -- 16.30766  -- 0, 0.09768402 -- Audi

3/21/2018 2:28:08 AM -- 16.33666  -- 0, 0.09768402 -- Audi

3/21/2018 2:28:08 AM -- 16.37449  -- 0, 0.09768402 -- Audi

3/21/2018 2:28:08 AM -- 16.40066  -- 0, 0.09768402 -- Audi

3/21/2018 2:28:08 AM -- 16.43563  -- 0, 0.09768402 -- Audi

3/21/2018 2:28:08 AM -- 16.46858  -- 0, 0.09768402 -- Audi

3/21/2018 2:28:08 AM -- 16.50227  -- 0, 0.09768402 -- Audi

3/21/2018 2:28:08 AM -- 16.53517  -- 0, 0.09768402 -- Audi

3/21/2018 2:28:08 AM -- 16.56928  -- 0, 0.09768402 -- Audi

3/21/2018 2:28:08 AM -- 16.60097  -- 0, 0.09768402 -- Audi

3/21/2018 2:28:08 AM -- 16.63627  -- 0, 0.09768402 -- Audi

3/21/2018 2:28:08 AM -- 16.67538  -- 0, 0.09768402 -- Audi

3/21/2018 2:28:08 AM -- 16.70206  -- 0, 0.09768402 -- Audi

3/21/2018 2:28:08 AM -- 16.74627  -- 0, 0.09768402 -- Audi

3/21/2018 2:28:08 AM -- 16.7856  -- 0, 0.09768402 -- Audi

3/21/2018 2:28:08 AM -- 16.82072  -- 0, 0.09768402 -- Audi

3/21/2018 2:28:08 AM -- 16.85892  -- 0, 0.09768402 -- Audi

3/21/2018 2:28:08 AM -- 16.88746  -- 0, 0.09768402 -- Audi

3/21/2018 2:28:08 AM -- 16.92021  -- 0, 0.09768402 -- Audi

3/21/2018 2:28:08 AM -- 16.95332  -- 0, 0.09768402 -- Audi

3/21/2018 2:28:08 AM -- 16.98577  -- 0, 0.09768402 -- Audi

3/21/2018 2:28:08 AM -- 17.01895  -- 0, 0.09768402 -- Audi

3/21/2018 2:28:08 AM -- 17.05206  -- 0, 0.09768402 -- Audi

3/21/2018 2:28:08 AM -- 17.08766  -- 0, 0.09768402 -- Audi

3/21/2018 2:28:08 AM -- 17.11844  -- 0, 0.09768402 -- Audi

3/21/2018 2:28:08 AM -- 17.15306  -- 0, 0.09768402 -- Audi

3/21/2018 2:28:08 AM -- 17.1864  -- 0, 0.09768402 -- Audi

3/21/2018 2:28:08 AM -- 17.22044  -- 0, 0.09768402 -- Audi

3/21/2018 2:28:09 AM -- 17.2574  -- 0, 0.09768402 -- Audi

3/21/2018 2:28:09 AM -- 17.29217  -- 0, 0.09768402 -- Audi

3/21/2018 2:28:09 AM -- 17.32014  -- 0, 0.09768402 -- Audi

3/21/2018 2:28:09 AM -- 17.35234  -- 0, 0.09768402 -- Audi

3/21/2018 2:28:09 AM -- 17.38712  -- 0, 0.09768402 -- Audi

3/21/2018 2:28:09 AM -- 17.42193  -- 0, 0.09768402 -- Audi

3/21/2018 2:28:09 AM -- 17.45507  -- 0, 0.09768402 -- Audi

3/21/2018 2:28:09 AM -- 17.48756  -- 0, 0.09768402 -- Audi

3/21/2018 2:28:09 AM -- 17.51908  -- 0, 0.09768402 -- Audi

3/21/2018 2:28:09 AM -- 17.55393  -- 0, 0.09768402 -- Audi

3/21/2018 2:28:09 AM -- 17.58776  -- 0, 0.09768402 -- Audi

3/21/2018 2:28:09 AM -- 17.62057  -- 0, 0.09768402 -- Audi

3/21/2018 2:28:09 AM -- 17.65933  -- 0, 0.09768402 -- Audi

3/21/2018 2:28:09 AM -- 17.68646  -- 0, 0.09768402 -- Audi

3/21/2018 2:28:09 AM -- 17.71928  -- 0, 0.09768402 -- Audi

3/21/2018 2:28:09 AM -- 17.75676  -- 0, 0.09768402 -- Audi

3/21/2018 2:28:09 AM -- 17.78672  -- 0, 0.09768402 -- Audi

3/21/2018 2:28:09 AM -- 17.82673  -- 0, 0.09768402 -- Audi

3/21/2018 2:28:09 AM -- 17.85464  -- 0, 0.09768402 -- Audi

3/21/2018 2:28:09 AM -- 17.89573  -- 0, 0.09768402 -- Audi

3/21/2018 2:28:09 AM -- 17.92009  -- 0, 0.09768402 -- Audi

3/21/2018 2:28:09 AM -- 17.95389  -- 0, 0.09768402 -- Audi

3/21/2018 2:28:09 AM -- 17.98923  -- 0, 0.09768402 -- Audi

3/21/2018 2:28:09 AM -- 18.02179  -- 0, 0.09768402 -- Audi

3/21/2018 2:28:09 AM -- 18.0544  -- 0, 0.09768402 -- Audi

3/21/2018 2:28:09 AM -- 18.09618  -- 0, 0.09768402 -- Audi

3/21/2018 2:28:09 AM -- 18.11907  -- 0, 0.09768402 -- Audi

3/21/2018 2:28:09 AM -- 18.15434  -- 0, 0.09768402 -- Audi

3/21/2018 2:28:09 AM -- 18.18829  -- 0, 0.09768402 -- Audi

3/21/2018 2:28:09 AM -- 18.22797  -- 0, 0.09768402 -- Audi

3/21/2018 2:28:09 AM -- 18.25531  -- 0, 0.09768402 -- Audi

3/21/2018 2:28:10 AM -- 18.28782  -- 0, 0.09768402 -- Audi

3/21/2018 2:28:10 AM -- 18.32056  -- 0, 0.09768402 -- Audi

3/21/2018 2:28:10 AM -- 18.35348  -- 0, 0.09768402 -- Audi

3/21/2018 2:28:10 AM -- 18.38767  -- 0, 0.09768402 -- Audi

3/21/2018 2:28:10 AM -- 18.42885  -- 0, 0.09768402 -- Audi

3/21/2018 2:28:10 AM -- 18.45448  -- 0, 0.09768402 -- Audi

3/21/2018 2:28:10 AM -- 18.488  -- 0, 0.09768402 -- Audi

3/21/2018 2:28:10 AM -- 18.52055  -- 0, 0.09768402 -- Audi

3/21/2018 2:28:10 AM -- 18.56193  -- 0, 0.09768402 -- Audi

3/21/2018 2:28:10 AM -- 18.58749  -- 0, 0.09768402 -- Audi

3/21/2018 2:28:10 AM -- 18.6287  -- 0, 0.09768402 -- Audi

3/21/2018 2:28:10 AM -- 18.65448  -- 0, 0.09768402 -- Audi

3/21/2018 2:28:10 AM -- 18.687  -- 0, 0.09768402 -- Audi

3/21/2018 2:28:10 AM -- 18.72095  -- 0, 0.09768402 -- Audi

3/21/2018 2:28:10 AM -- 18.75382  -- 0, 0.09768402 -- Audi

3/21/2018 2:28:10 AM -- 18.79012  -- 0, 0.09768402 -- Audi

3/21/2018 2:28:10 AM -- 18.82115  -- 0, 0.09768402 -- Audi

3/21/2018 2:28:10 AM -- 18.85493  -- 0, 0.09768402 -- Audi

3/21/2018 2:28:10 AM -- 18.89003  -- 0, 0.09768402 -- Audi

3/21/2018 2:28:10 AM -- 18.92133  -- 0, 0.09768402 -- Audi

3/21/2018 2:28:10 AM -- 18.95591  -- 0, 0.09768402 -- Audi

3/21/2018 2:28:10 AM -- 18.99649  -- 0, 0.09768402 -- Audi

3/21/2018 2:28:10 AM -- 19.02312  -- 0, 0.09768402 -- Audi

3/21/2018 2:28:10 AM -- 19.057  -- 0, 0.09768402 -- Audi

3/21/2018 2:28:10 AM -- 19.08848  -- 0, 0.09768402 -- Audi

3/21/2018 2:28:10 AM -- 19.12102  -- 0, 0.09768402 -- Audi

3/21/2018 2:28:10 AM -- 19.15465  -- 0, 0.09768402 -- Audi

3/21/2018 2:28:10 AM -- 19.18953  -- 0, 0.09768402 -- Audi

3/21/2018 2:28:10 AM -- 19.22237  -- 0, 0.09768402 -- Audi

3/21/2018 2:28:11 AM -- 19.2566  -- 0, 0.09768402 -- Audi

3/21/2018 2:28:11 AM -- 19.29108  -- 0, 0.09768402 -- Audi

3/21/2018 2:28:11 AM -- 19.32103  -- 0, 0.09768402 -- Audi

3/21/2018 2:28:11 AM -- 19.35656  -- 0, 0.09768402 -- Audi

3/21/2018 2:28:11 AM -- 19.38882  -- 0, 0.09768402 -- Audi

3/21/2018 2:28:11 AM -- 19.42153  -- 0, 0.09768402 -- Audi

3/21/2018 2:28:11 AM -- 19.46487  -- 0, 0.09768402 -- Audi

3/21/2018 2:28:11 AM -- 19.4894  -- 0, 0.09768402 -- Audi

3/21/2018 2:28:11 AM -- 19.52067  -- 0, 0.09768402 -- Audi

3/21/2018 2:28:11 AM -- 19.55613  -- 0, 0.09768402 -- Audi

3/21/2018 2:28:11 AM -- 19.59687  -- 0, 0.09768402 -- Audi

3/21/2018 2:28:11 AM -- 19.62192  -- 0, 0.09768402 -- Audi

3/21/2018 2:28:11 AM -- 19.66456  -- 0, 0.09768402 -- Audi

3/21/2018 2:28:11 AM -- 19.68865  -- 0, 0.09768402 -- Audi

3/21/2018 2:28:11 AM -- 19.7209  -- 0, 0.09768402 -- Audi

3/21/2018 2:28:11 AM -- 19.75987  -- 0, 0.09768402 -- Audi

3/21/2018 2:28:11 AM -- 19.78867  -- 0, 0.09768402 -- Audi

3/21/2018 2:28:11 AM -- 19.82255  -- 0, 0.09768402 -- Audi

3/21/2018 2:28:11 AM -- 19.85649  -- 0, 0.09768402 -- Audi

3/21/2018 2:28:11 AM -- 19.88885  -- 0, 0.09768402 -- Audi

3/21/2018 2:28:11 AM -- 19.9221  -- 0, 0.09768402 -- Audi

3/21/2018 2:28:11 AM -- 19.95646  -- 0, 0.09768402 -- Audi

3/21/2018 2:28:11 AM -- 19.98931  -- 0, 0.09768402 -- Audi

3/21/2018 2:28:11 AM -- 20.02282  -- 0, 0.09768402 -- Audi

3/21/2018 2:28:11 AM -- 20.05634  -- 0, 0.09768402 -- Audi

3/21/2018 2:28:11 AM -- 20.08942  -- 0, 0.09768402 -- Audi

3/21/2018 2:28:11 AM -- 20.12413  -- 0, 0.09768402 -- Audi

3/21/2018 2:28:11 AM -- 20.16469  -- 0, 0.09768402 -- Audi

3/21/2018 2:28:11 AM -- 20.19066  -- 0, 0.09768402 -- Audi

3/21/2018 2:28:11 AM -- 20.22301  -- 0, 0.09768402 -- Audi

3/21/2018 2:28:12 AM -- 20.26325  -- 0, 0.09768402 -- Audi

3/21/2018 2:28:12 AM -- 20.29073  -- 0, 0.09768402 -- Audi

3/21/2018 2:28:12 AM -- 20.32221  -- 0, 0.09768402 -- Audi

3/21/2018 2:28:12 AM -- 20.35581  -- 0, 0.09768402 -- Audi

3/21/2018 2:28:12 AM -- 20.3989  -- 0, 0.09768402 -- Audi

3/21/2018 2:28:12 AM -- 20.42377  -- 0, 0.09768402 -- Audi

3/21/2018 2:28:12 AM -- 20.45698  -- 0, 0.09768402 -- Audi

3/21/2018 2:28:12 AM -- 20.48991  -- 0, 0.09768402 -- Audi

3/21/2018 2:28:12 AM -- 20.52324  -- 0, 0.09768402 -- Audi

3/21/2018 2:28:12 AM -- 20.55628  -- 0, 0.09768402 -- Audi

3/21/2018 2:28:12 AM -- 20.59107  -- 0, 0.09768402 -- Audi

3/21/2018 2:28:12 AM -- 20.62362  -- 0, 0.09768402 -- Audi

3/21/2018 2:28:12 AM -- 20.66  -- 0, 0.09768402 -- Audi

3/21/2018 2:28:12 AM -- 20.6895  -- 0, 0.09768402 -- Audi

3/21/2018 2:28:12 AM -- 20.72318  -- 0, 0.09768402 -- Audi

3/21/2018 2:28:12 AM -- 20.75836  -- 0, 0.09768402 -- Audi

3/21/2018 2:28:12 AM -- 20.79242  -- 0, 0.09768402 -- Audi

3/21/2018 2:28:12 AM -- 20.83301  -- 0, 0.09768402 -- Audi

3/21/2018 2:28:12 AM -- 20.85722  -- 0, 0.09768402 -- Audi

3/21/2018 2:28:12 AM -- 20.89089  -- 0, 0.09768402 -- Audi

3/21/2018 2:28:12 AM -- 20.92282  -- 0, 0.09768402 -- Audi

3/21/2018 2:28:12 AM -- 20.96056  -- 0, 0.09768402 -- Audi

3/21/2018 2:28:12 AM -- 20.99233  -- 0, 0.09768402 -- Audi

3/21/2018 2:28:12 AM -- 21.02512  -- 0, 0.09768402 -- Audi

3/21/2018 2:28:12 AM -- 21.05701  -- 0, 0.09768402 -- Audi

3/21/2018 2:28:12 AM -- 21.0924  -- 0, 0.09768402 -- Audi

3/21/2018 2:28:12 AM -- 21.12357  -- 0, 0.09768402 -- Audi

3/21/2018 2:28:12 AM -- 21.15696  -- 0, 0.09768402 -- Audi

3/21/2018 2:28:12 AM -- 21.19207  -- 0, 0.09768402 -- Audi

3/21/2018 2:28:12 AM -- 21.2239  -- 0, 0.09768402 -- Audi

3/21/2018 2:28:13 AM -- 21.25636  -- 0, 0.09768402 -- Audi

3/21/2018 2:28:13 AM -- 21.29093  -- 0, 0.09768402 -- Audi

3/21/2018 2:28:13 AM -- 21.34066  -- 0, 0.09768402 -- Audi

3/21/2018 2:28:13 AM -- 21.37487  -- 0, 0.09768402 -- Audi

3/21/2018 2:28:13 AM -- 21.41163  -- 0, 0.09768402 -- Audi

3/21/2018 2:28:13 AM -- 21.43974  -- 0, 0.09768402 -- Audi

3/21/2018 2:28:13 AM -- 21.47632  -- 0, 0.09768402 -- Audi

3/21/2018 2:28:13 AM -- 21.50907  -- 0, 0.09768402 -- Audi

3/21/2018 2:28:13 AM -- 21.55726  -- 0, 0.09768402 -- Audi

3/21/2018 2:28:13 AM -- 21.59051  -- 0, 0.09768402 -- Audi

3/21/2018 2:28:13 AM -- 21.64173  -- 0, 0.09768402 -- Audi

3/21/2018 2:28:13 AM -- 21.67513  -- 0, 0.09768402 -- Audi

3/21/2018 2:28:13 AM -- 21.71299  -- 0, 0.09768402 -- Audi

3/21/2018 2:28:13 AM -- 21.74148  -- 0, 0.09768402 -- Audi

3/21/2018 2:28:13 AM -- 21.77475  -- 0, 0.09768402 -- Audi

3/21/2018 2:28:13 AM -- 21.80849  -- 0, 0.09768402 -- Audi

3/21/2018 2:28:13 AM -- 21.84042  -- 0, 0.09768402 -- Audi

3/21/2018 2:28:13 AM -- 21.8741  -- 0, 0.09768402 -- Audi

3/21/2018 2:28:13 AM -- 21.90915  -- 0, 0.09768402 -- Audi

3/21/2018 2:28:13 AM -- 21.95778  -- 0, 0.09768402 -- Audi

3/21/2018 2:28:13 AM -- 21.99738  -- 0, 0.09768402 -- Audi

3/21/2018 2:28:13 AM -- 22.04249  -- 0, 0.09768402 -- Audi

3/21/2018 2:28:13 AM -- 22.07569  -- 0, 0.09768402 -- Audi

3/21/2018 2:28:13 AM -- 22.10975  -- 0, 0.09768402 -- Audi

3/21/2018 2:28:13 AM -- 22.1415  -- 0, 0.09768402 -- Audi

3/21/2018 2:28:13 AM -- 22.17579  -- 0, 0.09768402 -- Audi

3/21/2018 2:28:13 AM -- 22.20886  -- 0, 0.09768402 -- Audi

3/21/2018 2:28:13 AM -- 22.24277  -- 0, 0.09768402 -- Audi

3/21/2018 2:28:14 AM -- 22.27498  -- 0, 0.09768402 -- Audi

3/21/2018 2:28:14 AM -- 22.31481  -- 0, 0.09768402 -- Audi

3/21/2018 2:28:14 AM -- 22.35866  -- 0, 0.09768402 -- Audi

3/21/2018 2:28:14 AM -- 22.39584  -- 0, 0.09768402 -- Audi

3/21/2018 2:28:14 AM -- 22.44168  -- 0, 0.09768402 -- Audi

3/21/2018 2:28:14 AM -- 22.47592  -- 0, 0.09768402 -- Audi

3/21/2018 2:28:14 AM -- 22.50936  -- 0, 0.09768402 -- Audi

3/21/2018 2:28:14 AM -- 22.55852  -- 0, 0.09768402 -- Audi

3/21/2018 2:28:14 AM -- 22.5916  -- 0, 0.09768402 -- Audi

3/21/2018 2:28:14 AM -- 22.62579  -- 0, 0.09768402 -- Audi

3/21/2018 2:28:14 AM -- 22.67533  -- 0, 0.09768402 -- Audi

3/21/2018 2:28:14 AM -- 22.70965  -- 0, 0.09768402 -- Audi

3/21/2018 2:28:14 AM -- 22.7445  -- 0, 0.09768402 -- Audi

3/21/2018 2:28:14 AM -- 22.79255  -- 0, 0.09768402 -- Audi

3/21/2018 2:28:14 AM -- 22.82601  -- 0, 0.09768402 -- Audi

3/21/2018 2:28:14 AM -- 22.86156  -- 0, 0.09768402 -- Audi

3/21/2018 2:28:14 AM -- 22.91007  -- 0, 0.09768402 -- Audi

3/21/2018 2:28:14 AM -- 22.9433  -- 0, 0.09768402 -- Audi

3/21/2018 2:28:14 AM -- 22.97851  -- 0, 0.09768402 -- Audi

3/21/2018 2:28:14 AM -- 23.02639  -- 0, 0.09768402 -- Audi

3/21/2018 2:28:14 AM -- 23.06193  -- 0, 0.09768402 -- Audi

3/21/2018 2:28:14 AM -- 23.10955  -- 0, 0.09768402 -- Audi

3/21/2018 2:28:14 AM -- 23.14381  -- 0, 0.09768402 -- Audi

3/21/2018 2:28:14 AM -- 23.17773  -- 0, 0.09768402 -- Audi

3/21/2018 2:28:14 AM -- 23.22578  -- 0, 0.09768402 -- Audi

3/21/2018 2:28:15 AM -- 23.25859  -- 0, 0.09768402 -- Audi

3/21/2018 2:28:15 AM -- 23.30535  -- 0, 0.09768402 -- Audi

3/21/2018 2:28:15 AM -- 23.34376  -- 0, 0.09768402 -- Audi

3/21/2018 2:28:15 AM -- 23.37726  -- 0, 0.09768402 -- Audi

3/21/2018 2:28:15 AM -- 23.41344  -- 0, 0.09768402 -- Audi

3/21/2018 2:28:15 AM -- 23.44476  -- 0, 0.09768402 -- Audi

3/21/2018 2:28:15 AM -- 23.49374  -- 0, 0.09768402 -- Audi

3/21/2018 2:28:15 AM -- 23.52607  -- 0, 0.09768402 -- Audi

3/21/2018 2:28:15 AM -- 23.55885  -- 0, 0.09768402 -- Audi

3/21/2018 2:28:15 AM -- 23.59749  -- 0, 0.09768402 -- Audi

3/21/2018 2:28:15 AM -- 23.64724  -- 0, 0.09768402 -- Audi

3/21/2018 2:28:15 AM -- 23.69328  -- 0, 0.09768402 -- Audi

3/21/2018 2:28:15 AM -- 23.74428  -- 0, 0.09768402 -- Audi

3/21/2018 2:28:15 AM -- 23.79424  -- 0, 0.09768402 -- Audi

3/21/2018 2:28:15 AM -- 23.84433  -- 0, 0.09768402 -- Audi

3/21/2018 2:28:15 AM -- 23.89745  -- 0, 0.09768402 -- Audi

3/21/2018 2:28:15 AM -- 23.94419  -- 0, 0.09768402 -- Audi

3/21/2018 2:28:15 AM -- 23.99325  -- 0, 0.09768402 -- Audi

3/21/2018 2:28:15 AM -- 24.02677  -- 0, 0.09768402 -- Audi

3/21/2018 2:28:15 AM -- 24.06724  -- 0, 0.09768402 -- Audi

3/21/2018 2:28:15 AM -- 24.11115  -- 0, 0.09768402 -- Audi

3/21/2018 2:28:15 AM -- 24.14495  -- 0, 0.09768402 -- Audi

3/21/2018 2:28:15 AM -- 24.18078  -- 0, 0.09768402 -- Audi

3/21/2018 2:28:15 AM -- 24.2274  -- 0, 0.09768402 -- Audi

3/21/2018 2:28:16 AM -- 24.26026  -- 0, 0.09768402 -- Audi

3/21/2018 2:28:16 AM -- 24.294  -- 0, 0.09768402 -- Audi

3/21/2018 2:28:16 AM -- 24.34824  -- 0, 0.09768402 -- Audi

3/21/2018 2:28:16 AM -- 24.3784  -- 0, 0.09768402 -- Audi

3/21/2018 2:28:16 AM -- 24.4122  -- 0, 0.09768402 -- Audi

3/21/2018 2:28:16 AM -- 24.46372  -- 0, 0.09768402 -- Audi

3/21/2018 2:28:16 AM -- 24.4953  -- 0, 0.09768402 -- Audi

3/21/2018 2:28:16 AM -- 24.52822  -- 0, 0.09768402 -- Audi

3/21/2018 2:28:16 AM -- 24.57909  -- 0, 0.09768402 -- Audi

3/21/2018 2:28:16 AM -- 24.61373  -- 0, 0.09768402 -- Audi

3/21/2018 2:28:16 AM -- 24.64845  -- 0, 0.09768402 -- Audi

3/21/2018 2:28:16 AM -- 24.69483  -- 0, 0.09768402 -- Audi

3/21/2018 2:28:16 AM -- 24.72997  -- 0, 0.09768402 -- Audi

3/21/2018 2:28:16 AM -- 24.78375  -- 0, 0.09768402 -- Audi

3/21/2018 2:28:16 AM -- 24.81163  -- 0, 0.09768402 -- Audi

3/21/2018 2:28:16 AM -- 24.85198  -- 0, 0.09768402 -- Audi

3/21/2018 2:28:16 AM -- 24.89397  -- 0, 0.09768402 -- Audi

3/21/2018 2:28:16 AM -- 24.93119  -- 0, 0.09768402 -- Audi

3/21/2018 2:28:16 AM -- 24.96139  -- 0, 0.09768402 -- Audi

3/21/2018 2:28:16 AM -- 24.99504  -- 0, 0.09768402 -- Audi

3/21/2018 2:28:16 AM -- 25.04963  -- 0, 0.09768402 -- Audi

3/21/2018 2:28:16 AM -- 25.07835  -- 0, 0.09768402 -- Audi

3/21/2018 2:28:16 AM -- 25.11332  -- 0, 0.09768402 -- Audi

3/21/2018 2:28:16 AM -- 25.16198  -- 0, 0.09768402 -- Audi

3/21/2018 2:28:16 AM -- 25.19526  -- 0, 0.09768402 -- Audi

3/21/2018 2:28:16 AM -- 25.24646  -- 0, 0.09768402 -- Audi

3/21/2018 2:28:17 AM -- 25.29487  -- 0, 0.09768402 -- Audi

3/21/2018 2:28:17 AM -- 25.3299  -- 0, 0.09768402 -- Audi

3/21/2018 2:28:17 AM -- 25.37995  -- 0, 0.09768402 -- Audi

3/21/2018 2:28:17 AM -- 25.42978  -- 0, 0.09768402 -- Audi

3/21/2018 2:28:17 AM -- 25.48594  -- 0, 0.09768402 -- Audi

3/21/2018 2:28:17 AM -- 25.54696  -- 0, 0.09768402 -- Audi

3/21/2018 2:28:17 AM -- 25.59671  -- 0, 0.09768402 -- Audi

3/21/2018 2:28:17 AM -- 25.64593  -- 0, 0.09768402 -- Audi

3/21/2018 2:28:17 AM -- 25.70065  -- 0, 0.09768402 -- Audi

3/21/2018 2:28:17 AM -- 25.74659  -- 0, 0.09768402 -- Audi

3/21/2018 2:28:17 AM -- 25.79619  -- 0, 0.09768402 -- Audi

3/21/2018 2:28:17 AM -- 25.85038  -- 0, 0.09768402 -- Audi

3/21/2018 2:28:17 AM -- 25.89774  -- 0, 0.09768402 -- Audi

3/21/2018 2:28:17 AM -- 25.94635  -- 0, 0.09768402 -- Audi

3/21/2018 2:28:17 AM -- 25.9979  -- 0, 0.09768402 -- Audi

3/21/2018 2:28:17 AM -- 26.04822  -- 0, 0.09768402 -- Audi

3/21/2018 2:28:17 AM -- 26.09628  -- 0, 0.09768402 -- Audi

3/21/2018 2:28:17 AM -- 26.13019  -- 0, 0.09768402 -- Audi

3/21/2018 2:28:17 AM -- 26.18421  -- 0, 0.09768402 -- Audi

3/21/2018 2:28:17 AM -- 26.22928  -- 0, 0.09768402 -- Audi

3/21/2018 2:28:18 AM -- 26.28467  -- 0, 0.09768402 -- Audi

3/21/2018 2:28:18 AM -- 26.33008  -- 0, 0.09768402 -- Audi

3/21/2018 2:28:18 AM -- 26.38234  -- 0, 0.09768402 -- Audi

3/21/2018 2:28:18 AM -- 26.43005  -- 0, 0.09768402 -- Audi

3/21/2018 2:28:18 AM -- 26.48243  -- 0, 0.09768402 -- Audi

3/21/2018 2:28:18 AM -- 26.51512  -- 0, 0.09768402 -- Audi

3/21/2018 2:28:18 AM -- 26.56519  -- 0, 0.09768402 -- Audi

3/21/2018 2:28:18 AM -- 26.5974  -- 0, 0.09768402 -- Audi

3/21/2018 2:28:18 AM -- 26.63104  -- 0, 0.09768402 -- Audi

3/21/2018 2:28:18 AM -- 26.68125  -- 0, 0.09768402 -- Audi

3/21/2018 2:28:18 AM -- 26.73074  -- 0, 0.09768402 -- Audi

3/21/2018 2:28:18 AM -- 26.78111  -- 0, 0.09768402 -- Audi

3/21/2018 2:28:18 AM -- 26.83285  -- 0, 0.09768402 -- Audi

3/21/2018 2:28:18 AM -- 26.88351  -- 0, 0.09768402 -- Audi

3/21/2018 2:28:18 AM -- 26.93102  -- 0, 0.09768402 -- Audi

3/21/2018 2:28:18 AM -- 26.98417  -- 0, 0.09768402 -- Audi

3/21/2018 2:28:18 AM -- 27.03029  -- 0, 0.09768402 -- Audi

3/21/2018 2:28:18 AM -- 27.08291  -- 0, 0.09768402 -- Audi

3/21/2018 2:28:18 AM -- 27.11629  -- 0, 0.09768402 -- Audi

3/21/2018 2:28:18 AM -- 27.18236  -- 0, 0.09768402 -- Audi

3/21/2018 2:28:18 AM -- 27.25509  -- 0, 0.09768402 -- Audi

3/21/2018 2:28:19 AM -- 27.29721  -- 0, 0.09768402 -- Audi

3/21/2018 2:28:19 AM -- 27.34886  -- 0, 0.09768402 -- Audi

3/21/2018 2:28:19 AM -- 27.39816  -- 0, 0.09768402 -- Audi

3/21/2018 2:28:19 AM -- 27.44864  -- 0, 0.09768402 -- Audi

3/21/2018 2:28:19 AM -- 27.50042  -- 0, 0.09768402 -- Audi

3/21/2018 2:28:19 AM -- 27.55239  -- 0, 0.09768402 -- Audi

3/21/2018 2:28:19 AM -- 27.61797  -- 0, 0.09768402 -- Audi

3/21/2018 2:28:19 AM -- 27.66885  -- 0, 0.09768402 -- Audi

3/21/2018 2:28:19 AM -- 27.71582  -- 0, 0.09768402 -- Audi

3/21/2018 2:28:19 AM -- 27.78417  -- 0, 0.09768402 -- Audi

3/21/2018 2:28:19 AM -- 27.86639  -- 0, 0.09768402 -- Audi

3/21/2018 2:28:19 AM -- 27.91731  -- 0, 0.09768402 -- Audi

3/21/2018 2:28:19 AM -- 27.96603  -- 0, 0.09768402 -- Audi

3/21/2018 2:28:19 AM -- 27.99758  -- 0, 0.09768402 -- Audi

3/21/2018 2:28:19 AM -- 28.05148  -- 0, 0.09768402 -- Audi

3/21/2018 2:28:19 AM -- 28.09903  -- 0, 0.09768402 -- Audi

3/21/2018 2:28:19 AM -- 28.13727  -- 0, 0.09768402 -- Audi

3/21/2018 2:28:19 AM -- 28.185  -- 0, 0.09768402 -- Audi

3/21/2018 2:28:19 AM -- 28.217  -- 0, 0.09768402 -- Audi

3/21/2018 2:28:19 AM -- 28.25078  -- 0, 0.09768402 -- Audi

3/21/2018 2:28:20 AM -- 28.29871  -- 0, 0.09768402 -- Audi

3/21/2018 2:28:20 AM -- 28.33238  -- 0, 0.09768402 -- Audi

3/21/2018 2:28:20 AM -- 28.38255  -- 0, 0.09768402 -- Audi

3/21/2018 2:28:20 AM -- 28.41651  -- 0, 0.09768402 -- Audi

3/21/2018 2:28:20 AM -- 28.47257  -- 0, 0.09768402 -- Audi

3/21/2018 2:28:20 AM -- 28.51587  -- 0, 0.09768402 -- Audi

3/21/2018 2:28:20 AM -- 28.54926  -- 0, 0.09768402 -- Audi

3/21/2018 2:28:20 AM -- 28.58323  -- 0, 0.09768402 -- Audi

3/21/2018 2:28:20 AM -- 28.63194  -- 0, 0.09768402 -- Audi

3/21/2018 2:28:20 AM -- 28.66615  -- 0, 0.09768402 -- Audi

3/21/2018 2:28:20 AM -- 28.70024  -- 0, 0.09768402 -- Audi

3/21/2018 2:28:20 AM -- 28.75105  -- 0, 0.09768402 -- Audi

3/21/2018 2:28:20 AM -- 28.78888  -- 0, 0.09768402 -- Audi

3/21/2018 2:28:20 AM -- 28.83315  -- 0, 0.09768402 -- Audi

3/21/2018 2:28:20 AM -- 28.86648  -- 0, 0.09768402 -- Audi

3/21/2018 2:28:20 AM -- 28.89958  -- 0, 0.09768402 -- Audi

3/21/2018 2:28:20 AM -- 28.93238  -- 0, 0.09768402 -- Audi

3/21/2018 2:28:20 AM -- 28.96821  -- 0, 0.09768402 -- Audi

3/21/2018 2:28:20 AM -- 28.99862  -- 0, 0.09768402 -- Audi

3/21/2018 2:28:20 AM -- 29.03283  -- 0, 0.09768402 -- Audi

3/21/2018 2:28:20 AM -- 29.06599  -- 0, 0.09768402 -- Audi

3/21/2018 2:28:20 AM -- 29.099  -- 0, 0.09768402 -- Audi

3/21/2018 2:28:20 AM -- 29.13728  -- 0, 0.09768402 -- Audi

3/21/2018 2:28:20 AM -- 29.18307  -- 0, 0.09768402 -- Audi

3/21/2018 2:28:20 AM -- 29.21678  -- 0, 0.09768402 -- Audi

3/21/2018 2:28:21 AM -- 29.25587  -- 0, 0.09768402 -- Audi

3/21/2018 2:28:21 AM -- 29.29942  -- 0, 0.09768402 -- Audi

3/21/2018 2:28:21 AM -- 29.33295  -- 0, 0.09768402 -- Audi

3/21/2018 2:28:21 AM -- 29.38333  -- 0, 0.09768402 -- Audi

3/21/2018 2:28:21 AM -- 29.41866  -- 0, 0.09768402 -- Audi

3/21/2018 2:28:21 AM -- 29.45151  -- 0, 0.09768402 -- Audi

3/21/2018 2:28:21 AM -- 29.49964  -- 0, 0.09768402 -- Audi

3/21/2018 2:28:21 AM -- 29.53308  -- 0, 0.09768402 -- Audi

3/21/2018 2:28:21 AM -- 29.58317  -- 0, 0.09768402 -- Audi

3/21/2018 2:28:21 AM -- 29.61783  -- 0, 0.09768402 -- Audi

3/21/2018 2:28:21 AM -- 29.65096  -- 0, 0.09768402 -- Audi

3/21/2018 2:28:21 AM -- 29.68382  -- 0, 0.09768402 -- Audi

3/21/2018 2:28:21 AM -- 29.71691  -- 0, 0.09768402 -- Audi

3/21/2018 2:28:21 AM -- 29.75052  -- 0, 0.09768402 -- Audi

3/21/2018 2:28:21 AM -- 29.78645  -- 0, 0.09768402 -- Audi

3/21/2018 2:28:21 AM -- 29.81797  -- 0, 0.09768402 -- Audi

3/21/2018 2:28:21 AM -- 29.85093  -- 0, 0.09768402 -- Audi

3/21/2018 2:28:21 AM -- 29.88493  -- 0, 0.09768402 -- Audi

3/21/2018 2:28:21 AM -- 29.93372  -- 0, 0.09768402 -- Audi

3/21/2018 2:28:21 AM -- 29.96716  -- 0, 0.09768402 -- Audi

3/21/2018 2:28:21 AM -- 29.99976  -- 0, 0.09768402 -- Audi

3/21/2018 2:28:21 AM -- 30.03454  -- 0, 0.09768402 -- Audi

3/21/2018 2:28:21 AM -- 30.067  -- 0, 0.09768402 -- Audi

3/21/2018 2:28:21 AM -- 30.11021  -- 0, 0.09768402 -- Audi

3/21/2018 2:28:21 AM -- 30.15127  -- 0, 0.09768402 -- Audi

3/21/2018 2:28:21 AM -- 30.18449  -- 0, 0.09768402 -- Audi

3/21/2018 2:28:21 AM -- 30.21793  -- 0, 0.09768402 -- Audi

3/21/2018 2:28:21 AM -- 30.25159  -- 0, 0.09768402 -- Audi

3/21/2018 2:28:22 AM -- 30.2847  -- 0, 0.09768402 -- Audi

3/21/2018 2:28:22 AM -- 30.31787  -- 0, 0.09768402 -- Audi

3/21/2018 2:28:22 AM -- 30.35464  -- 0, 0.09768402 -- Audi

3/21/2018 2:28:22 AM -- 30.4011  -- 0, 0.09768402 -- Audi

3/21/2018 2:28:22 AM -- 30.43466  -- 0, 0.09768402 -- Audi

3/21/2018 2:28:22 AM -- 30.47017  -- 0, 0.09768402 -- Audi

3/21/2018 2:28:22 AM -- 30.51859  -- 0, 0.09768402 -- Audi

3/21/2018 2:28:22 AM -- 30.5531  -- 0, 0.09768402 -- Audi

3/21/2018 2:28:22 AM -- 30.60223  -- 0, 0.09768402 -- Audi

3/21/2018 2:28:22 AM -- 30.65147  -- 0, 0.09768402 -- Audi

3/21/2018 2:28:22 AM -- 30.68577  -- 0, 0.09768402 -- Audi

3/21/2018 2:28:22 AM -- 30.73426  -- 0, 0.09768402 -- Audi

3/21/2018 2:28:22 AM -- 30.76791  -- 0, 0.09768402 -- Audi

3/21/2018 2:28:22 AM -- 30.80028  -- 0, 0.09768402 -- Audi

3/21/2018 2:28:22 AM -- 30.8347  -- 0, 0.09768402 -- Audi

3/21/2018 2:28:22 AM -- 30.88686  -- 0, 0.09768402 -- Audi

3/21/2018 2:28:22 AM -- 30.91762  -- 0, 0.09768402 -- Audi

3/21/2018 2:28:22 AM -- 30.95976  -- 0, 0.09768402 -- Audi

3/21/2018 2:28:22 AM -- 31.00125  -- 0, 0.09768402 -- Audi

3/21/2018 2:28:22 AM -- 31.03452  -- 0, 0.09768402 -- Audi

3/21/2018 2:28:22 AM -- 31.06819  -- 0, 0.09768402 -- Audi

3/21/2018 2:28:22 AM -- 31.1186  -- 0, 0.09768402 -- Audi

3/21/2018 2:28:22 AM -- 31.15322  -- 0, 0.09768402 -- Audi

3/21/2018 2:28:22 AM -- 31.18591  -- 0, 0.09768402 -- Audi

3/21/2018 2:28:22 AM -- 31.23493  -- 0, 0.09768402 -- Audi

3/21/2018 2:28:23 AM -- 31.26847  -- 0, 0.09768402 -- Audi

3/21/2018 2:28:23 AM -- 31.30204  -- 0, 0.09768402 -- Audi

3/21/2018 2:28:23 AM -- 31.35249  -- 0, 0.09768402 -- Audi

3/21/2018 2:28:23 AM -- 31.38737  -- 0, 0.09768402 -- Audi

3/21/2018 2:28:23 AM -- 31.42097  -- 0, 0.09768402 -- Audi

3/21/2018 2:28:23 AM -- 31.46873  -- 0, 0.09768402 -- Audi

3/21/2018 2:28:23 AM -- 31.50148  -- 0, 0.09768402 -- Audi

3/21/2018 2:28:23 AM -- 31.54014  -- 0, 0.09768402 -- Audi

3/21/2018 2:28:23 AM -- 31.58597  -- 0, 0.09768402 -- Audi

3/21/2018 2:28:23 AM -- 31.61986  -- 0, 0.09768402 -- Audi

3/21/2018 2:28:23 AM -- 31.65484  -- 0, 0.09768402 -- Audi

3/21/2018 2:28:23 AM -- 31.70211  -- 0, 0.09768402 -- Audi

3/21/2018 2:28:23 AM -- 31.73514  -- 0, 0.09768402 -- Audi

3/21/2018 2:28:23 AM -- 31.76874  -- 0, 0.09768402 -- Audi

3/21/2018 2:28:23 AM -- 31.81907  -- 0, 0.09768402 -- Audi

3/21/2018 2:28:23 AM -- 31.86447  -- 0, 0.09768402 -- Audi

3/21/2018 2:28:23 AM -- 31.88908  -- 0, 0.09768402 -- Audi

3/21/2018 2:28:23 AM -- 31.91884  -- 0, 0.09768402 -- Audi

3/21/2018 2:28:23 AM -- 31.95453  -- 0, 0.09768402 -- Audi

3/21/2018 2:28:23 AM -- 31.98626  -- 0, 0.09768402 -- Audi

3/21/2018 2:28:23 AM -- 32.02008  -- 0, 0.09768402 -- Audi

3/21/2018 2:28:23 AM -- 32.05372  -- 0, 0.09768402 -- Audi

3/21/2018 2:28:23 AM -- 32.08724  -- 0, 0.09768402 -- Audi

3/21/2018 2:28:23 AM -- 32.11943  -- 0, 0.09768402 -- Audi

3/21/2018 2:28:23 AM -- 32.15448  -- 0, 0.09768402 -- Audi

3/21/2018 2:28:23 AM -- 32.18657  -- 0, 0.09768402 -- Audi

3/21/2018 2:28:23 AM -- 32.22018  -- 0, 0.09768402 -- Audi

3/21/2018 2:28:23 AM -- 32.25318  -- 0, 0.09768402 -- Audi

3/21/2018 2:28:24 AM -- 32.28656  -- 0, 0.09768402 -- Audi

3/21/2018 2:28:24 AM -- 32.31972  -- 0, 0.09768402 -- Audi

3/21/2018 2:28:24 AM -- 32.35358  -- 0, 0.09768402 -- Audi

3/21/2018 2:28:24 AM -- 32.39017  -- 0, 0.09768402 -- Audi

3/21/2018 2:28:24 AM -- 32.42061  -- 0, 0.09768402 -- Audi

3/21/2018 2:28:24 AM -- 32.4545  -- 0, 0.09768402 -- Audi

3/21/2018 2:28:24 AM -- 32.48907  -- 0, 0.09768402 -- Audi

3/21/2018 2:28:24 AM -- 32.51947  -- 0, 0.09768402 -- Audi

3/21/2018 2:28:24 AM -- 32.57302  -- 0, 0.09768402 -- Audi

3/21/2018 2:28:24 AM -- 32.60136  -- 0, 0.09768402 -- Audi

3/21/2018 2:28:24 AM -- 32.63673  -- 0, 0.09768402 -- Audi

3/21/2018 2:28:24 AM -- 32.68836  -- 0, 0.09768402 -- Audi

3/21/2018 2:28:24 AM -- 32.72063  -- 0, 0.09768402 -- Audi

3/21/2018 2:28:24 AM -- 32.75433  -- 0, 0.09768402 -- Audi

3/21/2018 2:28:24 AM -- 32.78772  -- 0, 0.09768402 -- Audi

3/21/2018 2:28:24 AM -- 32.82295  -- 0, 0.09768402 -- Audi

3/21/2018 2:28:24 AM -- 32.87033  -- 0, 0.09768402 -- Audi

3/21/2018 2:28:24 AM -- 32.9042  -- 0, 0.09768402 -- Audi

3/21/2018 2:28:24 AM -- 32.93654  -- 0, 0.09768402 -- Audi

3/21/2018 2:28:24 AM -- 32.97132  -- 0, 0.09768402 -- Audi

3/21/2018 2:28:24 AM -- 33.00338  -- 0, 0.09768402 -- Audi

3/21/2018 2:28:24 AM -- 33.03722  -- 0, 0.09768402 -- Audi

3/21/2018 2:28:24 AM -- 33.07264  -- 0, 0.09768402 -- Audi

3/21/2018 2:28:24 AM -- 33.10345  -- 0, 0.09768402 -- Audi

3/21/2018 2:28:24 AM -- 33.13762  -- 0, 0.09768402 -- Audi

3/21/2018 2:28:24 AM -- 33.17049  -- 0, 0.09768402 -- Audi

3/21/2018 2:28:24 AM -- 33.20434  -- 0, 0.09768402 -- Audi

3/21/2018 2:28:24 AM -- 33.25418  -- 0, 0.09768402 -- Audi

3/21/2018 2:28:25 AM -- 33.28738  -- 0, 0.09768402 -- Audi

3/21/2018 2:28:25 AM -- 33.32024  -- 0, 0.09768402 -- Audi

3/21/2018 2:28:25 AM -- 33.35691  -- 0, 0.09768402 -- Audi

3/21/2018 2:28:25 AM -- 33.40416  -- 0, 0.09768402 -- Audi

3/21/2018 2:28:25 AM -- 33.45837  -- 0, 0.09768402 -- Audi

3/21/2018 2:28:25 AM -- 33.50504  -- 0, 0.09768402 -- Audi

3/21/2018 2:28:25 AM -- 33.55144  -- 0, 0.09768402 -- Audi

3/21/2018 2:28:25 AM -- 33.58842  -- 0, 0.09768402 -- Audi

3/21/2018 2:28:25 AM -- 33.62441  -- 0, 0.09768402 -- Audi

3/21/2018 2:28:25 AM -- 33.65742  -- 0, 0.09768402 -- Audi

3/21/2018 2:28:25 AM -- 33.68971  -- 0, 0.09768402 -- Audi

3/21/2018 2:28:25 AM -- 33.72036  -- 0, 0.09768402 -- Audi

3/21/2018 2:28:25 AM -- 33.75502  -- 0, 0.09768402 -- Audi

3/21/2018 2:28:25 AM -- 33.78815  -- 0, 0.09768402 -- Audi

3/21/2018 2:28:25 AM -- 33.83102  -- 0, 0.09768402 -- Audi

3/21/2018 2:28:25 AM -- 33.85555  -- 0, 0.09768402 -- Audi

3/21/2018 2:28:25 AM -- 33.88872  -- 0, 0.09768402 -- Audi

3/21/2018 2:28:25 AM -- 33.92137  -- 0, 0.09768402 -- Audi

3/21/2018 2:28:25 AM -- 33.9559  -- 0, 0.09768402 -- Audi

3/21/2018 2:28:25 AM -- 34.0045  -- 0, 0.09768402 -- Audi

3/21/2018 2:28:25 AM -- 34.03709  -- 0, 0.09768402 -- Audi

3/21/2018 2:28:25 AM -- 34.07484  -- 0, 0.09768402 -- Audi

3/21/2018 2:28:25 AM -- 34.10448  -- 0, 0.09768402 -- Audi

3/21/2018 2:28:25 AM -- 34.13802  -- 0, 0.09768402 -- Audi

3/21/2018 2:28:25 AM -- 34.17724  -- 0, 0.09768402 -- Audi

3/21/2018 2:28:25 AM -- 34.22084  -- 0, 0.09768402 -- Audi

3/21/2018 2:28:25 AM -- 34.25562  -- 0, 0.09768402 -- Audi

3/21/2018 2:28:26 AM -- 34.29375  -- 0, 0.09768402 -- Audi

3/21/2018 2:28:26 AM -- 34.3213  -- 0, 0.09768402 -- Audi

3/21/2018 2:28:26 AM -- 34.3555  -- 0, 0.09768402 -- Audi

3/21/2018 2:28:26 AM -- 34.39064  -- 0, 0.09768402 -- Audi

3/21/2018 2:28:26 AM -- 34.42282  -- 0, 0.09768402 -- Audi

3/21/2018 2:28:26 AM -- 34.45592  -- 0, 0.09768402 -- Audi

3/21/2018 2:28:26 AM -- 34.50598  -- 0, 0.09768402 -- Audi

3/21/2018 2:28:26 AM -- 34.53907  -- 0, 0.09768402 -- Audi

3/21/2018 2:28:26 AM -- 34.5729  -- 0, 0.09768402 -- Audi

3/21/2018 2:28:26 AM -- 34.60564  -- 0, 0.09768402 -- Audi

3/21/2018 2:28:26 AM -- 34.63832  -- 0, 0.09768402 -- Audi

3/21/2018 2:28:26 AM -- 34.67299  -- 0, 0.09768402 -- Audi

3/21/2018 2:28:26 AM -- 34.70502  -- 0, 0.09768402 -- Audi

3/21/2018 2:28:26 AM -- 34.73948  -- 0, 0.09768402 -- Audi

3/21/2018 2:28:26 AM -- 34.77177  -- 0, 0.09768402 -- Audi

3/21/2018 2:28:26 AM -- 34.80605  -- 0, 0.09768402 -- Audi

3/21/2018 2:28:26 AM -- 34.83736  -- 0, 0.09768402 -- Audi

3/21/2018 2:28:26 AM -- 34.87273  -- 0, 0.09768402 -- Audi

3/21/2018 2:28:26 AM -- 34.90635  -- 0, 0.09768402 -- Audi

3/21/2018 2:28:26 AM -- 34.97622  -- 0, 0.09768402 -- Audi

